{"requestInfo":{"status":"OK","message":"SUCCESS","generatedDate":null},"pagination":{"page":1,"size":12,"totalSize":1939,"totalPage":162},"offers":[{"id":"2002577","name":"Cooktop Híbrido a Gás e Indução 4 Zonas Preto Electrolux (IE60H) - 220V","category":{"id":116,"name":"Eletrodomésticos","link":"http://api.lomadee.com/v3/16168894131732d2dfed6/category/_id/116?sourceId=37058785"},"link":"https://redir.lomadee.com/v2/direct/aHR0cHM6Ly9sb2phLmVsZWN0cm9sdXguY29tLmJyL2Nvb2t0b3AtaGlicmlkby1hLWdhcy1lLWluZHVjYW8tNC16b25hcy1wcmV0by1lbGVjdHJvbHV4LS1pZTYwaC0vcD9pZHNrdT0yMDA0MzQ2JnV0bV9zb3VyY2U9bG9tYWRlZSZ1dG1fY2FtcGFpZ249YWxscHJvZHVjdHMmdXRtX21lZGl1bT1hZmlsaWFkb3M=/37058785/12780","thumbnail":"https://electrolux.vteximg.com.br/arquivos/ids/204898_2","price":2619.0,"priceFrom":3339.0,"discount":21.56,"store":{"id":6078,"name":"Electrolux","thumbnail":"https://www.lomadee.com/programas/BR/6078/imagemBox_80x60.png","link":"https://redir.lomadee.com/v2/direct/aHR0cDovL2xvamEuZWxlY3Ryb2x1eC5jb20uYnI=/37058785/12780","invisible":false,"needPermission":false}},{"id":"115","name":"Cooktop 5 bocas Electrolux a Gás (GT75X)","category":{"id":116,"name":"Eletrodomésticos","link":"http://api.lomadee.com/v3/16168894131732d2dfed6/category/_id/116?sourceId=37058785"},"link":"https://redir.lomadee.com/v2/direct/aHR0cHM6Ly9sb2phLmVsZWN0cm9sdXguY29tLmJyL2Nvb2t0b3AtYS1nYXMtNS1xdWVpbWFkb3Jlcy1ndDc1eC1lbGVjdHJvbHV4L3A/aWRza3U9MjAwMTkzOSZ1dG1fc291cmNlPWxvbWFkZWUmdXRtX2NhbXBhaWduPWFsbHByb2R1Y3RzJnV0bV9tZWRpdW09YWZpbGlhZG9z/37058785/12780","thumbnail":"https://electrolux.vteximg.com.br/arquivos/ids/199713_2","price":1099.0,"priceFrom":1259.0,"discount":12.71,"store":{"id":6078,"name":"Electrolux","thumbnail":"https://www.lomadee.com/programas/BR/6078/imagemBox_80x60.png","link":"https://redir.lomadee.com/v2/direct/aHR0cDovL2xvamEuZWxlY3Ryb2x1eC5jb20uYnI=/37058785/12780","invisible":false,"needPermission":false}},{"id":"2002681","name":"Cooktop 4 bocas Electrolux a Gás (KE4GP) - Bivolt","category":{"id":116,"name":"Eletrodomésticos","link":"http://api.lomadee.com/v3/16168894131732d2dfed6/category/_id/116?sourceId=37058785"},"link":"https://redir.lomadee.com/v2/direct/aHR0cHM6Ly9sb2phLmVsZWN0cm9sdXguY29tLmJyL2Nvb2t0b3AtYS1nYXMtNC1ib2Nhcy0ta2U0Z3AtZWxlY3Ryb2x1eC9wP2lkc2t1PTIwMDQ1MzUmdXRtX3NvdXJjZT1sb21hZGVlJnV0bV9jYW1wYWlnbj1hbGxwcm9kdWN0cyZ1dG1fbWVkaXVtPWFmaWxpYWRvcw==/37058785/12780","thumbnail":"https://electrolux.vteximg.com.br/arquivos/ids/199756_2","price":479.0,"priceFrom":619.0,"discount":22.62,"store":{"id":6078,"name":"Electrolux","thumbnail":"https://www.lomadee.com/programas/BR/6078/imagemBox_80x60.png","link":"https://redir.lomadee.com/v2/direct/aHR0cDovL2xvamEuZWxlY3Ryb2x1eC5jb20uYnI=/37058785/12780","invisible":false,"needPermission":false}},{"id":"2002574","name":"Cooktop de Indução 4 Zonas com Sense Fry Preto Electrolux (IE6SF) - 220v","category":{"id":116,"name":"Eletrodomésticos","link":"http://api.lomadee.com/v3/16168894131732d2dfed6/category/_id/116?sourceId=37058785"},"link":"https://redir.lomadee.com/v2/direct/aHR0cHM6Ly9sb2phLmVsZWN0cm9sdXguY29tLmJyL2Nvb2t0b3AtZGUtaW5kdWNhby00LXpvbmFzLWNvbS1zZW5zZS1mcnktcHJldG8tZWxlY3Ryb2x1eC1pZTZzZi9wP2lkc2t1PTIwMDQzNDgmdXRtX3NvdXJjZT1sb21hZGVlJnV0bV9jYW1wYWlnbj1hbGxwcm9kdWN0cyZ1dG1fbWVkaXVtPWFmaWxpYWRvcw==/37058785/12780","thumbnail":"https://electrolux.vteximg.com.br/arquivos/ids/204863_2","price":5099.0,"priceFrom":6679.0,"discount":23.66,"store":{"id":6078,"name":"Electrolux","thumbnail":"https://www.lomadee.com/programas/BR/6078/imagemBox_80x60.png","link":"https://redir.lomadee.com/v2/direct/aHR0cDovL2xvamEuZWxlY3Ryb2x1eC5jb20uYnI=/37058785/12780","invisible":false,"needPermission":false}},{"id":"2002678","name":"Cooktop 5 bocas Electrolux a Gás Preto Pro Series (GV75P) - Bivolt","category":{"id":116,"name":"Eletrodomésticos","link":"http://api.lomadee.com/v3/16168894131732d2dfed6/category/_id/116?sourceId=37058785"},"link":"https://redir.lomadee.com/v2/direct/aHR0cHM6Ly9sb2phLmVsZWN0cm9sdXguY29tLmJyL2Nvb2t0b3AtYS1nYXMtNS1ib2Nhcy1wcmV0by1wcm8tc2VyaWVzLWVsZWN0cm9sdXgtZ3Y3NXAtL3A/aWRza3U9MjAwNDUzNCZ1dG1fc291cmNlPWxvbWFkZWUmdXRtX2NhbXBhaWduPWFsbHByb2R1Y3RzJnV0bV9tZWRpdW09YWZpbGlhZG9z/37058785/12780","thumbnail":"https://electrolux.vteximg.com.br/arquivos/ids/198252_2","price":2599.0,"priceFrom":2649.0,"discount":1.89,"store":{"id":6078,"name":"Electrolux","thumbnail":"https://www.lomadee.com/programas/BR/6078/imagemBox_80x60.png","link":"https://redir.lomadee.com/v2/direct/aHR0cDovL2xvamEuZWxlY3Ryb2x1eC5jb20uYnI=/37058785/12780","invisible":false,"needPermission":false}},{"id":"2002947","name":"Cooktop 5 bocas Electrolux a Gás (KE5TD) - Bivolt","category":{"id":116,"name":"Eletrodomésticos","link":"http://api.lomadee.com/v3/16168894131732d2dfed6/category/_id/116?sourceId=37058785"},"link":"https://redir.lomadee.com/v2/direct/aHR0cHM6Ly9sb2phLmVsZWN0cm9sdXguY29tLmJyL2tlNXRkLWtlNXRkLWNvb2t0b3AtZ2FzLTVxLTgwLS9wP2lkc2t1PTIwMDUxMjgmdXRtX3NvdXJjZT1sb21hZGVlJnV0bV9jYW1wYWlnbj1hbGxwcm9kdWN0cyZ1dG1fbWVkaXVtPWFmaWxpYWRvcw==/37058785/12780","thumbnail":"https://electrolux.vteximg.com.br/arquivos/ids/201009_2","price":759.0,"priceFrom":959.0,"discount":20.86,"store":{"id":6078,"name":"Electrolux","thumbnail":"https://www.lomadee.com/programas/BR/6078/imagemBox_80x60.png","link":"https://redir.lomadee.com/v2/direct/aHR0cDovL2xvamEuZWxlY3Ryb2x1eC5jb20uYnI=/37058785/12780","invisible":false,"needPermission":false}},{"id":"2002682","name":"Cooktop 5 bocas Electrolux a Gás 5 Bocas (KE5GP) - Bivolt","category":{"id":116,"name":"Eletrodomésticos","link":"http://api.lomadee.com/v3/16168894131732d2dfed6/category/_id/116?sourceId=37058785"},"link":"https://redir.lomadee.com/v2/direct/aHR0cHM6Ly9sb2phLmVsZWN0cm9sdXguY29tLmJyL2Nvb2t0b3AtYS1nYXMtNS1ib2Nhcy0ta2U1Z3AtZWxlY3Ryb2x1eC9wP2lkc2t1PTIwMDQ1MzcmdXRtX3NvdXJjZT1sb21hZGVlJnV0bV9jYW1wYWlnbj1hbGxwcm9kdWN0cyZ1dG1fbWVkaXVtPWFmaWxpYWRvcw==/37058785/12780","thumbnail":"https://electrolux.vteximg.com.br/arquivos/ids/198816_2","price":599.0,"priceFrom":779.0,"discount":23.11,"store":{"id":6078,"name":"Electrolux","thumbnail":"https://www.lomadee.com/programas/BR/6078/imagemBox_80x60.png","link":"https://redir.lomadee.com/v2/direct/aHR0cDovL2xvamEuZWxlY3Ryb2x1eC5jb20uYnI=/37058785/12780","invisible":false,"needPermission":false}},{"id":"2002576","name":"Cooktop de Indução 4 Zonas Unicook Preto Electrolux (IE80P) - 220V","category":{"id":116,"name":"Eletrodomésticos","link":"http://api.lomadee.com/v3/16168894131732d2dfed6/category/_id/116?sourceId=37058785"},"link":"https://redir.lomadee.com/v2/direct/aHR0cHM6Ly9sb2phLmVsZWN0cm9sdXguY29tLmJyL2Nvb2t0b3AtZGUtaW5kdWNhby00LXpvbmFzLXVuaWNvb2stcHJldG8tZWxlY3Ryb2x1eC1pZTgwcC9wP2lkc2t1PTIwMDQzNDkmdXRtX3NvdXJjZT1sb21hZGVlJnV0bV9jYW1wYWlnbj1hbGxwcm9kdWN0cyZ1dG1fbWVkaXVtPWFmaWxpYWRvcw==/37058785/12780","thumbnail":"https://electrolux.vteximg.com.br/arquivos/ids/204890_2","price":3039.0,"priceFrom":4349.0,"discount":30.12,"store":{"id":6078,"name":"Electrolux","thumbnail":"https://www.lomadee.com/programas/BR/6078/imagemBox_80x60.png","link":"https://redir.lomadee.com/v2/direct/aHR0cDovL2xvamEuZWxlY3Ryb2x1eC5jb20uYnI=/37058785/12780","invisible":false,"needPermission":false}},{"id":"2000765","name":"Cooktop 2 bocas Electrolux Dominó de Indução (IC30) - Cooktop Dominó 2 Zonas de Indução (IC30)","category":{"id":116,"name":"Eletrodomésticos","link":"http://api.lomadee.com/v3/16168894131732d2dfed6/category/_id/116?sourceId=37058785"},"link":"https://redir.lomadee.com/v2/direct/aHR0cHM6Ly9sb2phLmVsZWN0cm9sdXguY29tLmJyL2Nvb2t0b3AtZG9taW5vLTItem9uYXMtLWRlLWluZHVjYW8tLWljMzAtZWxlY3Ryb2x1eC9wP2lkc2t1PTIwMDI3NTcmdXRtX3NvdXJjZT1sb21hZGVlJnV0bV9jYW1wYWlnbj1hbGxwcm9kdWN0cyZ1dG1fbWVkaXVtPWFmaWxpYWRvcw==/37058785/12780","thumbnail":"https://electrolux.vteximg.com.br/arquivos/ids/188449_2","price":1589.0,"priceFrom":2789.0,"discount":43.03,"store":{"id":6078,"name":"Electrolux","thumbnail":"https://www.lomadee.com/programas/BR/6078/imagemBox_80x60.png","link":"https://redir.lomadee.com/v2/direct/aHR0cDovL2xvamEuZWxlY3Ryb2x1eC5jb20uYnI=/37058785/12780","invisible":false,"needPermission":false}},{"id":"2000758","name":"Cooktop 5 bocas Electrolux a Gás Inox (GF75X) - Cooktop a Gás 5 Queimadores Inox (GF75X)","category":{"id":116,"name":"Eletrodomésticos","link":"http://api.lomadee.com/v3/16168894131732d2dfed6/category/_id/116?sourceId=37058785"},"link":"https://redir.lomadee.com/v2/direct/aHR0cHM6Ly9sb2phLmVsZWN0cm9sdXguY29tLmJyL2Nvb2t0b3AtYS1nYXMtNS1xdWVpbWFkb3Jlcy1pbm94LWdmNzV4LWVsZWN0cm9sdXgvcD9pZHNrdT0yMDAxOTQwJnV0bV9zb3VyY2U9bG9tYWRlZSZ1dG1fY2FtcGFpZ249YWxscHJvZHVjdHMmdXRtX21lZGl1bT1hZmlsaWFkb3M=/37058785/12780","thumbnail":"https://electrolux.vteximg.com.br/arquivos/ids/199712_2","price":1349.0,"priceFrom":1549.0,"discount":12.91,"store":{"id":6078,"name":"Electrolux","thumbnail":"https://www.lomadee.com/programas/BR/6078/imagemBox_80x60.png","link":"https://redir.lomadee.com/v2/direct/aHR0cDovL2xvamEuZWxlY3Ryb2x1eC5jb20uYnI=/37058785/12780","invisible":false,"needPermission":false}},{"id":"114","name":"Cooktop 4 bocas Electrolux a Gás Inox (GT60X) - Cooktop 4 bocas cor Inox a Gás Electrolux (GT60X)","category":{"id":116,"name":"Eletrodomésticos","link":"http://api.lomadee.com/v3/16168894131732d2dfed6/category/_id/116?sourceId=37058785"},"link":"https://redir.lomadee.com/v2/direct/aHR0cHM6Ly9sb2phLmVsZWN0cm9sdXguY29tLmJyL2Nvb2t0b3AtYS1nYXMtNC1xdWVpbWFkb3Jlcy1ndDYweC1lbGVjdHJvbHV4L3A/aWRza3U9MjAwMTkzOCZ1dG1fc291cmNlPWxvbWFkZWUmdXRtX2NhbXBhaWduPWFsbHByb2R1Y3RzJnV0bV9tZWRpdW09YWZpbGlhZG9z/37058785/12780","thumbnail":"https://electrolux.vteximg.com.br/arquivos/ids/190096_2","price":899.0,"priceFrom":989.0,"discount":9.1,"store":{"id":6078,"name":"Electrolux","thumbnail":"https://www.lomadee.com/programas/BR/6078/imagemBox_80x60.png","link":"https://redir.lomadee.com/v2/direct/aHR0cDovL2xvamEuZWxlY3Ryb2x1eC5jb20uYnI=/37058785/12780","invisible":false,"needPermission":false}},{"id":"2002680","name":"Cooktop 5 bocas Electrolux a Gás (KE5TP) - Bivolt","category":{"id":116,"name":"Eletrodomésticos","link":"http://api.lomadee.com/v3/16168894131732d2dfed6/category/_id/116?sourceId=37058785"},"link":"https://redir.lomadee.com/v2/direct/aHR0cHM6Ly9sb2phLmVsZWN0cm9sdXguY29tLmJyL2Nvb2t0b3AtYS1nYXMtNS1ib2Nhcy1rZTV0cC1lbGVjdHJvbHV4L3A/aWRza3U9MjAwNDUzOCZ1dG1fc291cmNlPWxvbWFkZWUmdXRtX2NhbXBhaWduPWFsbHByb2R1Y3RzJnV0bV9tZWRpdW09YWZpbGlhZG9z/37058785/12780","thumbnail":"https://electrolux.vteximg.com.br/arquivos/ids/198179_2","price":679.0,"priceFrom":939.0,"discount":27.69,"store":{"id":6078,"name":"Electrolux","thumbnail":"https://www.lomadee.com/programas/BR/6078/imagemBox_80x60.png","link":"https://redir.lomadee.com/v2/direct/aHR0cDovL2xvamEuZWxlY3Ryb2x1eC5jb20uYnI=/37058785/12780","invisible":false,"needPermission":false}}]}