{"requestInfo":{"status":"OK","message":"SUCCESS","generatedDate":null},"pagination":{"page":1,"size":12,"totalSize":133,"totalPage":12},"offers":[{"id":"0445242","name":"Lâmpada Retrô Filamento de Led 4W P130 Bivolt E27","category":{"id":2930,"name":"Lâmpada","link":"http://api.lomadee.com/v3/16168894131732d2dfed6/category/_id/2930?sourceId=37058785"},"link":"https://redir.lomadee.com/v2/direct/aHR0cHM6Ly93d3cuZXRuYS5jb20uYnIvcC9sYW1wYWRhLXJldHJvLWZpbGFtZW50by1kZS1sZWQtNHctcDEzMC1iaXZvbHQtZTI3LzA0NDUyNDI=/37058785/12780","thumbnail":"https://www.etna.com.br/medias/sys_master/images/images/h63/h0c/9936388063262/0445242-01.jpg","price":99.99,"discount":0.0,"installment":{"quantity":2,"value":50.0},"store":{"id":6373,"name":"Etna","thumbnail":"https://www.lomadee.com/programas/BR/6373/imagemBox_80x60.png","link":"https://redir.lomadee.com/v2/direct/aHR0cHM6Ly93d3cuZXRuYS5jb20uYnIv/37058785/12780","invisible":false,"needPermission":false}},{"id":"0385655","name":"Lâmpada Dicróica de Led Bivolt 6W Par20 Branca Ourolux","category":{"id":2930,"name":"Lâmpada","link":"http://api.lomadee.com/v3/16168894131732d2dfed6/category/_id/2930?sourceId=37058785"},"link":"https://redir.lomadee.com/v2/direct/aHR0cHM6Ly93d3cuZXRuYS5jb20uYnIvcC9sYW1wYWRhLWRpY3JvaWNhLWRlLWxlZC1iaXZvbHQtNnctcGFyMjAtYnJhbmNhLW91cm9sdXgvMDM4NTY1NQ==/37058785/12780","thumbnail":"https://www.etna.com.br/medias/sys_master/images/images/h3e/hca/9494749413406/0385655-01.jpg","price":39.99,"discount":0.0,"store":{"id":6373,"name":"Etna","thumbnail":"https://www.lomadee.com/programas/BR/6373/imagemBox_80x60.png","link":"https://redir.lomadee.com/v2/direct/aHR0cHM6Ly93d3cuZXRuYS5jb20uYnIv/37058785/12780","invisible":false,"needPermission":false}},{"id":"0323954","name":"Lâmpada Incandescente Vl37 Leitosa 25W 127V Sadokin","category":{"id":2930,"name":"Lâmpada","link":"http://api.lomadee.com/v3/16168894131732d2dfed6/category/_id/2930?sourceId=37058785"},"link":"https://redir.lomadee.com/v2/direct/aHR0cHM6Ly93d3cuZXRuYS5jb20uYnIvcC9sYW1wYWRhLWluY2FuZGVzY2VudGUtdmwzNy1sZWl0b3NhLTI1dy0xMjd2LXNhZG9raW4vMDMyMzk1NA==/37058785/12780","thumbnail":"https://www.etna.com.br/medias/sys_master/images/images/hac/h97/9483811061790/0323954-01.jpg","price":5.99,"discount":0.0,"store":{"id":6373,"name":"Etna","thumbnail":"https://www.lomadee.com/programas/BR/6373/imagemBox_80x60.png","link":"https://redir.lomadee.com/v2/direct/aHR0cHM6Ly93d3cuZXRuYS5jb20uYnIv/37058785/12780","invisible":false,"needPermission":false}},{"id":"0437342","name":"Lâmpada de Led Autodimerizável Bivolt 9W E27 6500K","category":{"id":2930,"name":"Lâmpada","link":"http://api.lomadee.com/v3/16168894131732d2dfed6/category/_id/2930?sourceId=37058785"},"link":"https://redir.lomadee.com/v2/direct/aHR0cHM6Ly93d3cuZXRuYS5jb20uYnIvcC9sYW1wLWxlZC1hdXRvLWRpbWVyLTl3LWUyNy02NTAway1iaXYvMDQzNzM0Mg==/37058785/12780","thumbnail":"https://www.etna.com.br/medias/sys_master/images/images/h56/hc9/9649562320926/0437342-01.jpg","price":35.99,"discount":0.0,"store":{"id":6373,"name":"Etna","thumbnail":"https://www.lomadee.com/programas/BR/6373/imagemBox_80x60.png","link":"https://redir.lomadee.com/v2/direct/aHR0cHM6Ly93d3cuZXRuYS5jb20uYnIv/37058785/12780","invisible":false,"needPermission":false}},{"id":"0437254","name":"Lâmpada de Led Bivolt 9W E27 6,5K","category":{"id":2930,"name":"Lâmpada","link":"http://api.lomadee.com/v3/16168894131732d2dfed6/category/_id/2930?sourceId=37058785"},"link":"https://redir.lomadee.com/v2/direct/aHR0cHM6Ly93d3cuZXRuYS5jb20uYnIvcC9sYW1wYWRhLWRlLWxlZC1iaXZvbHQtOXctZTI3LTYtNWsvMDQzNzI1NA==/37058785/12780","thumbnail":"https://www.etna.com.br/medias/sys_master/images/images/h3a/h24/9675933483038/0437254-01.jpg","price":9.99,"discount":0.0,"store":{"id":6373,"name":"Etna","thumbnail":"https://www.lomadee.com/programas/BR/6373/imagemBox_80x60.png","link":"https://redir.lomadee.com/v2/direct/aHR0cHM6Ly93d3cuZXRuYS5jb20uYnIv/37058785/12780","invisible":false,"needPermission":false}},{"id":"0434120","name":"Lâmpada de Led Bivolt Amarela 3W E14","category":{"id":2930,"name":"Lâmpada","link":"http://api.lomadee.com/v3/16168894131732d2dfed6/category/_id/2930?sourceId=37058785"},"link":"https://redir.lomadee.com/v2/direct/aHR0cHM6Ly93d3cuZXRuYS5jb20uYnIvcC9sYW1wYWRhLWRlLWxlZC1iaXZvbHQtYW1hcmVsYS0zdy1lMTQvMDQzNDEyMA==/37058785/12780","thumbnail":"https://www.etna.com.br/medias/sys_master/images/images/haf/h25/9675043373086/0434120-01.jpg","price":39.99,"discount":0.0,"store":{"id":6373,"name":"Etna","thumbnail":"https://www.lomadee.com/programas/BR/6373/imagemBox_80x60.png","link":"https://redir.lomadee.com/v2/direct/aHR0cHM6Ly93d3cuZXRuYS5jb20uYnIv/37058785/12780","invisible":false,"needPermission":false}},{"id":"0434125","name":"Lâmpada Ballon G95 com Filamento de LED Bivolt Amarela 4W E27","category":{"id":2930,"name":"Lâmpada","link":"http://api.lomadee.com/v3/16168894131732d2dfed6/category/_id/2930?sourceId=37058785"},"link":"https://redir.lomadee.com/v2/direct/aHR0cHM6Ly93d3cuZXRuYS5jb20uYnIvcC9sYW1wYWRhLWJhbGxvbi1nOTUtY29tLWZpbGFtZW50by1kZS1sZWQtYml2b2x0LWFtYXJlbGEtNHctZTI3LzA0MzQxMjU=/37058785/12780","thumbnail":"https://www.etna.com.br/medias/sys_master/images/images/hab/h77/9710411415582/0434125-01.jpg","price":79.99,"discount":0.0,"store":{"id":6373,"name":"Etna","thumbnail":"https://www.lomadee.com/programas/BR/6373/imagemBox_80x60.png","link":"https://redir.lomadee.com/v2/direct/aHR0cHM6Ly93d3cuZXRuYS5jb20uYnIv/37058785/12780","invisible":false,"needPermission":false}},{"id":"0434137","name":"Lâmpada Ball com Filamento de LED G125 Bivolt Amarela 2,5W E27","category":{"id":2930,"name":"Lâmpada","link":"http://api.lomadee.com/v3/16168894131732d2dfed6/category/_id/2930?sourceId=37058785"},"link":"https://redir.lomadee.com/v2/direct/aHR0cHM6Ly93d3cuZXRuYS5jb20uYnIvcC9sYW1wYWRhLWJhbGwtY29tLWZpbGFtZW50by1kZS1sZWQtZzEyNS1iaXZvbHQtYW1hcmVsYS0yLTV3LWUyNy8wNDM0MTM3/37058785/12780","thumbnail":"https://www.etna.com.br/medias/sys_master/images/images/hc1/h65/9710417051678/0434137-01.jpg","price":59.99,"discount":0.0,"store":{"id":6373,"name":"Etna","thumbnail":"https://www.lomadee.com/programas/BR/6373/imagemBox_80x60.png","link":"https://redir.lomadee.com/v2/direct/aHR0cHM6Ly93d3cuZXRuYS5jb20uYnIv/37058785/12780","invisible":false,"needPermission":false}},{"id":"0449080","name":"Lâmpada Superled G6 2,5W 127V 2700K Fosca","category":{"id":2930,"name":"Lâmpada","link":"http://api.lomadee.com/v3/16168894131732d2dfed6/category/_id/2930?sourceId=37058785"},"link":"https://redir.lomadee.com/v2/direct/aHR0cHM6Ly93d3cuZXRuYS5jb20uYnIvcC9sYW1wYWRhLXN1cGVybGVkLWc2LTItNXctMjcwMGsvMDQ0OTA4MA==/37058785/12780","thumbnail":"https://www.etna.com.br/medias/sys_master/images/images/hed/h85/10036824703006/0449080-01.jpg","price":39.99,"discount":0.0,"store":{"id":6373,"name":"Etna","thumbnail":"https://www.lomadee.com/programas/BR/6373/imagemBox_80x60.png","link":"https://redir.lomadee.com/v2/direct/aHR0cHM6Ly93d3cuZXRuYS5jb20uYnIv/37058785/12780","invisible":false,"needPermission":false}},{"id":"0449085","name":"Lâmpada Superled GU10 4W Bivolt 2700K","category":{"id":2930,"name":"Lâmpada","link":"http://api.lomadee.com/v3/16168894131732d2dfed6/category/_id/2930?sourceId=37058785"},"link":"https://redir.lomadee.com/v2/direct/aHR0cHM6Ly93d3cuZXRuYS5jb20uYnIvcC9sYW1wYWRhLXN1cGVybGVkLWd1MTAtNHctMjcwMGsvMDQ0OTA4NQ==/37058785/12780","thumbnail":"https://www.etna.com.br/medias/sys_master/images/images/h66/hbf/10036826308638/0449085-01.jpg","price":22.99,"discount":0.0,"store":{"id":6373,"name":"Etna","thumbnail":"https://www.lomadee.com/programas/BR/6373/imagemBox_80x60.png","link":"https://redir.lomadee.com/v2/direct/aHR0cHM6Ly93d3cuZXRuYS5jb20uYnIv/37058785/12780","invisible":false,"needPermission":false}},{"id":"0437561","name":"Lâmpada de Led Âmbar E27","category":{"id":2930,"name":"Lâmpada","link":"http://api.lomadee.com/v3/16168894131732d2dfed6/category/_id/2930?sourceId=37058785"},"link":"https://redir.lomadee.com/v2/direct/aHR0cHM6Ly93d3cuZXRuYS5jb20uYnIvcC9sYW1wYWRhLWRlLWxlZC1hbWJhci1lMjcvMDQzNzU2MQ==/37058785/12780","thumbnail":"https://www.etna.com.br/medias/sys_master/images/images/h63/ha5/9664214335518/0437561-01.jpg","price":199.9,"discount":0.0,"installment":{"quantity":3,"value":66.64},"store":{"id":6373,"name":"Etna","thumbnail":"https://www.lomadee.com/programas/BR/6373/imagemBox_80x60.png","link":"https://redir.lomadee.com/v2/direct/aHR0cHM6Ly93d3cuZXRuYS5jb20uYnIv/37058785/12780","invisible":false,"needPermission":false}},{"id":"0408783","name":"Lâmpada Decorativa St58 Csc Cage 220V","category":{"id":2930,"name":"Lâmpada","link":"http://api.lomadee.com/v3/16168894131732d2dfed6/category/_id/2930?sourceId=37058785"},"link":"https://redir.lomadee.com/v2/direct/aHR0cHM6Ly93d3cuZXRuYS5jb20uYnIvcC9sYW1wYWRhLWRlY29yYXRpdmEtc3Q1OC1jc2MtY2FnZS0yMjB2LzA0MDg3ODM=/37058785/12780","thumbnail":"https://www.etna.com.br/medias/sys_master/images/images/h9b/h99/9513067708446/0408783-01.jpg","price":29.99,"discount":0.0,"store":{"id":6373,"name":"Etna","thumbnail":"https://www.lomadee.com/programas/BR/6373/imagemBox_80x60.png","link":"https://redir.lomadee.com/v2/direct/aHR0cHM6Ly93d3cuZXRuYS5jb20uYnIv/37058785/12780","invisible":false,"needPermission":false}}]}