{"requestInfo":{"status":"OK","message":"SUCCESS","generatedDate":null},"pagination":{"page":1,"size":12,"totalSize":717,"totalPage":60},"offers":[{"id":"1938788388","name":"2020 Mais Novo Criativo usb Recarregável Pendurado No Pescoço Ventilador Cooler Dual Cooling Preguiçoso Neckband Fan 2 Tipos Wongkuba","category":{"id":2,"name":"Informática","link":"http://api.lomadee.com/v3/16168894131732d2dfed6/category/_id/2?sourceId=37058785"},"link":"https://redir.lomadee.com/v2/direct/aHR0cHM6Ly90cmFja2VyMi5hZDV0cmFjay5jb20vdHJhY2tlci9jbGljaz9hY2M9MmNjZmU4MjJkZmQ4NWQzYjcyMzU3ZjRkNWYwODlmZjYmaT01OTk1OTdmNWVlYzNkZmIxZjgzYjc5MDUmbz01ZjM1ZDNhN2Y4ZTk1ZWFjM2RiNzhkYjQmcmVkaXJlY3RfdXJsPWh0dHBzJTNBJTJGJTJGd3d3LmFtZXJpY2FuYXMuY29tLmJyJTJGcHJvZHV0byUyRjE5Mzg3ODgzODglM0ZvcG4lM0RBRkxBQ09N/37058785/12780","thumbnail":"https://images-americanas.b2w.io/produtos/1938788388/imagens/2020-mais-novo-criativo-usb-recarregavel-pendurado-no-pescoco-ventilador-cooler-dual-cooling-preguicoso-neckband-fan-2-tipos-wongkuba/1938788388_1_medium.jpg","price":373.23,"priceFrom":373.23,"discount":0.0,"installment":{"quantity":12,"value":31.1},"store":{"id":5632,"name":"Americanas","thumbnail":"https://www.lomadee.com/programas/BR/5632/imagemBox_80x60.png","link":"https://redir.lomadee.com/v2/direct/aHR0cHM6Ly93d3cuYW1lcmljYW5hcy5jb20uYnIv/37058785/12780","invisible":false,"needPermission":true}},{"id":"2076164917","name":"X-Games XKPPD076-FXPX","category":{"id":2,"name":"Informática","link":"http://api.lomadee.com/v3/16168894131732d2dfed6/category/_id/2?sourceId=37058785"},"link":"https://redir.lomadee.com/v2/direct/aHR0cHM6Ly90cmFja2VyMi5hZDV0cmFjay5jb20vdHJhY2tlci9jbGljaz9hY2M9MmNjZmU4MjJkZmQ4NWQzYjcyMzU3ZjRkNWYwODlmZjYmaT01OTk1OTdmNWVlYzNkZmIxZjgzYjc5MDUmbz01ZjY1MWQ0MmY4ZTk1ZWFjM2RlOWU2NDEmcmVkaXJlY3RfdXJsPWh0dHBzJTNBJTJGJTJGd3d3LmFtZXJpY2FuYXMuY29tLmJyJTJGcHJvZHV0byUyRjIwNzYxNjQ5MTclM0ZvcG4lM0RBRkxBQ09N/37058785/12780","thumbnail":"https://images-americanas.b2w.io/produtos/01/00/img/2076164/9/2076164933P1.jpg","price":160.9,"priceFrom":179.0,"discount":10.11,"installment":{"quantity":1,"value":160.9},"store":{"id":5632,"name":"Americanas","thumbnail":"https://www.lomadee.com/programas/BR/5632/imagemBox_80x60.png","link":"https://redir.lomadee.com/v2/direct/aHR0cHM6Ly93d3cuYW1lcmljYW5hcy5jb20uYnIv/37058785/12780","invisible":false,"needPermission":true}},{"id":"2324123429","name":"Front Office-Tätigkeiten in europäischen Investmentbanken","category":{"id":2,"name":"Informática","link":"http://api.lomadee.com/v3/16168894131732d2dfed6/category/_id/2?sourceId=37058785"},"link":"https://redir.lomadee.com/v2/direct/aHR0cHM6Ly90cmFja2VyMi5hZDV0cmFjay5jb20vdHJhY2tlci9jbGljaz9hY2M9MmNjZmU4MjJkZmQ4NWQzYjcyMzU3ZjRkNWYwODlmZjYmaT01OTk1OTdmNWVlYzNkZmIxZjgzYjc5MDUmbz01ZjhiZmNiMWY4ZTk1ZWFjM2QxZTgwNDUmcmVkaXJlY3RfdXJsPWh0dHBzJTNBJTJGJTJGd3d3LmFtZXJpY2FuYXMuY29tLmJyJTJGcHJvZHV0byUyRjIzMjQxMjM0MjklM0ZvcG4lM0RBRkxBQ09N/37058785/12780","thumbnail":"https://images-americanas.b2w.io/produtos/01/00/img/2324123/4/2324123437P1.jpg","price":99.51,"priceFrom":99.51,"discount":0.0,"installment":{"quantity":10,"value":9.95},"store":{"id":5632,"name":"Americanas","thumbnail":"https://www.lomadee.com/programas/BR/5632/imagemBox_80x60.png","link":"https://redir.lomadee.com/v2/direct/aHR0cHM6Ly93d3cuYW1lcmljYW5hcy5jb20uYnIv/37058785/12780","invisible":false,"needPermission":true}},{"id":"3312757395","name":"Bolinhas Para Piscina76mm Pacote C/ 400un 1 Pacote Por Envio","category":{"id":2,"name":"Informática","link":"http://api.lomadee.com/v3/16168894131732d2dfed6/category/_id/2?sourceId=37058785"},"link":"https://redir.lomadee.com/v2/direct/aHR0cHM6Ly90cmFja2VyMi5hZDV0cmFjay5jb20vdHJhY2tlci9jbGljaz9hY2M9MmNjZmU4MjJkZmQ4NWQzYjcyMzU3ZjRkNWYwODlmZjYmaT01OTk1OTdmNWVlYzNkZmIxZjgzYjc5MDUmbz02MGE5ZWY3YmY4ZTk1ZWFjM2Q5MjQwMTUmcmVkaXJlY3RfdXJsPWh0dHBzJTNBJTJGJTJGd3d3LmFtZXJpY2FuYXMuY29tLmJyJTJGcHJvZHV0byUyRjMzMTI3NTczOTUlM0ZvcG4lM0RBRkxBQ09N/37058785/12780","thumbnail":"https://images-americanas.b2w.io/produtos/01/00/img/3312757/4/3312757408P1.jpg","price":779.9,"priceFrom":779.9,"discount":0.0,"installment":{"quantity":12,"value":64.99},"store":{"id":5632,"name":"Americanas","thumbnail":"https://www.lomadee.com/programas/BR/5632/imagemBox_80x60.png","link":"https://redir.lomadee.com/v2/direct/aHR0cHM6Ly93d3cuYW1lcmljYW5hcy5jb20uYnIv/37058785/12780","invisible":false,"needPermission":true}},{"id":"2703144852","name":"J9F47A - HPE 900GB 2.5 SFF SAS 12Gb/s 10Krpm Enterprise para Storage - Spare: 787647-001","category":{"id":2,"name":"Informática","link":"http://api.lomadee.com/v3/16168894131732d2dfed6/category/_id/2?sourceId=37058785"},"link":"https://redir.lomadee.com/v2/direct/aHR0cHM6Ly90cmFja2VyMi5hZDV0cmFjay5jb20vdHJhY2tlci9jbGljaz9hY2M9MmNjZmU4MjJkZmQ4NWQzYjcyMzU3ZjRkNWYwODlmZjYmaT01OTk1OTdmNWVlYzNkZmIxZjgzYjc5MDUmbz01ZmVjODdhY2Y4ZTk1ZWFjM2Q5NjI2YjMmcmVkaXJlY3RfdXJsPWh0dHBzJTNBJTJGJTJGd3d3LmFtZXJpY2FuYXMuY29tLmJyJTJGcHJvZHV0byUyRjI3MDMxNDQ4NTIlM0ZvcG4lM0RBRkxBQ09N/37058785/12780","thumbnail":"https://images-americanas.b2w.io/produtos/01/00/img/2703144/8/2703144861P1.jpg","price":2200.0,"priceFrom":2200.0,"discount":0.0,"installment":{"quantity":12,"value":183.33},"store":{"id":5632,"name":"Americanas","thumbnail":"https://www.lomadee.com/programas/BR/5632/imagemBox_80x60.png","link":"https://redir.lomadee.com/v2/direct/aHR0cHM6Ly93d3cuYW1lcmljYW5hcy5jb20uYnIv/37058785/12780","invisible":false,"needPermission":true}},{"id":"2770366754","name":"Computador HOME OFFICE - somente CPU","category":{"id":2,"name":"Informática","link":"http://api.lomadee.com/v3/16168894131732d2dfed6/category/_id/2?sourceId=37058785"},"link":"https://redir.lomadee.com/v2/direct/aHR0cHM6Ly90cmFja2VyMi5hZDV0cmFjay5jb20vdHJhY2tlci9jbGljaz9hY2M9MmNjZmU4MjJkZmQ4NWQzYjcyMzU3ZjRkNWYwODlmZjYmaT01OTk1OTdmNWVlYzNkZmIxZjgzYjc5MDUmbz02MDBmNzI5ZmY4ZTk1ZWFjM2Q4ZmE1ZTkmcmVkaXJlY3RfdXJsPWh0dHBzJTNBJTJGJTJGd3d3LmFtZXJpY2FuYXMuY29tLmJyJTJGcHJvZHV0byUyRjI3NzAzNjY3NTQlM0ZvcG4lM0RBRkxBQ09N/37058785/12780","thumbnail":"https://images-americanas.b2w.io/produtos/01/00/img/2770366/7/2770366789P1.jpg","price":4850.0,"priceFrom":4850.0,"discount":0.0,"installment":{"quantity":12,"value":404.16},"store":{"id":5632,"name":"Americanas","thumbnail":"https://www.lomadee.com/programas/BR/5632/imagemBox_80x60.png","link":"https://redir.lomadee.com/v2/direct/aHR0cHM6Ly93d3cuYW1lcmljYW5hcy5jb20uYnIv/37058785/12780","invisible":false,"needPermission":true}},{"id":"2373062415","name":"The Vendor Management Office","category":{"id":2,"name":"Informática","link":"http://api.lomadee.com/v3/16168894131732d2dfed6/category/_id/2?sourceId=37058785"},"link":"https://redir.lomadee.com/v2/direct/aHR0cHM6Ly90cmFja2VyMi5hZDV0cmFjay5jb20vdHJhY2tlci9jbGljaz9hY2M9MmNjZmU4MjJkZmQ4NWQzYjcyMzU3ZjRkNWYwODlmZjYmaT01OTk1OTdmNWVlYzNkZmIxZjgzYjc5MDUmbz01Zjk5MDFjZGY4ZTk1ZWFjM2QzOTNmYjkmcmVkaXJlY3RfdXJsPWh0dHBzJTNBJTJGJTJGd3d3LmFtZXJpY2FuYXMuY29tLmJyJTJGcHJvZHV0byUyRjIzNzMwNjI0MTUlM0ZvcG4lM0RBRkxBQ09N/37058785/12780","thumbnail":"https://images-americanas.b2w.io/produtos/01/00/img/2373062/4/2373062466P1.jpg","price":204.57,"priceFrom":204.57,"discount":0.0,"installment":{"quantity":12,"value":17.04},"store":{"id":5632,"name":"Americanas","thumbnail":"https://www.lomadee.com/programas/BR/5632/imagemBox_80x60.png","link":"https://redir.lomadee.com/v2/direct/aHR0cHM6Ly93d3cuYW1lcmljYW5hcy5jb20uYnIv/37058785/12780","invisible":false,"needPermission":true}},{"id":"2311878435","name":"Office of Intelligence Liaison","category":{"id":2,"name":"Informática","link":"http://api.lomadee.com/v3/16168894131732d2dfed6/category/_id/2?sourceId=37058785"},"link":"https://redir.lomadee.com/v2/direct/aHR0cHM6Ly90cmFja2VyMi5hZDV0cmFjay5jb20vdHJhY2tlci9jbGljaz9hY2M9MmNjZmU4MjJkZmQ4NWQzYjcyMzU3ZjRkNWYwODlmZjYmaT01OTk1OTdmNWVlYzNkZmIxZjgzYjc5MDUmbz02MGIxYTM3NWY4ZTk1ZWFjM2RjMTA1OWYmcmVkaXJlY3RfdXJsPWh0dHBzJTNBJTJGJTJGd3d3LmFtZXJpY2FuYXMuY29tLmJyJTJGcHJvZHV0byUyRjIzMTE4Nzg0MzUlM0ZvcG4lM0RBRkxBQ09N/37058785/12780","thumbnail":"https://images-americanas.b2w.io/produtos/01/00/img/2311878/4/2311878451P1.jpg","price":146.94,"priceFrom":146.94,"discount":0.0,"installment":{"quantity":12,"value":12.24},"store":{"id":5632,"name":"Americanas","thumbnail":"https://www.lomadee.com/programas/BR/5632/imagemBox_80x60.png","link":"https://redir.lomadee.com/v2/direct/aHR0cHM6Ly93d3cuYW1lcmljYW5hcy5jb20uYnIv/37058785/12780","invisible":false,"needPermission":true}},{"id":"2357295382","name":"Microsoft Office Live Meeting","category":{"id":2,"name":"Informática","link":"http://api.lomadee.com/v3/16168894131732d2dfed6/category/_id/2?sourceId=37058785"},"link":"https://redir.lomadee.com/v2/direct/aHR0cHM6Ly90cmFja2VyMi5hZDV0cmFjay5jb20vdHJhY2tlci9jbGljaz9hY2M9MmNjZmU4MjJkZmQ4NWQzYjcyMzU3ZjRkNWYwODlmZjYmaT01OTk1OTdmNWVlYzNkZmIxZjgzYjc5MDUmbz01Zjk2YjBhMmY4ZTk1ZWFjM2RmZDEzZjgmcmVkaXJlY3RfdXJsPWh0dHBzJTNBJTJGJTJGd3d3LmFtZXJpY2FuYXMuY29tLmJyJTJGcHJvZHV0byUyRjIzNTcyOTUzODIlM0ZvcG4lM0RBRkxBQ09N/37058785/12780","thumbnail":"https://images-americanas.b2w.io/produtos/01/00/img/2357295/4/2357295420P1.jpg","price":169.05,"priceFrom":169.05,"discount":0.0,"installment":{"quantity":1,"value":169.05},"store":{"id":5632,"name":"Americanas","thumbnail":"https://www.lomadee.com/programas/BR/5632/imagemBox_80x60.png","link":"https://redir.lomadee.com/v2/direct/aHR0cHM6Ly93d3cuYW1lcmljYW5hcy5jb20uYnIv/37058785/12780","invisible":false,"needPermission":true}},{"id":"2960889425","name":"Capa Anti Impacto Militar Samsung Galaxy S21 Ultra","category":{"id":2,"name":"Informática","link":"http://api.lomadee.com/v3/16168894131732d2dfed6/category/_id/2?sourceId=37058785"},"link":"https://redir.lomadee.com/v2/direct/aHR0cHM6Ly90cmFja2VyMi5hZDV0cmFjay5jb20vdHJhY2tlci9jbGljaz9hY2M9MmNjZmU4MjJkZmQ4NWQzYjcyMzU3ZjRkNWYwODlmZjYmaT01OTk1OTdmNWVlYzNkZmIxZjgzYjc5MDUmbz02MDNjNDdmOWY4ZTk1ZWFjM2RlY2FlN2QmcmVkaXJlY3RfdXJsPWh0dHBzJTNBJTJGJTJGd3d3LmFtZXJpY2FuYXMuY29tLmJyJTJGcHJvZHV0byUyRjI5NjA4ODk0MjUlM0ZvcG4lM0RBRkxBQ09N/37058785/12780","thumbnail":"https://images-americanas.b2w.io/produtos/01/00/img/2960889/4/2960889433P1.jpg","price":189.9,"priceFrom":189.9,"discount":0.0,"installment":{"quantity":12,"value":15.82},"store":{"id":5632,"name":"Americanas","thumbnail":"https://www.lomadee.com/programas/BR/5632/imagemBox_80x60.png","link":"https://redir.lomadee.com/v2/direct/aHR0cHM6Ly93d3cuYW1lcmljYW5hcy5jb20uYnIv/37058785/12780","invisible":false,"needPermission":true}},{"id":"3042740365","name":"Capa Silicone Samsung Galaxy S21 Plus - Branco","category":{"id":2,"name":"Informática","link":"http://api.lomadee.com/v3/16168894131732d2dfed6/category/_id/2?sourceId=37058785"},"link":"https://redir.lomadee.com/v2/direct/aHR0cHM6Ly90cmFja2VyMi5hZDV0cmFjay5jb20vdHJhY2tlci9jbGljaz9hY2M9MmNjZmU4MjJkZmQ4NWQzYjcyMzU3ZjRkNWYwODlmZjYmaT01OTk1OTdmNWVlYzNkZmIxZjgzYjc5MDUmbz02MDUyNjFmOWY4ZTk1ZWFjM2Q5N2NmYTEmcmVkaXJlY3RfdXJsPWh0dHBzJTNBJTJGJTJGd3d3LmFtZXJpY2FuYXMuY29tLmJyJTJGcHJvZHV0byUyRjMwNDI3NDAzNjUlM0ZvcG4lM0RBRkxBQ09N/37058785/12780","thumbnail":"https://images-americanas.b2w.io/produtos/01/00/img/3042740/3/3042740373P1.jpg","price":159.9,"priceFrom":159.9,"discount":0.0,"installment":{"quantity":12,"value":13.32},"store":{"id":5632,"name":"Americanas","thumbnail":"https://www.lomadee.com/programas/BR/5632/imagemBox_80x60.png","link":"https://redir.lomadee.com/v2/direct/aHR0cHM6Ly93d3cuYW1lcmljYW5hcy5jb20uYnIv/37058785/12780","invisible":false,"needPermission":true}},{"id":"3042747022","name":"Capa Hybrid Armor Xiaomi Poco X3 NFC - Azul","category":{"id":2,"name":"Informática","link":"http://api.lomadee.com/v3/16168894131732d2dfed6/category/_id/2?sourceId=37058785"},"link":"https://redir.lomadee.com/v2/direct/aHR0cHM6Ly90cmFja2VyMi5hZDV0cmFjay5jb20vdHJhY2tlci9jbGljaz9hY2M9MmNjZmU4MjJkZmQ4NWQzYjcyMzU3ZjRkNWYwODlmZjYmaT01OTk1OTdmNWVlYzNkZmIxZjgzYjc5MDUmbz02MDUyNTFkZmY4ZTk1ZWFjM2Q5NzRiNTMmcmVkaXJlY3RfdXJsPWh0dHBzJTNBJTJGJTJGd3d3LmFtZXJpY2FuYXMuY29tLmJyJTJGcHJvZHV0byUyRjMwNDI3NDcwMjIlM0ZvcG4lM0RBRkxBQ09N/37058785/12780","thumbnail":"https://images-americanas.b2w.io/produtos/01/00/img/3042747/0/3042747049P1.jpg","price":99.9,"priceFrom":99.9,"discount":0.0,"installment":{"quantity":10,"value":9.99},"store":{"id":5632,"name":"Americanas","thumbnail":"https://www.lomadee.com/programas/BR/5632/imagemBox_80x60.png","link":"https://redir.lomadee.com/v2/direct/aHR0cHM6Ly93d3cuYW1lcmljYW5hcy5jb20uYnIv/37058785/12780","invisible":false,"needPermission":true}}]}