{"requestInfo":{"status":"OK","message":"SUCCESS","generatedDate":null},"pagination":{"page":2,"size":12,"totalSize":717,"totalPage":60},"offers":[{"id":"3042747321","name":"Capa Xundd Airbag Xiaomi Poco X3 NFC","category":{"id":2,"name":"Informática","link":"http://api.lomadee.com/v3/16168894131732d2dfed6/category/_id/2?sourceId=37058785"},"link":"https://redir.lomadee.com/v2/direct/aHR0cHM6Ly90cmFja2VyMi5hZDV0cmFjay5jb20vdHJhY2tlci9jbGljaz9hY2M9MmNjZmU4MjJkZmQ4NWQzYjcyMzU3ZjRkNWYwODlmZjYmaT01OTk1OTdmNWVlYzNkZmIxZjgzYjc5MDUmbz02MDUyNGUxMmY4ZTk1ZWFjM2Q5NzI4ZDcmcmVkaXJlY3RfdXJsPWh0dHBzJTNBJTJGJTJGd3d3LmFtZXJpY2FuYXMuY29tLmJyJTJGcHJvZHV0byUyRjMwNDI3NDczMjElM0ZvcG4lM0RBRkxBQ09N/37058785/12780","thumbnail":"https://images-americanas.b2w.io/produtos/01/00/img/3042747/3/3042747330P1.jpg","price":129.9,"priceFrom":129.9,"discount":0.0,"installment":{"quantity":12,"value":10.82},"store":{"id":5632,"name":"Americanas","thumbnail":"https://www.lomadee.com/programas/BR/5632/imagemBox_80x60.png","link":"https://redir.lomadee.com/v2/direct/aHR0cHM6Ly93d3cuYW1lcmljYW5hcy5jb20uYnIv/37058785/12780","invisible":false,"needPermission":true}},{"id":"2981767700","name":"Capa Ultra Militar Samsung Galaxy Tab S7","category":{"id":2,"name":"Informática","link":"http://api.lomadee.com/v3/16168894131732d2dfed6/category/_id/2?sourceId=37058785"},"link":"https://redir.lomadee.com/v2/direct/aHR0cHM6Ly90cmFja2VyMi5hZDV0cmFjay5jb20vdHJhY2tlci9jbGljaz9hY2M9MmNjZmU4MjJkZmQ4NWQzYjcyMzU3ZjRkNWYwODlmZjYmaT01OTk1OTdmNWVlYzNkZmIxZjgzYjc5MDUmbz02MDQ0MDcwZmY4ZTk1ZWFjM2QxNDZlOGMmcmVkaXJlY3RfdXJsPWh0dHBzJTNBJTJGJTJGd3d3LmFtZXJpY2FuYXMuY29tLmJyJTJGcHJvZHV0byUyRjI5ODE3Njc3MDAlM0ZvcG4lM0RBRkxBQ09N/37058785/12780","thumbnail":"https://images-americanas.b2w.io/produtos/01/00/img/2981767/1/2981767152P1.jpg","price":429.9,"priceFrom":429.9,"discount":0.0,"installment":{"quantity":12,"value":35.82},"store":{"id":5632,"name":"Americanas","thumbnail":"https://www.lomadee.com/programas/BR/5632/imagemBox_80x60.png","link":"https://redir.lomadee.com/v2/direct/aHR0cHM6Ly93d3cuYW1lcmljYW5hcy5jb20uYnIv/37058785/12780","invisible":false,"needPermission":true}},{"id":"3042743988","name":"Capa Ring Armor Xiaomi Mi 10T / 10T Pro - Preto","category":{"id":2,"name":"Informática","link":"http://api.lomadee.com/v3/16168894131732d2dfed6/category/_id/2?sourceId=37058785"},"link":"https://redir.lomadee.com/v2/direct/aHR0cHM6Ly90cmFja2VyMi5hZDV0cmFjay5jb20vdHJhY2tlci9jbGljaz9hY2M9MmNjZmU4MjJkZmQ4NWQzYjcyMzU3ZjRkNWYwODlmZjYmaT01OTk1OTdmNWVlYzNkZmIxZjgzYjc5MDUmbz02MDUyNTFkZmY4ZTk1ZWFjM2Q5NzRiNTgmcmVkaXJlY3RfdXJsPWh0dHBzJTNBJTJGJTJGd3d3LmFtZXJpY2FuYXMuY29tLmJyJTJGcHJvZHV0byUyRjMwNDI3NDM5ODglM0ZvcG4lM0RBRkxBQ09N/37058785/12780","thumbnail":"https://images-americanas.b2w.io/produtos/01/00/img/3042743/9/3042743996P1.jpg","price":99.9,"priceFrom":99.9,"discount":0.0,"installment":{"quantity":10,"value":9.99},"store":{"id":5632,"name":"Americanas","thumbnail":"https://www.lomadee.com/programas/BR/5632/imagemBox_80x60.png","link":"https://redir.lomadee.com/v2/direct/aHR0cHM6Ly93d3cuYW1lcmljYW5hcy5jb20uYnIv/37058785/12780","invisible":false,"needPermission":true}},{"id":"2960888342","name":"Kit 4 em 1 Película de Vidro Samsung Galaxy S21 Ultra","category":{"id":2,"name":"Informática","link":"http://api.lomadee.com/v3/16168894131732d2dfed6/category/_id/2?sourceId=37058785"},"link":"https://redir.lomadee.com/v2/direct/aHR0cHM6Ly90cmFja2VyMi5hZDV0cmFjay5jb20vdHJhY2tlci9jbGljaz9hY2M9MmNjZmU4MjJkZmQ4NWQzYjcyMzU3ZjRkNWYwODlmZjYmaT01OTk1OTdmNWVlYzNkZmIxZjgzYjc5MDUmbz02MDNjNDU5NWY4ZTk1ZWFjM2RlY2E1ZDImcmVkaXJlY3RfdXJsPWh0dHBzJTNBJTJGJTJGd3d3LmFtZXJpY2FuYXMuY29tLmJyJTJGcHJvZHV0byUyRjI5NjA4ODgzNDIlM0ZvcG4lM0RBRkxBQ09N/37058785/12780","thumbnail":"https://images-americanas.b2w.io/produtos/01/00/img/2960888/3/2960888351P1.jpg","price":99.9,"priceFrom":99.9,"discount":0.0,"installment":{"quantity":10,"value":9.99},"store":{"id":5632,"name":"Americanas","thumbnail":"https://www.lomadee.com/programas/BR/5632/imagemBox_80x60.png","link":"https://redir.lomadee.com/v2/direct/aHR0cHM6Ly93d3cuYW1lcmljYW5hcy5jb20uYnIv/37058785/12780","invisible":false,"needPermission":true}},{"id":"2757578621","name":"Notebook Multilaser Legacy Cloud AMD A4 2GB 64GB 14.1 Pol. HD Windows 10 Preto - PC151","category":{"id":2,"name":"Informática","link":"http://api.lomadee.com/v3/16168894131732d2dfed6/category/_id/2?sourceId=37058785"},"link":"https://redir.lomadee.com/v2/direct/aHR0cHM6Ly90cmFja2VyMi5hZDV0cmFjay5jb20vdHJhY2tlci9jbGljaz9hY2M9MmNjZmU4MjJkZmQ4NWQzYjcyMzU3ZjRkNWYwODlmZjYmaT01OTk1OTdmNWVlYzNkZmIxZjgzYjc5MDUmbz01ZmZmMDM5OGY4ZTk1ZWFjM2QyMjljZTImcmVkaXJlY3RfdXJsPWh0dHBzJTNBJTJGJTJGd3d3LmFtZXJpY2FuYXMuY29tLmJyJTJGcHJvZHV0byUyRjI3NTc1Nzg2MjElM0ZvcG4lM0RBRkxBQ09N/37058785/12780","thumbnail":"https://images-americanas.b2w.io/produtos/01/00/img/2757578/6/2757578648P1.jpg","price":1329.5,"priceFrom":1329.5,"discount":0.0,"installment":{"quantity":12,"value":110.79},"store":{"id":5632,"name":"Americanas","thumbnail":"https://www.lomadee.com/programas/BR/5632/imagemBox_80x60.png","link":"https://redir.lomadee.com/v2/direct/aHR0cHM6Ly93d3cuYW1lcmljYW5hcy5jb20uYnIv/37058785/12780","invisible":false,"needPermission":true}},{"id":"3630319201","name":"Buzios Branco Natural Aberto - Pacote 100g","category":{"id":2,"name":"Informática","link":"http://api.lomadee.com/v3/16168894131732d2dfed6/category/_id/2?sourceId=37058785"},"link":"https://redir.lomadee.com/v2/direct/aHR0cHM6Ly90cmFja2VyMi5hZDV0cmFjay5jb20vdHJhY2tlci9jbGljaz9hY2M9MmNjZmU4MjJkZmQ4NWQzYjcyMzU3ZjRkNWYwODlmZjYmaT01OTk1OTdmNWVlYzNkZmIxZjgzYjc5MDUmbz02MTJkYjllYmY4ZTk1ZWFjM2Q5MDRhZDMmcmVkaXJlY3RfdXJsPWh0dHBzJTNBJTJGJTJGd3d3LmFtZXJpY2FuYXMuY29tLmJyJTJGcHJvZHV0byUyRjM2MzAzMTkyMDElM0ZvcG4lM0RBRkxBQ09N/37058785/12780","thumbnail":"https://images-americanas.b2w.io/produtos/01/00/img/3630319/2/3630319219P1.jpg","price":189.9,"priceFrom":189.9,"discount":0.0,"installment":{"quantity":12,"value":15.82},"store":{"id":5632,"name":"Americanas","thumbnail":"https://www.lomadee.com/programas/BR/5632/imagemBox_80x60.png","link":"https://redir.lomadee.com/v2/direct/aHR0cHM6Ly93d3cuYW1lcmljYW5hcy5jb20uYnIv/37058785/12780","invisible":false,"needPermission":true}},{"id":"3561156697","name":"Pacote Com 500 Bolinhas Tamanho 76mm Pacote Com 5 Cores","category":{"id":2,"name":"Informática","link":"http://api.lomadee.com/v3/16168894131732d2dfed6/category/_id/2?sourceId=37058785"},"link":"https://redir.lomadee.com/v2/direct/aHR0cHM6Ly90cmFja2VyMi5hZDV0cmFjay5jb20vdHJhY2tlci9jbGljaz9hY2M9MmNjZmU4MjJkZmQ4NWQzYjcyMzU3ZjRkNWYwODlmZjYmaT01OTk1OTdmNWVlYzNkZmIxZjgzYjc5MDUmbz02MGYzOTk0OWY4ZTk1ZWFjM2Q2YzhmYWImcmVkaXJlY3RfdXJsPWh0dHBzJTNBJTJGJTJGd3d3LmFtZXJpY2FuYXMuY29tLmJyJTJGcHJvZHV0byUyRjM1NjExNTY2OTclM0ZvcG4lM0RBRkxBQ09N/37058785/12780","thumbnail":"https://images-americanas.b2w.io/produtos/01/00/img/3561156/7/3561156700P1.jpg","price":659.9,"priceFrom":659.9,"discount":0.0,"installment":{"quantity":12,"value":54.99},"store":{"id":5632,"name":"Americanas","thumbnail":"https://www.lomadee.com/programas/BR/5632/imagemBox_80x60.png","link":"https://redir.lomadee.com/v2/direct/aHR0cHM6Ly93d3cuYW1lcmljYW5hcy5jb20uYnIv/37058785/12780","invisible":false,"needPermission":true}},{"id":"2376870670","name":"Dental Office And Laboratory; Volume 2","category":{"id":2,"name":"Informática","link":"http://api.lomadee.com/v3/16168894131732d2dfed6/category/_id/2?sourceId=37058785"},"link":"https://redir.lomadee.com/v2/direct/aHR0cHM6Ly90cmFja2VyMi5hZDV0cmFjay5jb20vdHJhY2tlci9jbGljaz9hY2M9MmNjZmU4MjJkZmQ4NWQzYjcyMzU3ZjRkNWYwODlmZjYmaT01OTk1OTdmNWVlYzNkZmIxZjgzYjc5MDUmbz01Zjk1ZjJjNGY4ZTk1ZWFjM2RlOGZmZjQmcmVkaXJlY3RfdXJsPWh0dHBzJTNBJTJGJTJGd3d3LmFtZXJpY2FuYXMuY29tLmJyJTJGcHJvZHV0byUyRjIzNzY4NzA2NzAlM0ZvcG4lM0RBRkxBQ09N/37058785/12780","thumbnail":"https://images-americanas.b2w.io/produtos/01/00/img/2376870/7/2376870717P1.jpg","price":201.93,"priceFrom":201.93,"discount":0.0,"installment":{"quantity":12,"value":16.82},"store":{"id":5632,"name":"Americanas","thumbnail":"https://www.lomadee.com/programas/BR/5632/imagemBox_80x60.png","link":"https://redir.lomadee.com/v2/direct/aHR0cHM6Ly93d3cuYW1lcmljYW5hcy5jb20uYnIv/37058785/12780","invisible":false,"needPermission":true}},{"id":"2526916988","name":"Office 2003 XML","category":{"id":2,"name":"Informática","link":"http://api.lomadee.com/v3/16168894131732d2dfed6/category/_id/2?sourceId=37058785"},"link":"https://redir.lomadee.com/v2/direct/aHR0cHM6Ly90cmFja2VyMi5hZDV0cmFjay5jb20vdHJhY2tlci9jbGljaz9hY2M9MmNjZmU4MjJkZmQ4NWQzYjcyMzU3ZjRkNWYwODlmZjYmaT01OTk1OTdmNWVlYzNkZmIxZjgzYjc5MDUmbz01ZmI0YmY2M2Y4ZTk1ZWFjM2Q0ZTI4NjUmcmVkaXJlY3RfdXJsPWh0dHBzJTNBJTJGJTJGd3d3LmFtZXJpY2FuYXMuY29tLmJyJTJGcHJvZHV0byUyRjI1MjY5MTY5ODglM0ZvcG4lM0RBRkxBQ09N/37058785/12780","thumbnail":"https://images-americanas.b2w.io/produtos/01/00/img/2526917/1/2526917163P1.jpg","price":390.0,"priceFrom":390.0,"discount":0.0,"installment":{"quantity":12,"value":32.5},"store":{"id":5632,"name":"Americanas","thumbnail":"https://www.lomadee.com/programas/BR/5632/imagemBox_80x60.png","link":"https://redir.lomadee.com/v2/direct/aHR0cHM6Ly93d3cuYW1lcmljYW5hcy5jb20uYnIv/37058785/12780","invisible":false,"needPermission":true}},{"id":"2530034048","name":"The Divine Office","category":{"id":2,"name":"Informática","link":"http://api.lomadee.com/v3/16168894131732d2dfed6/category/_id/2?sourceId=37058785"},"link":"https://redir.lomadee.com/v2/direct/aHR0cHM6Ly90cmFja2VyMi5hZDV0cmFjay5jb20vdHJhY2tlci9jbGljaz9hY2M9MmNjZmU4MjJkZmQ4NWQzYjcyMzU3ZjRkNWYwODlmZjYmaT01OTk1OTdmNWVlYzNkZmIxZjgzYjc5MDUmbz02MDhjOTliOWI2NTBkNDEwZDhiYTI3MjEmcmVkaXJlY3RfdXJsPWh0dHBzJTNBJTJGJTJGd3d3LmFtZXJpY2FuYXMuY29tLmJyJTJGcHJvZHV0byUyRjI1MzAwMzQwNDglM0ZvcG4lM0RBRkxBQ09N/37058785/12780","thumbnail":"https://images-americanas.b2w.io/produtos/01/00/img/2530034/1/2530034144P1.jpg","price":149.58,"priceFrom":149.58,"discount":0.0,"installment":{"quantity":12,"value":12.46},"store":{"id":5632,"name":"Americanas","thumbnail":"https://www.lomadee.com/programas/BR/5632/imagemBox_80x60.png","link":"https://redir.lomadee.com/v2/direct/aHR0cHM6Ly93d3cuYW1lcmljYW5hcy5jb20uYnIv/37058785/12780","invisible":false,"needPermission":true}},{"id":"3653761561","name":"Miçangão Cobre Claro Metalizado Pacote Com 100gramas","category":{"id":2,"name":"Informática","link":"http://api.lomadee.com/v3/16168894131732d2dfed6/category/_id/2?sourceId=37058785"},"link":"https://redir.lomadee.com/v2/direct/aHR0cHM6Ly90cmFja2VyMi5hZDV0cmFjay5jb20vdHJhY2tlci9jbGljaz9hY2M9MmNjZmU4MjJkZmQ4NWQzYjcyMzU3ZjRkNWYwODlmZjYmaT01OTk1OTdmNWVlYzNkZmIxZjgzYjc5MDUmbz02MTJkNTJhZGY4ZTk1ZWFjM2Q4YzgxZDEmcmVkaXJlY3RfdXJsPWh0dHBzJTNBJTJGJTJGd3d3LmFtZXJpY2FuYXMuY29tLmJyJTJGcHJvZHV0byUyRjM2NTM3NjE1NjElM0ZvcG4lM0RBRkxBQ09N/37058785/12780","thumbnail":"https://images-americanas.b2w.io/produtos/01/00/img/3653761/5/3653761579P1.jpg","price":99.9,"priceFrom":99.9,"discount":0.0,"installment":{"quantity":10,"value":9.99},"store":{"id":5632,"name":"Americanas","thumbnail":"https://www.lomadee.com/programas/BR/5632/imagemBox_80x60.png","link":"https://redir.lomadee.com/v2/direct/aHR0cHM6Ly93d3cuYW1lcmljYW5hcy5jb20uYnIv/37058785/12780","invisible":false,"needPermission":true}},{"id":"2438009675","name":"Office 365 Essentials","category":{"id":2,"name":"Informática","link":"http://api.lomadee.com/v3/16168894131732d2dfed6/category/_id/2?sourceId=37058785"},"link":"https://redir.lomadee.com/v2/direct/aHR0cHM6Ly90cmFja2VyMi5hZDV0cmFjay5jb20vdHJhY2tlci9jbGljaz9hY2M9MmNjZmU4MjJkZmQ4NWQzYjcyMzU3ZjRkNWYwODlmZjYmaT01OTk1OTdmNWVlYzNkZmIxZjgzYjc5MDUmbz01Zjk5ZmE2ZmY4ZTk1ZWFjM2Q0YTFmODQmcmVkaXJlY3RfdXJsPWh0dHBzJTNBJTJGJTJGd3d3LmFtZXJpY2FuYXMuY29tLmJyJTJGcHJvZHV0byUyRjI0MzgwMDk2NzUlM0ZvcG4lM0RBRkxBQ09N/37058785/12780","thumbnail":"https://images-americanas.b2w.io/produtos/01/00/img/2438009/6/2438009683P1.jpg","price":271.58,"priceFrom":271.58,"discount":0.0,"installment":{"quantity":12,"value":22.63},"store":{"id":5632,"name":"Americanas","thumbnail":"https://www.lomadee.com/programas/BR/5632/imagemBox_80x60.png","link":"https://redir.lomadee.com/v2/direct/aHR0cHM6Ly93d3cuYW1lcmljYW5hcy5jb20uYnIv/37058785/12780","invisible":false,"needPermission":true}}]}