{"requestInfo":{"status":"OK","message":"SUCCESS","generatedDate":null},"pagination":{"page":1,"size":12,"totalSize":1407,"totalPage":118},"offers":[{"id":"1565579371","name":"Resistencia Do A/C Mini 6 920 365 Original","category":{"id":3673,"name":"Geladeira / Refrigerador","link":"http://api.lomadee.com/v3/16168894131732d2dfed6/category/_id/3673?sourceId=37058785"},"link":"https://redir.lomadee.com/v2/direct/aHR0cHM6Ly90cmFja2VyMi5hZDV0cmFjay5jb20vdHJhY2tlci9jbGljaz9hY2M9NTlkN2Y1ZmI1MzcxMTY4MDE5ZjlkNGZkYWViYzRhMjkmaT01OTk1OTg0YmVlYzNkZmIxZjgzYjkxOWMmbz01ZTZjMDFlYmY4ZTk1ZWFjM2Q3ZTJlNDcmcmVkaXJlY3RfdXJsPWh0dHBzJTNBJTJGJTJGd3d3LnNob3B0aW1lLmNvbS5iciUyRnByb2R1dG8lMkYxNTY1NTc5MzcxJTNGb3BuJTNEQUZMU0hPUA==/37058785/12780","thumbnail":"https://images-shoptime.b2w.io/produtos/01/00/img/1565579/3/1565579380P1.jpg","price":851.0,"priceFrom":851.0,"discount":0.0,"installment":{"quantity":12,"value":70.91},"store":{"id":5644,"name":"Shoptime","thumbnail":"https://www.lomadee.com/programas/BR/5644/imagemBox_80x60.png","link":"https://redir.lomadee.com/v2/direct/aHR0cHM6Ly93d3cuc2hvcHRpbWUuY29tLmJyLw==/37058785/12780","invisible":false,"needPermission":true}},{"id":"1693752597","name":"Termostato Para Fritadeira 20A - 50/200°","category":{"id":3673,"name":"Geladeira / Refrigerador","link":"http://api.lomadee.com/v3/16168894131732d2dfed6/category/_id/3673?sourceId=37058785"},"link":"https://redir.lomadee.com/v2/direct/aHR0cHM6Ly90cmFja2VyMi5hZDV0cmFjay5jb20vdHJhY2tlci9jbGljaz9hY2M9NTlkN2Y1ZmI1MzcxMTY4MDE5ZjlkNGZkYWViYzRhMjkmaT01OTk1OTg0YmVlYzNkZmIxZjgzYjkxOWMmbz01ZWIyZGE3OGY4ZTk1ZWFjM2Q4M2I4YzAmcmVkaXJlY3RfdXJsPWh0dHBzJTNBJTJGJTJGd3d3LnNob3B0aW1lLmNvbS5iciUyRnByb2R1dG8lMkYxNjkzNzUyNTk3JTNGb3BuJTNEQUZMU0hPUA==/37058785/12780","thumbnail":"https://images-shoptime.b2w.io/produtos/01/00/img/1693752/6/1693752600P1.jpg","price":45.9,"priceFrom":45.9,"discount":0.0,"installment":{"quantity":4,"value":11.47},"store":{"id":5644,"name":"Shoptime","thumbnail":"https://www.lomadee.com/programas/BR/5644/imagemBox_80x60.png","link":"https://redir.lomadee.com/v2/direct/aHR0cHM6Ly93d3cuc2hvcHRpbWUuY29tLmJyLw==/37058785/12780","invisible":false,"needPermission":true}},{"id":"1621734111","name":"Filtro Secador A/C Jaguar 8Fc 351 304-421 Original","category":{"id":3673,"name":"Geladeira / Refrigerador","link":"http://api.lomadee.com/v3/16168894131732d2dfed6/category/_id/3673?sourceId=37058785"},"link":"https://redir.lomadee.com/v2/direct/aHR0cHM6Ly90cmFja2VyMi5hZDV0cmFjay5jb20vdHJhY2tlci9jbGljaz9hY2M9NTlkN2Y1ZmI1MzcxMTY4MDE5ZjlkNGZkYWViYzRhMjkmaT01OTk1OTg0YmVlYzNkZmIxZjgzYjkxOWMmbz01ZTg2OTE1ZWY4ZTk1ZWFjM2RkYWVhMTQmcmVkaXJlY3RfdXJsPWh0dHBzJTNBJTJGJTJGd3d3LnNob3B0aW1lLmNvbS5iciUyRnByb2R1dG8lMkYxNjIxNzM0MTExJTNGb3BuJTNEQUZMU0hPUA==/37058785/12780","thumbnail":"https://images-shoptime.b2w.io/produtos/01/00/img/1621734/1/1621734138P1.jpg","price":424.35,"priceFrom":424.35,"discount":0.0,"installment":{"quantity":12,"value":35.36},"store":{"id":5644,"name":"Shoptime","thumbnail":"https://www.lomadee.com/programas/BR/5644/imagemBox_80x60.png","link":"https://redir.lomadee.com/v2/direct/aHR0cHM6Ly93d3cuc2hvcHRpbWUuY29tLmJyLw==/37058785/12780","invisible":false,"needPermission":true}},{"id":"23951839","name":"Termostato Para Ferro De Passar Profissional","category":{"id":3673,"name":"Geladeira / Refrigerador","link":"http://api.lomadee.com/v3/16168894131732d2dfed6/category/_id/3673?sourceId=37058785"},"link":"https://redir.lomadee.com/v2/direct/aHR0cHM6Ly90cmFja2VyMi5hZDV0cmFjay5jb20vdHJhY2tlci9jbGljaz9hY2M9NTlkN2Y1ZmI1MzcxMTY4MDE5ZjlkNGZkYWViYzRhMjkmaT01OTk1OTg0YmVlYzNkZmIxZjgzYjkxOWMmbz01OTQwZDk3ZmVlYzNkZmIxZjhlZGM5NDEmcmVkaXJlY3RfdXJsPWh0dHAlM0ElMkYlMkZ3d3cuc2hvcHRpbWUuY29tLmJyJTJGcHJvZHV0byUyRjIzOTUxODM5JTJGdGVybW9zdGF0by1wYXJhLWZlcnJvLWRlLXBhc3Nhci1wcm9maXNzaW9uYWwlM0ZvcG4lM0RBRkxTSE9Q/37058785/12780","thumbnail":"https://images-shoptime.b2w.io/produtos/01/00/sku/23951/8/23951838P1.jpg","price":63.72,"priceFrom":63.72,"discount":0.0,"installment":{"quantity":6,"value":10.62},"store":{"id":5644,"name":"Shoptime","thumbnail":"https://www.lomadee.com/programas/BR/5644/imagemBox_80x60.png","link":"https://redir.lomadee.com/v2/direct/aHR0cHM6Ly93d3cuc2hvcHRpbWUuY29tLmJyLw==/37058785/12780","invisible":false,"needPermission":true}},{"id":"1693708457","name":"Cremalheira Motor Xinchai A490bpg/c490bpg/a495bpg/a498bpg - 120 Dentes","category":{"id":3673,"name":"Geladeira / Refrigerador","link":"http://api.lomadee.com/v3/16168894131732d2dfed6/category/_id/3673?sourceId=37058785"},"link":"https://redir.lomadee.com/v2/direct/aHR0cHM6Ly90cmFja2VyMi5hZDV0cmFjay5jb20vdHJhY2tlci9jbGljaz9hY2M9NTlkN2Y1ZmI1MzcxMTY4MDE5ZjlkNGZkYWViYzRhMjkmaT01OTk1OTg0YmVlYzNkZmIxZjgzYjkxOWMmbz01ZWIzMzM1NmY4ZTk1ZWFjM2Q4NjM2MzMmcmVkaXJlY3RfdXJsPWh0dHBzJTNBJTJGJTJGd3d3LnNob3B0aW1lLmNvbS5iciUyRnByb2R1dG8lMkYxNjkzNzA4NDU3JTNGb3BuJTNEQUZMU0hPUA==/37058785/12780","thumbnail":"https://images-shoptime.b2w.io/produtos/01/00/img/1693708/4/1693708465P1.jpg","price":140.44,"priceFrom":140.44,"discount":0.0,"installment":{"quantity":12,"value":11.7},"store":{"id":5644,"name":"Shoptime","thumbnail":"https://www.lomadee.com/programas/BR/5644/imagemBox_80x60.png","link":"https://redir.lomadee.com/v2/direct/aHR0cHM6Ly93d3cuc2hvcHRpbWUuY29tLmJyLw==/37058785/12780","invisible":false,"needPermission":true}},{"id":"1990876131","name":"Trava Porta Geladeira Brastemp W10186650","category":{"id":3673,"name":"Geladeira / Refrigerador","link":"http://api.lomadee.com/v3/16168894131732d2dfed6/category/_id/3673?sourceId=37058785"},"link":"https://redir.lomadee.com/v2/direct/aHR0cHM6Ly90cmFja2VyMi5hZDV0cmFjay5jb20vdHJhY2tlci9jbGljaz9hY2M9NTlkN2Y1ZmI1MzcxMTY4MDE5ZjlkNGZkYWViYzRhMjkmaT01OTk1OTg0YmVlYzNkZmIxZjgzYjkxOWMmbz01ZjQ5YTAzZWY4ZTk1ZWFjM2QyZTJmZjUmcmVkaXJlY3RfdXJsPWh0dHBzJTNBJTJGJTJGd3d3LnNob3B0aW1lLmNvbS5iciUyRnByb2R1dG8lMkYxOTkwODc2MTMxJTNGb3BuJTNEQUZMU0hPUA==/37058785/12780","thumbnail":"https://images-shoptime.b2w.io/produtos/01/00/img/1990876/1/1990876158P1.jpg","price":9.4,"priceFrom":9.9,"discount":5.05,"installment":{"quantity":1,"value":9.4},"store":{"id":5644,"name":"Shoptime","thumbnail":"https://www.lomadee.com/programas/BR/5644/imagemBox_80x60.png","link":"https://redir.lomadee.com/v2/direct/aHR0cHM6Ly93d3cuc2hvcHRpbWUuY29tLmJyLw==/37058785/12780","invisible":false,"needPermission":true}},{"id":"2966770927","name":"Suporte Do Filtro Refrigerador Lg Lr-21sdt1a","category":{"id":3673,"name":"Geladeira / Refrigerador","link":"http://api.lomadee.com/v3/16168894131732d2dfed6/category/_id/3673?sourceId=37058785"},"link":"https://redir.lomadee.com/v2/direct/aHR0cHM6Ly90cmFja2VyMi5hZDV0cmFjay5jb20vdHJhY2tlci9jbGljaz9hY2M9NTlkN2Y1ZmI1MzcxMTY4MDE5ZjlkNGZkYWViYzRhMjkmaT01OTk1OTg0YmVlYzNkZmIxZjgzYjkxOWMmbz02MDNlYWNiOWY4ZTk1ZWFjM2RmNzdiNTgmcmVkaXJlY3RfdXJsPWh0dHBzJTNBJTJGJTJGd3d3LnNob3B0aW1lLmNvbS5iciUyRnByb2R1dG8lMkYyOTY2NzcwOTI3JTNGb3BuJTNEQUZMU0hPUA==/37058785/12780","thumbnail":"https://images-shoptime.b2w.io/produtos/01/00/img/2966770/9/2966770935P1.jpg","price":98.0,"priceFrom":98.0,"discount":0.0,"installment":{"quantity":9,"value":10.88},"store":{"id":5644,"name":"Shoptime","thumbnail":"https://www.lomadee.com/programas/BR/5644/imagemBox_80x60.png","link":"https://redir.lomadee.com/v2/direct/aHR0cHM6Ly93d3cuc2hvcHRpbWUuY29tLmJyLw==/37058785/12780","invisible":false,"needPermission":true}},{"id":"2966771111","name":"Suporte Do Filtro Refrigerador Lg Gc-p217bskv","category":{"id":3673,"name":"Geladeira / Refrigerador","link":"http://api.lomadee.com/v3/16168894131732d2dfed6/category/_id/3673?sourceId=37058785"},"link":"https://redir.lomadee.com/v2/direct/aHR0cHM6Ly90cmFja2VyMi5hZDV0cmFjay5jb20vdHJhY2tlci9jbGljaz9hY2M9NTlkN2Y1ZmI1MzcxMTY4MDE5ZjlkNGZkYWViYzRhMjkmaT01OTk1OTg0YmVlYzNkZmIxZjgzYjkxOWMmbz02MDNlYWNiOWY4ZTk1ZWFjM2RmNzdiNjcmcmVkaXJlY3RfdXJsPWh0dHBzJTNBJTJGJTJGd3d3LnNob3B0aW1lLmNvbS5iciUyRnByb2R1dG8lMkYyOTY2NzcxMTExJTNGb3BuJTNEQUZMU0hPUA==/37058785/12780","thumbnail":"https://images-shoptime.b2w.io/produtos/01/00/img/2966771/1/2966771129P1.jpg","price":98.0,"priceFrom":98.0,"discount":0.0,"installment":{"quantity":9,"value":10.88},"store":{"id":5644,"name":"Shoptime","thumbnail":"https://www.lomadee.com/programas/BR/5644/imagemBox_80x60.png","link":"https://redir.lomadee.com/v2/direct/aHR0cHM6Ly93d3cuc2hvcHRpbWUuY29tLmJyLw==/37058785/12780","invisible":false,"needPermission":true}},{"id":"3134248917","name":"Sorvete Fogão Esmaltec Safira/Hawai Alumínio Grande","category":{"id":3673,"name":"Geladeira / Refrigerador","link":"http://api.lomadee.com/v3/16168894131732d2dfed6/category/_id/3673?sourceId=37058785"},"link":"https://redir.lomadee.com/v2/direct/aHR0cHM6Ly90cmFja2VyMi5hZDV0cmFjay5jb20vdHJhY2tlci9jbGljaz9hY2M9NTlkN2Y1ZmI1MzcxMTY4MDE5ZjlkNGZkYWViYzRhMjkmaT01OTk1OTg0YmVlYzNkZmIxZjgzYjkxOWMmbz02MDZlZjRiMWY4ZTk1ZWFjM2QzMmUzYmQmcmVkaXJlY3RfdXJsPWh0dHBzJTNBJTJGJTJGd3d3LnNob3B0aW1lLmNvbS5iciUyRnByb2R1dG8lMkYzMTM0MjQ4OTE3JTNGb3BuJTNEQUZMU0hPUA==/37058785/12780","thumbnail":"https://images-shoptime.b2w.io/produtos/01/00/img/3134248/9/3134248984P1.jpg","price":16.01,"priceFrom":16.01,"discount":0.0,"installment":{"quantity":1,"value":16.01},"store":{"id":5644,"name":"Shoptime","thumbnail":"https://www.lomadee.com/programas/BR/5644/imagemBox_80x60.png","link":"https://redir.lomadee.com/v2/direct/aHR0cHM6Ly93d3cuc2hvcHRpbWUuY29tLmJyLw==/37058785/12780","invisible":false,"needPermission":true}},{"id":"1729524239","name":"Kit 5 Bucha Proteção Eixo Transm. Electrolux Ltc Lm Lte Lq Lf","category":{"id":3673,"name":"Geladeira / Refrigerador","link":"http://api.lomadee.com/v3/16168894131732d2dfed6/category/_id/3673?sourceId=37058785"},"link":"https://redir.lomadee.com/v2/direct/aHR0cHM6Ly90cmFja2VyMi5hZDV0cmFjay5jb20vdHJhY2tlci9jbGljaz9hY2M9NTlkN2Y1ZmI1MzcxMTY4MDE5ZjlkNGZkYWViYzRhMjkmaT01OTk1OTg0YmVlYzNkZmIxZjgzYjkxOWMmbz01ZWM4MTYyNGY4ZTk1ZWFjM2RkZGM1ZWEmcmVkaXJlY3RfdXJsPWh0dHBzJTNBJTJGJTJGd3d3LnNob3B0aW1lLmNvbS5iciUyRnByb2R1dG8lMkYxNzI5NTI0MjM5JTNGb3BuJTNEQUZMU0hPUA==/37058785/12780","thumbnail":"https://images-shoptime.b2w.io/produtos/01/00/img/1729524/2/1729524247P1.jpg","price":49.99,"priceFrom":49.99,"discount":0.0,"installment":{"quantity":5,"value":9.99},"store":{"id":5644,"name":"Shoptime","thumbnail":"https://www.lomadee.com/programas/BR/5644/imagemBox_80x60.png","link":"https://redir.lomadee.com/v2/direct/aHR0cHM6Ly93d3cuc2hvcHRpbWUuY29tLmJyLw==/37058785/12780","invisible":false,"needPermission":true}},{"id":"1707492336","name":"Braçadeira Mangueira Aço Inox 68 X 77Mm","category":{"id":3673,"name":"Geladeira / Refrigerador","link":"http://api.lomadee.com/v3/16168894131732d2dfed6/category/_id/3673?sourceId=37058785"},"link":"https://redir.lomadee.com/v2/direct/aHR0cHM6Ly90cmFja2VyMi5hZDV0cmFjay5jb20vdHJhY2tlci9jbGljaz9hY2M9NTlkN2Y1ZmI1MzcxMTY4MDE5ZjlkNGZkYWViYzRhMjkmaT01OTk1OTg0YmVlYzNkZmIxZjgzYjkxOWMmbz01ZWJkMGM3M2Y4ZTk1ZWFjM2RiMTNlOWQmcmVkaXJlY3RfdXJsPWh0dHBzJTNBJTJGJTJGd3d3LnNob3B0aW1lLmNvbS5iciUyRnByb2R1dG8lMkYxNzA3NDkyMzM2JTNGb3BuJTNEQUZMU0hPUA==/37058785/12780","thumbnail":"https://images-shoptime.b2w.io/produtos/01/00/img/1707492/3/1707492344P1.jpg","price":38.12,"priceFrom":38.12,"discount":0.0,"installment":{"quantity":3,"value":12.7},"store":{"id":5644,"name":"Shoptime","thumbnail":"https://www.lomadee.com/programas/BR/5644/imagemBox_80x60.png","link":"https://redir.lomadee.com/v2/direct/aHR0cHM6Ly93d3cuc2hvcHRpbWUuY29tLmJyLw==/37058785/12780","invisible":false,"needPermission":true}},{"id":"1545457529","name":"Prateleira Porta Freezer Electrolux Dc47 Dc48 Dc49a 77490717","category":{"id":3673,"name":"Geladeira / Refrigerador","link":"http://api.lomadee.com/v3/16168894131732d2dfed6/category/_id/3673?sourceId=37058785"},"link":"https://redir.lomadee.com/v2/direct/aHR0cHM6Ly90cmFja2VyMi5hZDV0cmFjay5jb20vdHJhY2tlci9jbGljaz9hY2M9NTlkN2Y1ZmI1MzcxMTY4MDE5ZjlkNGZkYWViYzRhMjkmaT01OTk1OTg0YmVlYzNkZmIxZjgzYjkxOWMmbz01ZTY1YTQyYmY4ZTk1ZWFjM2Q2MGY3MDcmcmVkaXJlY3RfdXJsPWh0dHBzJTNBJTJGJTJGd3d3LnNob3B0aW1lLmNvbS5iciUyRnByb2R1dG8lMkYxNTQ1NDU3NTI5JTNGb3BuJTNEQUZMU0hPUA==/37058785/12780","thumbnail":"https://images-shoptime.b2w.io/produtos/01/00/img/1545457/5/1545457537P1.jpg","price":99.9,"priceFrom":99.9,"discount":0.0,"installment":{"quantity":10,"value":9.99},"store":{"id":5644,"name":"Shoptime","thumbnail":"https://www.lomadee.com/programas/BR/5644/imagemBox_80x60.png","link":"https://redir.lomadee.com/v2/direct/aHR0cHM6Ly93d3cuc2hvcHRpbWUuY29tLmJyLw==/37058785/12780","invisible":false,"needPermission":true}}]}