{"requestInfo":{"status":"OK","message":"SUCCESS","generatedDate":null},"pagination":{"page":2,"size":12,"totalSize":12000,"totalPage":1000},"offers":[{"id":"3622201894","name":"Caso da tampa do silicone Andoer Camera de protecção com tampa da lente para a Ricoh Theta V 360-Degree Camera","category":{"id":0,"name":"Geral","link":"http://api.lomadee.com/v3/16168894131732d2dfed6/category/_id/0?sourceId=37058785"},"link":"https://redir.lomadee.com/v2/direct/aHR0cHM6Ly90cmFja2VyMi5hZDV0cmFjay5jb20vdHJhY2tlci9jbGljaz9hY2M9MmNjZmU4MjJkZmQ4NWQzYjcyMzU3ZjRkNWYwODlmZjYmaT01OTk1OTdmNWVlYzNkZmIxZjgzYjc5MDUmbz02MTExMzg4ZGY4ZTk1ZWFjM2Q3ODAwYmEmcmVkaXJlY3RfdXJsPWh0dHBzJTNBJTJGJTJGd3d3LmFtZXJpY2FuYXMuY29tLmJyJTJGcHJvZHV0byUyRjM2MjIyMDE4OTQlM0ZvcG4lM0RBRkxBQ09N/37058785/12780","thumbnail":"https://images-americanas.b2w.io/produtos/3622201894/imagens/caso-da-tampa-do-silicone-andoer-camera-de-proteccao-com-tampa-da-lente-para-a-ricoh-theta-v-360-degree-camera/3622201894_1_medium.jpg","price":177.02,"priceFrom":177.02,"discount":0.0,"installment":{"quantity":12,"value":14.75},"store":{"id":5632,"name":"Americanas","thumbnail":"https://www.lomadee.com/programas/BR/5632/imagemBox_80x60.png","link":"https://redir.lomadee.com/v2/direct/aHR0cHM6Ly93d3cuYW1lcmljYW5hcy5jb20uYnIv/37058785/12780","invisible":false,"needPermission":true}},{"id":"3622202336","name":"Été Nouveau Couleur unie Chaussures romaines Femmes Quotidien Décontracté Sandales Chaussures pour femmes","category":{"id":0,"name":"Geral","link":"http://api.lomadee.com/v3/16168894131732d2dfed6/category/_id/0?sourceId=37058785"},"link":"https://redir.lomadee.com/v2/direct/aHR0cHM6Ly90cmFja2VyMi5hZDV0cmFjay5jb20vdHJhY2tlci9jbGljaz9hY2M9MmNjZmU4MjJkZmQ4NWQzYjcyMzU3ZjRkNWYwODlmZjYmaT01OTk1OTdmNWVlYzNkZmIxZjgzYjc5MDUmbz02MTE1NDI0NWY4ZTk1ZWFjM2Q5MjZhZDgmcmVkaXJlY3RfdXJsPWh0dHBzJTNBJTJGJTJGd3d3LmFtZXJpY2FuYXMuY29tLmJyJTJGcHJvZHV0byUyRjM2MjIyMDIzMzYlM0ZvcG4lM0RBRkxBQ09N/37058785/12780","thumbnail":"https://images-americanas.b2w.io/produtos/3622202336/imagens/ete-nouveau-couleur-unie-chaussures-romaines-femmes-quotidien-decontracte-sandales-chaussures-pour-femmes/3622202395_1_medium.jpg","price":146.56,"priceFrom":146.56,"discount":0.0,"installment":{"quantity":12,"value":12.21},"store":{"id":5632,"name":"Americanas","thumbnail":"https://www.lomadee.com/programas/BR/5632/imagemBox_80x60.png","link":"https://redir.lomadee.com/v2/direct/aHR0cHM6Ly93d3cuYW1lcmljYW5hcy5jb20uYnIv/37058785/12780","invisible":false,"needPermission":true}},{"id":"3622204139","name":"Acrílico remoto caixa de armazenamento de controle Sundries Titular Wall Mounted Bin armazenamento Rack Container w / 3 Grade para Home Office Limpar","category":{"id":0,"name":"Geral","link":"http://api.lomadee.com/v3/16168894131732d2dfed6/category/_id/0?sourceId=37058785"},"link":"https://redir.lomadee.com/v2/direct/aHR0cHM6Ly90cmFja2VyMi5hZDV0cmFjay5jb20vdHJhY2tlci9jbGljaz9hY2M9MmNjZmU4MjJkZmQ4NWQzYjcyMzU3ZjRkNWYwODlmZjYmaT01OTk1OTdmNWVlYzNkZmIxZjgzYjc5MDUmbz02MTExMzg4ZGY4ZTk1ZWFjM2Q3ODAwOGYmcmVkaXJlY3RfdXJsPWh0dHBzJTNBJTJGJTJGd3d3LmFtZXJpY2FuYXMuY29tLmJyJTJGcHJvZHV0byUyRjM2MjIyMDQxMzklM0ZvcG4lM0RBRkxBQ09N/37058785/12780","thumbnail":"https://images-americanas.b2w.io/produtos/3622204139/imagens/acrilico-remoto-caixa-de-armazenamento-de-controle-sundries-titular-wall-mounted-bin-armazenamento-rack-container-w-3-grade-para-home-office-limpar/3622204139_1_medium.jpg","price":191.5,"priceFrom":191.5,"discount":0.0,"installment":{"quantity":12,"value":15.95},"store":{"id":5632,"name":"Americanas","thumbnail":"https://www.lomadee.com/programas/BR/5632/imagemBox_80x60.png","link":"https://redir.lomadee.com/v2/direct/aHR0cHM6Ly93d3cuYW1lcmljYW5hcy5jb20uYnIv/37058785/12780","invisible":false,"needPermission":true}},{"id":"3622218258","name":"Dobrável Pet banho de piscina dobrável Dog pet pool de banho Banheira Piscina para Cães Gatos Red 60X20cm","category":{"id":0,"name":"Geral","link":"http://api.lomadee.com/v3/16168894131732d2dfed6/category/_id/0?sourceId=37058785"},"link":"https://redir.lomadee.com/v2/direct/aHR0cHM6Ly90cmFja2VyMi5hZDV0cmFjay5jb20vdHJhY2tlci9jbGljaz9hY2M9MmNjZmU4MjJkZmQ4NWQzYjcyMzU3ZjRkNWYwODlmZjYmaT01OTk1OTdmNWVlYzNkZmIxZjgzYjc5MDUmbz02MTExM2JmY2Y4ZTk1ZWFjM2Q3ODBmOWMmcmVkaXJlY3RfdXJsPWh0dHBzJTNBJTJGJTJGd3d3LmFtZXJpY2FuYXMuY29tLmJyJTJGcHJvZHV0byUyRjM2MjIyMTgyNTglM0ZvcG4lM0RBRkxBQ09N/37058785/12780","thumbnail":"https://images-americanas.b2w.io/produtos/3622218258/imagens/dobravel-pet-banho-de-piscina-dobravel-dog-pet-pool-de-banho-banheira-piscina-para-caes-gatos-red-60x20cm/3622218258_1_medium.jpg","price":281.84,"priceFrom":281.84,"discount":0.0,"installment":{"quantity":12,"value":23.48},"store":{"id":5632,"name":"Americanas","thumbnail":"https://www.lomadee.com/programas/BR/5632/imagemBox_80x60.png","link":"https://redir.lomadee.com/v2/direct/aHR0cHM6Ly93d3cuYW1lcmljYW5hcy5jb20uYnIv/37058785/12780","invisible":false,"needPermission":true}},{"id":"3622224869","name":"Smartwatch W34s Relógio + Pulseira Masculina Onix","category":{"id":0,"name":"Geral","link":"http://api.lomadee.com/v3/16168894131732d2dfed6/category/_id/0?sourceId=37058785"},"link":"https://redir.lomadee.com/v2/direct/aHR0cHM6Ly90cmFja2VyMi5hZDV0cmFjay5jb20vdHJhY2tlci9jbGljaz9hY2M9MmNjZmU4MjJkZmQ4NWQzYjcyMzU3ZjRkNWYwODlmZjYmaT01OTk1OTdmNWVlYzNkZmIxZjgzYjc5MDUmbz02MTAyNTIzY2Y4ZTk1ZWFjM2RlZjNjODMmcmVkaXJlY3RfdXJsPWh0dHBzJTNBJTJGJTJGd3d3LmFtZXJpY2FuYXMuY29tLmJyJTJGcHJvZHV0byUyRjM2MjIyMjQ4NjklM0ZvcG4lM0RBRkxBQ09N/37058785/12780","thumbnail":"https://images-americanas.b2w.io/produtos/01/00/img/3622224/8/3622224877P1.jpg","price":639.9,"priceFrom":639.9,"discount":0.0,"installment":{"quantity":12,"value":53.32},"store":{"id":5632,"name":"Americanas","thumbnail":"https://www.lomadee.com/programas/BR/5632/imagemBox_80x60.png","link":"https://redir.lomadee.com/v2/direct/aHR0cHM6Ly93d3cuYW1lcmljYW5hcy5jb20uYnIv/37058785/12780","invisible":false,"needPermission":true}},{"id":"3622278699","name":"2pcs Camera Hot Shoe Mount a 1/4 -20 tripé Parafuso adaptador de flash sapatos de montagem para Rig dslr Camera","category":{"id":0,"name":"Geral","link":"http://api.lomadee.com/v3/16168894131732d2dfed6/category/_id/0?sourceId=37058785"},"link":"https://redir.lomadee.com/v2/direct/aHR0cHM6Ly90cmFja2VyMi5hZDV0cmFjay5jb20vdHJhY2tlci9jbGljaz9hY2M9MmNjZmU4MjJkZmQ4NWQzYjcyMzU3ZjRkNWYwODlmZjYmaT01OTk1OTdmNWVlYzNkZmIxZjgzYjc5MDUmbz02MTExMjA5Y2Y4ZTk1ZWFjM2Q3NzcwNTImcmVkaXJlY3RfdXJsPWh0dHBzJTNBJTJGJTJGd3d3LmFtZXJpY2FuYXMuY29tLmJyJTJGcHJvZHV0byUyRjM2MjIyNzg2OTklM0ZvcG4lM0RBRkxBQ09N/37058785/12780","thumbnail":"https://images-americanas.b2w.io/produtos/3622278699/imagens/2pcs-camera-hot-shoe-mount-a-1-4-20-tripe-parafuso-adaptador-de-flash-sapatos-de-montagem-para-rig-dslr-camera/3622278699_1_medium.jpg","price":113.39,"priceFrom":113.39,"discount":0.0,"installment":{"quantity":11,"value":10.3},"store":{"id":5632,"name":"Americanas","thumbnail":"https://www.lomadee.com/programas/BR/5632/imagemBox_80x60.png","link":"https://redir.lomadee.com/v2/direct/aHR0cHM6Ly93d3cuYW1lcmljYW5hcy5jb20uYnIv/37058785/12780","invisible":false,"needPermission":true}},{"id":"3622282541","name":"1PCS Car Auto liga de zinco seis milímetros do pneu da roda pneu Air Chuck Inflator bomba Válvula clipe braçadeira do conector Adaptador para Carros","category":{"id":0,"name":"Geral","link":"http://api.lomadee.com/v3/16168894131732d2dfed6/category/_id/0?sourceId=37058785"},"link":"https://redir.lomadee.com/v2/direct/aHR0cHM6Ly90cmFja2VyMi5hZDV0cmFjay5jb20vdHJhY2tlci9jbGljaz9hY2M9MmNjZmU4MjJkZmQ4NWQzYjcyMzU3ZjRkNWYwODlmZjYmaT01OTk1OTdmNWVlYzNkZmIxZjgzYjc5MDUmbz02MTExNDIzYWY4ZTk1ZWFjM2Q3ODQwNjImcmVkaXJlY3RfdXJsPWh0dHBzJTNBJTJGJTJGd3d3LmFtZXJpY2FuYXMuY29tLmJyJTJGcHJvZHV0byUyRjM2MjIyODI1NDElM0ZvcG4lM0RBRkxBQ09N/37058785/12780","thumbnail":"https://images-americanas.b2w.io/produtos/3622282541/imagens/1pcs-car-auto-liga-de-zinco-seis-milimetros-do-pneu-da-roda-pneu-air-chuck-inflator-bomba-valvula-clipe-bracadeira-do-conector-adaptador-para-carros/3622282541_1_medium.jpg","price":103.7,"priceFrom":103.7,"discount":0.0,"installment":{"quantity":10,"value":10.37},"store":{"id":5632,"name":"Americanas","thumbnail":"https://www.lomadee.com/programas/BR/5632/imagemBox_80x60.png","link":"https://redir.lomadee.com/v2/direct/aHR0cHM6Ly93d3cuYW1lcmljYW5hcy5jb20uYnIv/37058785/12780","invisible":false,"needPermission":true}},{"id":"3622335930","name":"Sandales pour femmes Pantoufles à talons en cristal Sandales à talons transparents à brides croisées","category":{"id":0,"name":"Geral","link":"http://api.lomadee.com/v3/16168894131732d2dfed6/category/_id/0?sourceId=37058785"},"link":"https://redir.lomadee.com/v2/direct/aHR0cHM6Ly90cmFja2VyMi5hZDV0cmFjay5jb20vdHJhY2tlci9jbGljaz9hY2M9MmNjZmU4MjJkZmQ4NWQzYjcyMzU3ZjRkNWYwODlmZjYmaT01OTk1OTdmNWVlYzNkZmIxZjgzYjc5MDUmbz02MTE2MzJhOWY4ZTk1ZWFjM2Q5ZTliOWQmcmVkaXJlY3RfdXJsPWh0dHBzJTNBJTJGJTJGd3d3LmFtZXJpY2FuYXMuY29tLmJyJTJGcHJvZHV0byUyRjM2MjIzMzU5MzAlM0ZvcG4lM0RBRkxBQ09N/37058785/12780","thumbnail":"https://images-americanas.b2w.io/produtos/3622335930/imagens/sandales-pour-femmes-pantoufles-a-talons-en-cristal-sandales-a-talons-transparents-a-brides-croisees/3622335999_1_medium.jpg","price":166.88,"priceFrom":166.88,"discount":0.0,"installment":{"quantity":12,"value":13.9},"store":{"id":5632,"name":"Americanas","thumbnail":"https://www.lomadee.com/programas/BR/5632/imagemBox_80x60.png","link":"https://redir.lomadee.com/v2/direct/aHR0cHM6Ly93d3cuYW1lcmljYW5hcy5jb20uYnIv/37058785/12780","invisible":false,"needPermission":true}},{"id":"3622336570","name":"Cesto de 8 camadas com Zipper Folding seco cremalheira Secador de Herb Secagem Net saco de malha para ervas Flores Buds Plantas Preto 8-layer","category":{"id":0,"name":"Geral","link":"http://api.lomadee.com/v3/16168894131732d2dfed6/category/_id/0?sourceId=37058785"},"link":"https://redir.lomadee.com/v2/direct/aHR0cHM6Ly90cmFja2VyMi5hZDV0cmFjay5jb20vdHJhY2tlci9jbGljaz9hY2M9MmNjZmU4MjJkZmQ4NWQzYjcyMzU3ZjRkNWYwODlmZjYmaT01OTk1OTdmNWVlYzNkZmIxZjgzYjc5MDUmbz02MTExMzg4NGY4ZTk1ZWFjM2Q3ODAwNDQmcmVkaXJlY3RfdXJsPWh0dHBzJTNBJTJGJTJGd3d3LmFtZXJpY2FuYXMuY29tLmJyJTJGcHJvZHV0byUyRjM2MjIzMzY1NzAlM0ZvcG4lM0RBRkxBQ09N/37058785/12780","thumbnail":"https://images-americanas.b2w.io/produtos/3622336570/imagens/cesto-de-8-camadas-com-zipper-folding-seco-cremalheira-secador-de-herb-secagem-net-saco-de-malha-para-ervas-flores-buds-plantas-preto-8-layer/3622336570_1_medium.jpg","price":366.96,"priceFrom":366.96,"discount":0.0,"installment":{"quantity":12,"value":30.58},"store":{"id":5632,"name":"Americanas","thumbnail":"https://www.lomadee.com/programas/BR/5632/imagemBox_80x60.png","link":"https://redir.lomadee.com/v2/direct/aHR0cHM6Ly93d3cuYW1lcmljYW5hcy5jb20uYnIv/37058785/12780","invisible":false,"needPermission":true}},{"id":"3622338719","name":"Alta Pressão Flushing lavagem com água Jet Jardim casa do carro de ferramenta de limpeza Solução de limpeza adequado para qualquer Water Hose 1","category":{"id":0,"name":"Geral","link":"http://api.lomadee.com/v3/16168894131732d2dfed6/category/_id/0?sourceId=37058785"},"link":"https://redir.lomadee.com/v2/direct/aHR0cHM6Ly90cmFja2VyMi5hZDV0cmFjay5jb20vdHJhY2tlci9jbGljaz9hY2M9MmNjZmU4MjJkZmQ4NWQzYjcyMzU3ZjRkNWYwODlmZjYmaT01OTk1OTdmNWVlYzNkZmIxZjgzYjc5MDUmbz02MTExMzg4NGY4ZTk1ZWFjM2Q3ODAwMzImcmVkaXJlY3RfdXJsPWh0dHBzJTNBJTJGJTJGd3d3LmFtZXJpY2FuYXMuY29tLmJyJTJGcHJvZHV0byUyRjM2MjIzMzg3MTklM0ZvcG4lM0RBRkxBQ09N/37058785/12780","thumbnail":"https://images-americanas.b2w.io/produtos/3622338719/imagens/alta-pressao-flushing-lavagem-com-agua-jet-jardim-casa-do-carro-de-ferramenta-de-limpeza-solucao-de-limpeza-adequado-para-qualquer-water-hose-1/3622338719_1_medium.jpg","price":198.24,"priceFrom":198.24,"discount":0.0,"installment":{"quantity":12,"value":16.52},"store":{"id":5632,"name":"Americanas","thumbnail":"https://www.lomadee.com/programas/BR/5632/imagemBox_80x60.png","link":"https://redir.lomadee.com/v2/direct/aHR0cHM6Ly93d3cuYW1lcmljYW5hcy5jb20uYnIv/37058785/12780","invisible":false,"needPermission":true}},{"id":"3622339834","name":"Outdoor Sports Men Ciclismo Cap bicicleta da bicicleta Helmet Liner Correndo Skiing velo Windproof Bandana Inverno Caps Black Hat M","category":{"id":0,"name":"Geral","link":"http://api.lomadee.com/v3/16168894131732d2dfed6/category/_id/0?sourceId=37058785"},"link":"https://redir.lomadee.com/v2/direct/aHR0cHM6Ly90cmFja2VyMi5hZDV0cmFjay5jb20vdHJhY2tlci9jbGljaz9hY2M9MmNjZmU4MjJkZmQ4NWQzYjcyMzU3ZjRkNWYwODlmZjYmaT01OTk1OTdmNWVlYzNkZmIxZjgzYjc5MDUmbz02MTExMjA5OGY4ZTk1ZWFjM2Q3NzZmYTUmcmVkaXJlY3RfdXJsPWh0dHBzJTNBJTJGJTJGd3d3LmFtZXJpY2FuYXMuY29tLmJyJTJGcHJvZHV0byUyRjM2MjIzMzk4MzQlM0ZvcG4lM0RBRkxBQ09N/37058785/12780","thumbnail":"https://images-americanas.b2w.io/produtos/3622339834/imagens/outdoor-sports-men-ciclismo-cap-bicicleta-da-bicicleta-helmet-liner-correndo-skiing-velo-windproof-bandana-inverno-caps-black-hat-m/3622339834_1_medium.jpg","price":127.3,"priceFrom":127.3,"discount":0.0,"installment":{"quantity":12,"value":10.6},"store":{"id":5632,"name":"Americanas","thumbnail":"https://www.lomadee.com/programas/BR/5632/imagemBox_80x60.png","link":"https://redir.lomadee.com/v2/direct/aHR0cHM6Ly93d3cuYW1lcmljYW5hcy5jb20uYnIv/37058785/12780","invisible":false,"needPermission":true}},{"id":"3622378008","name":"Inteligente Household Hip instrutor Prefeito Ass Builder Buttock Tighter Lifter Massager Vibração elétrica estimulador muscular Relaxtion Máquina","category":{"id":0,"name":"Geral","link":"http://api.lomadee.com/v3/16168894131732d2dfed6/category/_id/0?sourceId=37058785"},"link":"https://redir.lomadee.com/v2/direct/aHR0cHM6Ly90cmFja2VyMi5hZDV0cmFjay5jb20vdHJhY2tlci9jbGljaz9hY2M9MmNjZmU4MjJkZmQ4NWQzYjcyMzU3ZjRkNWYwODlmZjYmaT01OTk1OTdmNWVlYzNkZmIxZjgzYjc5MDUmbz02MTExM2JmMmY4ZTk1ZWFjM2Q3ODBmMTAmcmVkaXJlY3RfdXJsPWh0dHBzJTNBJTJGJTJGd3d3LmFtZXJpY2FuYXMuY29tLmJyJTJGcHJvZHV0byUyRjM2MjIzNzgwMDglM0ZvcG4lM0RBRkxBQ09N/37058785/12780","thumbnail":"https://images-americanas.b2w.io/produtos/3622378008/imagens/inteligente-household-hip-instrutor-prefeito-ass-builder-buttock-tighter-lifter-massager-vibracao-eletrica-estimulador-muscular-relaxtion-maquina/3622378008_1_medium.jpg","price":191.36,"priceFrom":191.36,"discount":0.0,"installment":{"quantity":12,"value":15.94},"store":{"id":5632,"name":"Americanas","thumbnail":"https://www.lomadee.com/programas/BR/5632/imagemBox_80x60.png","link":"https://redir.lomadee.com/v2/direct/aHR0cHM6Ly93d3cuYW1lcmljYW5hcy5jb20uYnIv/37058785/12780","invisible":false,"needPermission":true}}]}