{"requestInfo":{"status":"OK","message":"SUCCESS","generatedDate":null},"pagination":{"page":1,"size":12,"totalSize":12000,"totalPage":1000},"offers":[{"id":"3316385605","name":"Coelhinho da Páscoa decoração de mesa de madeira decoração para casa de madeira","category":{"id":0,"name":"Geral","link":"http://api.lomadee.com/v3/16168894131732d2dfed6/category/_id/0?sourceId=37058785"},"link":"https://redir.lomadee.com/v2/direct/aHR0cHM6Ly90cmFja2VyMi5hZDV0cmFjay5jb20vdHJhY2tlci9jbGljaz9hY2M9MmNjZmU4MjJkZmQ4NWQzYjcyMzU3ZjRkNWYwODlmZjYmaT01OTk1OTdmNWVlYzNkZmIxZjgzYjc5MDUmbz02MGFiOGJmZmY4ZTk1ZWFjM2Q5YzU4YTQmcmVkaXJlY3RfdXJsPWh0dHBzJTNBJTJGJTJGd3d3LmFtZXJpY2FuYXMuY29tLmJyJTJGcHJvZHV0byUyRjMzMTYzODU2MDUlM0ZvcG4lM0RBRkxBQ09N/37058785/12780","thumbnail":"https://images-americanas.b2w.io/produtos/3316385605/imagens/coelhinho-da-pascoa-decoracao-de-mesa-de-madeira-decoracao-para-casa-de-madeira/3316385605_1_medium.jpg","price":62.76,"priceFrom":62.76,"discount":0.0,"installment":{"quantity":6,"value":10.46},"store":{"id":5632,"name":"Americanas","thumbnail":"https://www.lomadee.com/programas/BR/5632/imagemBox_80x60.png","link":"https://redir.lomadee.com/v2/direct/aHR0cHM6Ly93d3cuYW1lcmljYW5hcy5jb20uYnIv/37058785/12780","invisible":false,"needPermission":true}},{"id":"3317181815","name":"1pc AuQuest Handmade óleos essenciais sabonete hidratante Papaya Rose Soap","category":{"id":0,"name":"Geral","link":"http://api.lomadee.com/v3/16168894131732d2dfed6/category/_id/0?sourceId=37058785"},"link":"https://redir.lomadee.com/v2/direct/aHR0cHM6Ly90cmFja2VyMi5hZDV0cmFjay5jb20vdHJhY2tlci9jbGljaz9hY2M9MmNjZmU4MjJkZmQ4NWQzYjcyMzU3ZjRkNWYwODlmZjYmaT01OTk1OTdmNWVlYzNkZmIxZjgzYjc5MDUmbz02MGFiOWRkOWY4ZTk1ZWFjM2Q5ZTk3OTYmcmVkaXJlY3RfdXJsPWh0dHBzJTNBJTJGJTJGd3d3LmFtZXJpY2FuYXMuY29tLmJyJTJGcHJvZHV0byUyRjMzMTcxODE4MTUlM0ZvcG4lM0RBRkxBQ09N/37058785/12780","thumbnail":"https://images-americanas.b2w.io/produtos/3317181815/imagens/1pc-auquest-handmade-oleos-essenciais-sabonete-hidratante-papaya-rose-soap/3317181815_1_medium.jpg","price":73.79,"priceFrom":73.79,"discount":0.0,"installment":{"quantity":7,"value":10.54},"store":{"id":5632,"name":"Americanas","thumbnail":"https://www.lomadee.com/programas/BR/5632/imagemBox_80x60.png","link":"https://redir.lomadee.com/v2/direct/aHR0cHM6Ly93d3cuYW1lcmljYW5hcy5jb20uYnIv/37058785/12780","invisible":false,"needPermission":true}},{"id":"3317039106","name":"O ordinário Vc Pó 100% de L-ácido ascórbico em pó externo Utilizao Tica","category":{"id":0,"name":"Geral","link":"http://api.lomadee.com/v3/16168894131732d2dfed6/category/_id/0?sourceId=37058785"},"link":"https://redir.lomadee.com/v2/direct/aHR0cHM6Ly90cmFja2VyMi5hZDV0cmFjay5jb20vdHJhY2tlci9jbGljaz9hY2M9MmNjZmU4MjJkZmQ4NWQzYjcyMzU3ZjRkNWYwODlmZjYmaT01OTk1OTdmNWVlYzNkZmIxZjgzYjc5MDUmbz02MGFiOTZjY2Y4ZTk1ZWFjM2Q5ZDk3MjYmcmVkaXJlY3RfdXJsPWh0dHBzJTNBJTJGJTJGd3d3LmFtZXJpY2FuYXMuY29tLmJyJTJGcHJvZHV0byUyRjMzMTcwMzkxMDYlM0ZvcG4lM0RBRkxBQ09N/37058785/12780","thumbnail":"https://images-americanas.b2w.io/produtos/3317039106/imagens/o-ordinario-vc-po-100-de-l-acido-ascorbico-em-po-externo-utilizao-tica/3317039106_1_medium.jpg","price":87.67,"priceFrom":87.67,"discount":0.0,"installment":{"quantity":8,"value":10.95},"store":{"id":5632,"name":"Americanas","thumbnail":"https://www.lomadee.com/programas/BR/5632/imagemBox_80x60.png","link":"https://redir.lomadee.com/v2/direct/aHR0cHM6Ly93d3cuYW1lcmljYW5hcy5jb20uYnIv/37058785/12780","invisible":false,"needPermission":true}},{"id":"3316377074","name":"Conjunto de substituição de óculos V2 do protetor de olho do painel frontal + alça de cabeça para dji fpv Goggles","category":{"id":0,"name":"Geral","link":"http://api.lomadee.com/v3/16168894131732d2dfed6/category/_id/0?sourceId=37058785"},"link":"https://redir.lomadee.com/v2/direct/aHR0cHM6Ly90cmFja2VyMi5hZDV0cmFjay5jb20vdHJhY2tlci9jbGljaz9hY2M9MmNjZmU4MjJkZmQ4NWQzYjcyMzU3ZjRkNWYwODlmZjYmaT01OTk1OTdmNWVlYzNkZmIxZjgzYjc5MDUmbz02MGFiOGI5MGY4ZTk1ZWFjM2Q5YzQ4YmMmcmVkaXJlY3RfdXJsPWh0dHBzJTNBJTJGJTJGd3d3LmFtZXJpY2FuYXMuY29tLmJyJTJGcHJvZHV0byUyRjMzMTYzNzcwNzQlM0ZvcG4lM0RBRkxBQ09N/37058785/12780","thumbnail":"https://images-americanas.b2w.io/produtos/3316377074/imagens/conjunto-de-substituicao-de-oculos-v2-do-protetor-de-olho-do-painel-frontal-alca-de-cabeca-para-dji-fpv-goggles/3316377074_1_medium.jpg","price":149.07,"priceFrom":149.07,"discount":0.0,"installment":{"quantity":12,"value":12.42},"store":{"id":5632,"name":"Americanas","thumbnail":"https://www.lomadee.com/programas/BR/5632/imagemBox_80x60.png","link":"https://redir.lomadee.com/v2/direct/aHR0cHM6Ly93d3cuYW1lcmljYW5hcy5jb20uYnIv/37058785/12780","invisible":false,"needPermission":true}},{"id":"3316378659","name":"70 cm adequado para dji fpv Combo Mavic Air 2 mini2 avental de drone universal","category":{"id":0,"name":"Geral","link":"http://api.lomadee.com/v3/16168894131732d2dfed6/category/_id/0?sourceId=37058785"},"link":"https://redir.lomadee.com/v2/direct/aHR0cHM6Ly90cmFja2VyMi5hZDV0cmFjay5jb20vdHJhY2tlci9jbGljaz9hY2M9MmNjZmU4MjJkZmQ4NWQzYjcyMzU3ZjRkNWYwODlmZjYmaT01OTk1OTdmNWVlYzNkZmIxZjgzYjc5MDUmbz02MGFiOGQ1MGY4ZTk1ZWFjM2Q5Yzc0OGQmcmVkaXJlY3RfdXJsPWh0dHBzJTNBJTJGJTJGd3d3LmFtZXJpY2FuYXMuY29tLmJyJTJGcHJvZHV0byUyRjMzMTYzNzg2NTklM0ZvcG4lM0RBRkxBQ09N/37058785/12780","thumbnail":"https://images-americanas.b2w.io/produtos/3316378659/imagens/70-cm-adequado-para-dji-fpv-combo-mavic-air-2-mini2-avental-de-drone-universal/3316378659_1_medium.jpg","price":170.58,"priceFrom":170.58,"discount":0.0,"installment":{"quantity":12,"value":14.21},"store":{"id":5632,"name":"Americanas","thumbnail":"https://www.lomadee.com/programas/BR/5632/imagemBox_80x60.png","link":"https://redir.lomadee.com/v2/direct/aHR0cHM6Ly93d3cuYW1lcmljYW5hcy5jb20uYnIv/37058785/12780","invisible":false,"needPermission":true}},{"id":"3316373962","name":"Acessório de filtro óptico ND4 / 8/16/32 para câmera de bolso fimi palm 2","category":{"id":0,"name":"Geral","link":"http://api.lomadee.com/v3/16168894131732d2dfed6/category/_id/0?sourceId=37058785"},"link":"https://redir.lomadee.com/v2/direct/aHR0cHM6Ly90cmFja2VyMi5hZDV0cmFjay5jb20vdHJhY2tlci9jbGljaz9hY2M9MmNjZmU4MjJkZmQ4NWQzYjcyMzU3ZjRkNWYwODlmZjYmaT01OTk1OTdmNWVlYzNkZmIxZjgzYjc5MDUmbz02MGFiOGMwMmY4ZTk1ZWFjM2Q5YzVhZGQmcmVkaXJlY3RfdXJsPWh0dHBzJTNBJTJGJTJGd3d3LmFtZXJpY2FuYXMuY29tLmJyJTJGcHJvZHV0byUyRjMzMTYzNzM5NjIlM0ZvcG4lM0RBRkxBQ09N/37058785/12780","thumbnail":"https://images-americanas.b2w.io/produtos/3316373962/imagens/acessorio-de-filtro-optico-nd4-8-16-32-para-camera-de-bolso-fimi-palm-2/3316373962_1_medium.jpg","price":224.94,"priceFrom":224.94,"discount":0.0,"installment":{"quantity":12,"value":18.74},"store":{"id":5632,"name":"Americanas","thumbnail":"https://www.lomadee.com/programas/BR/5632/imagemBox_80x60.png","link":"https://redir.lomadee.com/v2/direct/aHR0cHM6Ly93d3cuYW1lcmljYW5hcy5jb20uYnIv/37058785/12780","invisible":false,"needPermission":true}},{"id":"3317056731","name":"Produto comestível de silicone bicarbonato de esteira alta temperatura com fibra de vidro resistente silicone macaron bicarbonato de bandeja","category":{"id":0,"name":"Geral","link":"http://api.lomadee.com/v3/16168894131732d2dfed6/category/_id/0?sourceId=37058785"},"link":"https://redir.lomadee.com/v2/direct/aHR0cHM6Ly90cmFja2VyMi5hZDV0cmFjay5jb20vdHJhY2tlci9jbGljaz9hY2M9MmNjZmU4MjJkZmQ4NWQzYjcyMzU3ZjRkNWYwODlmZjYmaT01OTk1OTdmNWVlYzNkZmIxZjgzYjc5MDUmbz02MGFiOTZiY2Y4ZTk1ZWFjM2Q5ZDg4YTkmcmVkaXJlY3RfdXJsPWh0dHBzJTNBJTJGJTJGd3d3LmFtZXJpY2FuYXMuY29tLmJyJTJGcHJvZHV0byUyRjMzMTcwNTY3MzElM0ZvcG4lM0RBRkxBQ09N/37058785/12780","thumbnail":"https://images-americanas.b2w.io/produtos/3317056731/imagens/produto-comestivel-de-silicone-bicarbonato-de-esteira-alta-temperatura-com-fibra-de-vidro-resistente-silicone-macaron-bicarbonato-de-bandeja/3317056731_1_medium.jpg","price":76.31,"priceFrom":76.31,"discount":0.0,"installment":{"quantity":7,"value":10.9},"store":{"id":5632,"name":"Americanas","thumbnail":"https://www.lomadee.com/programas/BR/5632/imagemBox_80x60.png","link":"https://redir.lomadee.com/v2/direct/aHR0cHM6Ly93d3cuYW1lcmljYW5hcy5jb20uYnIv/37058785/12780","invisible":false,"needPermission":true}},{"id":"3316417689","name":"Arte Musical Instrumento Musical Algodão Linho Sofá Cintura Capa de Almofada Fronha Home","category":{"id":0,"name":"Geral","link":"http://api.lomadee.com/v3/16168894131732d2dfed6/category/_id/0?sourceId=37058785"},"link":"https://redir.lomadee.com/v2/direct/aHR0cHM6Ly90cmFja2VyMi5hZDV0cmFjay5jb20vdHJhY2tlci9jbGljaz9hY2M9MmNjZmU4MjJkZmQ4NWQzYjcyMzU3ZjRkNWYwODlmZjYmaT01OTk1OTdmNWVlYzNkZmIxZjgzYjc5MDUmbz02MGFiOGQyY2Y4ZTk1ZWFjM2Q5YzZjNDEmcmVkaXJlY3RfdXJsPWh0dHBzJTNBJTJGJTJGd3d3LmFtZXJpY2FuYXMuY29tLmJyJTJGcHJvZHV0byUyRjMzMTY0MTc2ODklM0ZvcG4lM0RBRkxBQ09N/37058785/12780","thumbnail":"https://images-americanas.b2w.io/produtos/3316417689/imagens/arte-musical-instrumento-musical-algodao-linho-sofa-cintura-capa-de-almofada-fronha-home/3316417689_1_medium.jpg","price":70.59,"priceFrom":70.59,"discount":0.0,"installment":{"quantity":7,"value":10.08},"store":{"id":5632,"name":"Americanas","thumbnail":"https://www.lomadee.com/programas/BR/5632/imagemBox_80x60.png","link":"https://redir.lomadee.com/v2/direct/aHR0cHM6Ly93d3cuYW1lcmljYW5hcy5jb20uYnIv/37058785/12780","invisible":false,"needPermission":true}},{"id":"3317058534","name":"Pares bonitos simples dos desenhos animados Plastic Household Escovar Cup Tea Cup","category":{"id":0,"name":"Geral","link":"http://api.lomadee.com/v3/16168894131732d2dfed6/category/_id/0?sourceId=37058785"},"link":"https://redir.lomadee.com/v2/direct/aHR0cHM6Ly90cmFja2VyMi5hZDV0cmFjay5jb20vdHJhY2tlci9jbGljaz9hY2M9MmNjZmU4MjJkZmQ4NWQzYjcyMzU3ZjRkNWYwODlmZjYmaT01OTk1OTdmNWVlYzNkZmIxZjgzYjc5MDUmbz02MGFiOWEwNWY4ZTk1ZWFjM2Q5ZTQyNDkmcmVkaXJlY3RfdXJsPWh0dHBzJTNBJTJGJTJGd3d3LmFtZXJpY2FuYXMuY29tLmJyJTJGcHJvZHV0byUyRjMzMTcwNTg1MzQlM0ZvcG4lM0RBRkxBQ09N/37058785/12780","thumbnail":"https://images-americanas.b2w.io/produtos/3317058534/imagens/pares-bonitos-simples-dos-desenhos-animados-plastic-household-escovar-cup-tea-cup/3317058534_1_medium.jpg","price":41.47,"priceFrom":41.47,"discount":0.0,"installment":{"quantity":4,"value":10.36},"store":{"id":5632,"name":"Americanas","thumbnail":"https://www.lomadee.com/programas/BR/5632/imagemBox_80x60.png","link":"https://redir.lomadee.com/v2/direct/aHR0cHM6Ly93d3cuYW1lcmljYW5hcy5jb20uYnIv/37058785/12780","invisible":false,"needPermission":true}},{"id":"3316434569","name":"Fronhas decorativas para o dia das mães, conjunto de 4 fronhas decorativas de linho","category":{"id":0,"name":"Geral","link":"http://api.lomadee.com/v3/16168894131732d2dfed6/category/_id/0?sourceId=37058785"},"link":"https://redir.lomadee.com/v2/direct/aHR0cHM6Ly90cmFja2VyMi5hZDV0cmFjay5jb20vdHJhY2tlci9jbGljaz9hY2M9MmNjZmU4MjJkZmQ4NWQzYjcyMzU3ZjRkNWYwODlmZjYmaT01OTk1OTdmNWVlYzNkZmIxZjgzYjc5MDUmbz02MGFiOGU2M2Y4ZTk1ZWFjM2Q5YzgyNzcmcmVkaXJlY3RfdXJsPWh0dHBzJTNBJTJGJTJGd3d3LmFtZXJpY2FuYXMuY29tLmJyJTJGcHJvZHV0byUyRjMzMTY0MzQ1NjklM0ZvcG4lM0RBRkxBQ09N/37058785/12780","thumbnail":"https://images-americanas.b2w.io/produtos/3316434569/imagens/fronhas-decorativas-para-o-dia-das-maes-conjunto-de-4-fronhas-decorativas-de-linho/3316434569_1_medium.jpg","price":122.94,"priceFrom":122.94,"discount":0.0,"installment":{"quantity":12,"value":10.24},"store":{"id":5632,"name":"Americanas","thumbnail":"https://www.lomadee.com/programas/BR/5632/imagemBox_80x60.png","link":"https://redir.lomadee.com/v2/direct/aHR0cHM6Ly93d3cuYW1lcmljYW5hcy5jb20uYnIv/37058785/12780","invisible":false,"needPermission":true}},{"id":"3316435182","name":"Fronha estilo desenho animado linho impressão digital fronha","category":{"id":0,"name":"Geral","link":"http://api.lomadee.com/v3/16168894131732d2dfed6/category/_id/0?sourceId=37058785"},"link":"https://redir.lomadee.com/v2/direct/aHR0cHM6Ly90cmFja2VyMi5hZDV0cmFjay5jb20vdHJhY2tlci9jbGljaz9hY2M9MmNjZmU4MjJkZmQ4NWQzYjcyMzU3ZjRkNWYwODlmZjYmaT01OTk1OTdmNWVlYzNkZmIxZjgzYjc5MDUmbz02MGFiOGU2M2Y4ZTk1ZWFjM2Q5YzgyN2YmcmVkaXJlY3RfdXJsPWh0dHBzJTNBJTJGJTJGd3d3LmFtZXJpY2FuYXMuY29tLmJyJTJGcHJvZHV0byUyRjMzMTY0MzUxODIlM0ZvcG4lM0RBRkxBQ09N/37058785/12780","thumbnail":"https://images-americanas.b2w.io/produtos/3316435182/imagens/fronha-estilo-desenho-animado-linho-impressao-digital-fronha/3316435182_1_medium.jpg","price":69.42,"priceFrom":69.42,"discount":0.0,"installment":{"quantity":7,"value":9.91},"store":{"id":5632,"name":"Americanas","thumbnail":"https://www.lomadee.com/programas/BR/5632/imagemBox_80x60.png","link":"https://redir.lomadee.com/v2/direct/aHR0cHM6Ly93d3cuYW1lcmljYW5hcy5jb20uYnIv/37058785/12780","invisible":false,"needPermission":true}},{"id":"3316382877","name":"4 unidades Prope Ller Guard Elevated Tripé 2 em 1 Para dji Air 2S / Air 2 Enclosed Desig","category":{"id":0,"name":"Geral","link":"http://api.lomadee.com/v3/16168894131732d2dfed6/category/_id/0?sourceId=37058785"},"link":"https://redir.lomadee.com/v2/direct/aHR0cHM6Ly90cmFja2VyMi5hZDV0cmFjay5jb20vdHJhY2tlci9jbGljaz9hY2M9MmNjZmU4MjJkZmQ4NWQzYjcyMzU3ZjRkNWYwODlmZjYmaT01OTk1OTdmNWVlYzNkZmIxZjgzYjc5MDUmbz02MGFiOGMwMGY4ZTk1ZWFjM2Q5YzU5ODkmcmVkaXJlY3RfdXJsPWh0dHBzJTNBJTJGJTJGd3d3LmFtZXJpY2FuYXMuY29tLmJyJTJGcHJvZHV0byUyRjMzMTYzODI4NzclM0ZvcG4lM0RBRkxBQ09N/37058785/12780","thumbnail":"https://images-americanas.b2w.io/produtos/3316382877/imagens/4-unidades-prope-ller-guard-elevated-tripe-2-em-1-para-dji-air-2s-air-2-enclosed-desig/3316382877_1_medium.jpg","price":128.11,"priceFrom":128.11,"discount":0.0,"installment":{"quantity":12,"value":10.67},"store":{"id":5632,"name":"Americanas","thumbnail":"https://www.lomadee.com/programas/BR/5632/imagemBox_80x60.png","link":"https://redir.lomadee.com/v2/direct/aHR0cHM6Ly93d3cuYW1lcmljYW5hcy5jb20uYnIv/37058785/12780","invisible":false,"needPermission":true}}]}