{"requestInfo":{"status":"OK","message":"SUCCESS","generatedDate":null},"pagination":{"page":1,"size":12,"totalSize":12000,"totalPage":1000},"offers":[{"id":"23530832","name":"Kit Lâmpadas Halógenas Toyota Corolla 2008 Até 2014","category":{"id":0,"name":"Geral","link":"http://api.lomadee.com/v3/16168894131732d2dfed6/category/_id/0?sourceId=37058785"},"link":"https://redir.lomadee.com/v2/direct/aHR0cHM6Ly90cmFja2VyMi5hZDV0cmFjay5jb20vdHJhY2tlci9jbGljaz9hY2M9NmM3MjlmYWFjZDNlY2FiZDUyMDJlZmNlNGY4OGUxMzAmaT01OTk1OTgyMWVlYzNkZmIxZjgzYjg1NDEmbz01OTNlZDIyMWVlYzNkZmIxZjg4NWRmNzkmcmVkaXJlY3RfdXJsPWh0dHAlM0ElMkYlMkZ3d3cuc3VibWFyaW5vLmNvbS5iciUyRnByb2R1dG8lMkYyMzUzMDgzMiUyRmtpdC1sYW1wYWRhcy1oYWxvZ2VuYXMtdG95b3RhLWNvcm9sbGEtMjAwOC1hdGUtMjAxNCUzRm9wbiUzREFGTE5PVk9TVUI=/37058785/12780","thumbnail":"https://images-submarino.b2w.io/produtos/01/00/sku/23530/8/23530835P1.jpg","price":299.0,"priceFrom":299.0,"discount":0.0,"installment":{"quantity":12,"value":24.91},"store":{"id":5766,"name":"Submarino ","thumbnail":"https://www.lomadee.com/programas/BR/5766/imagemBox_80x60.png","link":"https://redir.lomadee.com/v2/direct/aHR0cHM6Ly93d3cuc3VibWFyaW5vLmNvbS5ici8=/37058785/12780","invisible":false,"needPermission":true}},{"id":"23530873","name":"Kit lâmpadas halógenas toyota hilux sw4 2006 até 2014","category":{"id":0,"name":"Geral","link":"http://api.lomadee.com/v3/16168894131732d2dfed6/category/_id/0?sourceId=37058785"},"link":"https://redir.lomadee.com/v2/direct/aHR0cHM6Ly90cmFja2VyMi5hZDV0cmFjay5jb20vdHJhY2tlci9jbGljaz9hY2M9NmM3MjlmYWFjZDNlY2FiZDUyMDJlZmNlNGY4OGUxMzAmaT01OTk1OTgyMWVlYzNkZmIxZjgzYjg1NDEmbz01OTNlZDIyMGVlYzNkZmIxZjg4NWRlYmUmcmVkaXJlY3RfdXJsPWh0dHAlM0ElMkYlMkZ3d3cuc3VibWFyaW5vLmNvbS5iciUyRnByb2R1dG8lMkYyMzUzMDg3MyUyRmtpdC1sYW1wYWRhcy1oYWxvZ2VuYXMtdG95b3RhLWhpbHV4LXN3NC0yMDA2LWF0ZS0yMDE0JTNGb3BuJTNEQUZMTk9WT1NVQg==/37058785/12780","thumbnail":"https://images-submarino.b2w.io/produtos/01/00/item/23530/8/23530873P1.jpg","price":299.0,"priceFrom":299.0,"discount":0.0,"installment":{"quantity":12,"value":24.91},"store":{"id":5766,"name":"Submarino ","thumbnail":"https://www.lomadee.com/programas/BR/5766/imagemBox_80x60.png","link":"https://redir.lomadee.com/v2/direct/aHR0cHM6Ly93d3cuc3VibWFyaW5vLmNvbS5ici8=/37058785/12780","invisible":false,"needPermission":true}},{"id":"611200538","name":"Pelúcia com Sons - 18 Cm - Punkymals - Bowie - Candide 4400","category":{"id":198,"name":"Pelúcias","link":"http://api.lomadee.com/v3/16168894131732d2dfed6/category/_id/198?sourceId=37058785"},"link":"https://redir.lomadee.com/v2/direct/aHR0cHM6Ly90cmFja2VyMi5hZDV0cmFjay5jb20vdHJhY2tlci9jbGljaz9hY2M9NmM3MjlmYWFjZDNlY2FiZDUyMDJlZmNlNGY4OGUxMzAmaT01OTk1OTgyMWVlYzNkZmIxZjgzYjg1NDEmbz01ZDk0Y2RkMDZjMjhhM2NiNTBjZWY5YzkmcmVkaXJlY3RfdXJsPWh0dHBzJTNBJTJGJTJGd3d3LnN1Ym1hcmluby5jb20uYnIlMkZwcm9kdXRvJTJGNjExMjAwNTM4JTNGb3BuJTNEQUZMTk9WT1NVQg==/37058785/12780","thumbnail":"https://images-submarino.b2w.io/produtos/01/00/img/611201/3/611201303P1.jpg","price":71.99,"priceFrom":71.99,"discount":0.0,"installment":{"quantity":8,"value":9.99},"store":{"id":5766,"name":"Submarino ","thumbnail":"https://www.lomadee.com/programas/BR/5766/imagemBox_80x60.png","link":"https://redir.lomadee.com/v2/direct/aHR0cHM6Ly93d3cuc3VibWFyaW5vLmNvbS5ici8=/37058785/12780","invisible":false,"needPermission":true}},{"id":"593180413","name":"Zoomed Lâmpada Infra Vermelho Rs-75 - 75w","category":{"id":247,"name":"Pet Shop","link":"http://api.lomadee.com/v3/16168894131732d2dfed6/category/_id/247?sourceId=37058785"},"link":"https://redir.lomadee.com/v2/direct/aHR0cHM6Ly90cmFja2VyMi5hZDV0cmFjay5jb20vdHJhY2tlci9jbGljaz9hY2M9NmM3MjlmYWFjZDNlY2FiZDUyMDJlZmNlNGY4OGUxMzAmaT01OTk1OTgyMWVlYzNkZmIxZjgzYjg1NDEmbz01ZDkyODFjOTZjMjhhM2NiNTBjOGQ0YjMmcmVkaXJlY3RfdXJsPWh0dHBzJTNBJTJGJTJGd3d3LnN1Ym1hcmluby5jb20uYnIlMkZwcm9kdXRvJTJGNTkzMTgwNDEzJTNGb3BuJTNEQUZMTk9WT1NVQg==/37058785/12780","thumbnail":"https://images-submarino.b2w.io/produtos/01/00/img/593181/2/593181256P1.jpg","price":119.9,"priceFrom":119.9,"discount":0.0,"installment":{"quantity":12,"value":9.99},"store":{"id":5766,"name":"Submarino ","thumbnail":"https://www.lomadee.com/programas/BR/5766/imagemBox_80x60.png","link":"https://redir.lomadee.com/v2/direct/aHR0cHM6Ly93d3cuc3VibWFyaW5vLmNvbS5ici8=/37058785/12780","invisible":false,"needPermission":true}},{"id":"1726377923","name":"Sapato de segurança nº 37 em couro Bico de Aço Work Estival","category":{"id":5973,"name":"Capacete de Segurança","link":"http://api.lomadee.com/v3/16168894131732d2dfed6/category/_id/5973?sourceId=37058785"},"link":"https://redir.lomadee.com/v2/direct/aHR0cHM6Ly90cmFja2VyMi5hZDV0cmFjay5jb20vdHJhY2tlci9jbGljaz9hY2M9NmM3MjlmYWFjZDNlY2FiZDUyMDJlZmNlNGY4OGUxMzAmaT01OTk1OTgyMWVlYzNkZmIxZjgzYjg1NDEmbz01ZWM1ZjBiMWY4ZTk1ZWFjM2RkNjExZjAmcmVkaXJlY3RfdXJsPWh0dHBzJTNBJTJGJTJGd3d3LnN1Ym1hcmluby5jb20uYnIlMkZwcm9kdXRvJTJGMTcyNjM3NzkyMyUzRm9wbiUzREFGTE5PVk9TVUI=/37058785/12780","thumbnail":"https://images-submarino.b2w.io/produtos/01/00/img/1726377/9/1726377931P1.jpg","price":73.97,"priceFrom":76.0,"discount":2.67,"installment":{"quantity":7,"value":10.56},"store":{"id":5766,"name":"Submarino ","thumbnail":"https://www.lomadee.com/programas/BR/5766/imagemBox_80x60.png","link":"https://redir.lomadee.com/v2/direct/aHR0cHM6Ly93d3cuc3VibWFyaW5vLmNvbS5ici8=/37058785/12780","invisible":false,"needPermission":true}},{"id":"66001338","name":"Spot Led 3w Quadrado Luz Branca Supimpa Avant - Kit Com 20","category":{"id":2990,"name":"Luminária","link":"http://api.lomadee.com/v3/16168894131732d2dfed6/category/_id/2990?sourceId=37058785"},"link":"https://redir.lomadee.com/v2/direct/aHR0cHM6Ly90cmFja2VyMi5hZDV0cmFjay5jb20vdHJhY2tlci9jbGljaz9hY2M9NmM3MjlmYWFjZDNlY2FiZDUyMDJlZmNlNGY4OGUxMzAmaT01OTk1OTgyMWVlYzNkZmIxZjgzYjg1NDEmbz01Y2I4YjU1NDZjMjhhM2NiNTBhYTVhNjQmcmVkaXJlY3RfdXJsPWh0dHBzJTNBJTJGJTJGd3d3LnN1Ym1hcmluby5jb20uYnIlMkZwcm9kdXRvJTJGNjYwMDEzMzglM0ZvcG4lM0RBRkxOT1ZPU1VC/37058785/12780","thumbnail":"https://images-submarino.b2w.io/produtos/01/00/oferta/66001/3/66001340P1.jpg","price":182.53,"priceFrom":182.53,"discount":0.0,"installment":{"quantity":12,"value":15.21},"store":{"id":5766,"name":"Submarino ","thumbnail":"https://www.lomadee.com/programas/BR/5766/imagemBox_80x60.png","link":"https://redir.lomadee.com/v2/direct/aHR0cHM6Ly93d3cuc3VibWFyaW5vLmNvbS5ici8=/37058785/12780","invisible":false,"needPermission":true}},{"id":"1237276363","name":"Entidades sindicais - teoria e pratica","category":{"id":3482,"name":"Livros","link":"http://api.lomadee.com/v3/16168894131732d2dfed6/category/_id/3482?sourceId=37058785"},"link":"https://redir.lomadee.com/v2/direct/aHR0cHM6Ly90cmFja2VyMi5hZDV0cmFjay5jb20vdHJhY2tlci9jbGljaz9hY2M9NmM3MjlmYWFjZDNlY2FiZDUyMDJlZmNlNGY4OGUxMzAmaT01OTk1OTgyMWVlYzNkZmIxZjgzYjg1NDEmbz01ZGIzNjkwNTZjMjhhM2NiNTAyMjc5NGYmcmVkaXJlY3RfdXJsPWh0dHBzJTNBJTJGJTJGd3d3LnN1Ym1hcmluby5jb20uYnIlMkZwcm9kdXRvJTJGMTIzNzI3NjM2MyUzRm9wbiUzREFGTE5PVk9TVUI=/37058785/12780","thumbnail":"https://images-submarino.b2w.io/produtos/01/00/img/1237276/3/1237276371P1.jpg","price":23.62,"priceFrom":23.62,"discount":0.0,"installment":{"quantity":2,"value":11.81},"store":{"id":5766,"name":"Submarino ","thumbnail":"https://www.lomadee.com/programas/BR/5766/imagemBox_80x60.png","link":"https://redir.lomadee.com/v2/direct/aHR0cHM6Ly93d3cuc3VibWFyaW5vLmNvbS5ici8=/37058785/12780","invisible":false,"needPermission":true}},{"id":"1724517806","name":"Mascara de proteção - Corinthians (2) e São Paulo (4) - Tecido Duplo - Lavável - 6 unidades","category":{"id":2949,"name":"Saúde","link":"http://api.lomadee.com/v3/16168894131732d2dfed6/category/_id/2949?sourceId=37058785"},"link":"https://redir.lomadee.com/v2/direct/aHR0cHM6Ly90cmFja2VyMi5hZDV0cmFjay5jb20vdHJhY2tlci9jbGljaz9hY2M9NmM3MjlmYWFjZDNlY2FiZDUyMDJlZmNlNGY4OGUxMzAmaT01OTk1OTgyMWVlYzNkZmIxZjgzYjg1NDEmbz01ZWM0NTY5NGY4ZTk1ZWFjM2RkMGEyOGUmcmVkaXJlY3RfdXJsPWh0dHBzJTNBJTJGJTJGd3d3LnN1Ym1hcmluby5jb20uYnIlMkZwcm9kdXRvJTJGMTcyNDUxNzgwNiUzRm9wbiUzREFGTE5PVk9TVUI=/37058785/12780","thumbnail":"https://images-submarino.b2w.io/produtos/01/00/img/1724517/8/1724517814P1.jpg","price":55.0,"priceFrom":55.0,"discount":0.0,"installment":{"quantity":5,"value":11.0},"store":{"id":5766,"name":"Submarino ","thumbnail":"https://www.lomadee.com/programas/BR/5766/imagemBox_80x60.png","link":"https://redir.lomadee.com/v2/direct/aHR0cHM6Ly93d3cuc3VibWFyaW5vLmNvbS5ici8=/37058785/12780","invisible":false,"needPermission":true}},{"id":"1724100701","name":"Ensacadeira de Linguiça Manual 10 Litros","category":{"id":7426,"name":"Indústria, Comércio e Negócios","link":"http://api.lomadee.com/v3/16168894131732d2dfed6/category/_id/7426?sourceId=37058785"},"link":"https://redir.lomadee.com/v2/direct/aHR0cHM6Ly90cmFja2VyMi5hZDV0cmFjay5jb20vdHJhY2tlci9jbGljaz9hY2M9NmM3MjlmYWFjZDNlY2FiZDUyMDJlZmNlNGY4OGUxMzAmaT01OTk1OTgyMWVlYzNkZmIxZjgzYjg1NDEmbz01ZWM0MWQ4NGY4ZTk1ZWFjM2RjZjg4ZjMmcmVkaXJlY3RfdXJsPWh0dHBzJTNBJTJGJTJGd3d3LnN1Ym1hcmluby5jb20uYnIlMkZwcm9kdXRvJTJGMTcyNDEwMDcwMSUzRm9wbiUzREFGTE5PVk9TVUI=/37058785/12780","thumbnail":"https://images-submarino.b2w.io/produtos/01/00/img/1724100/7/1724100710P1.jpg","price":1128.9,"priceFrom":1128.9,"discount":0.0,"installment":{"quantity":12,"value":94.07},"store":{"id":5766,"name":"Submarino ","thumbnail":"https://www.lomadee.com/programas/BR/5766/imagemBox_80x60.png","link":"https://redir.lomadee.com/v2/direct/aHR0cHM6Ly93d3cuc3VibWFyaW5vLmNvbS5ici8=/37058785/12780","invisible":false,"needPermission":true}},{"id":"1555600114","name":"Meia Venosan Comfortline Cotton Panturrilha Curta M","category":{"id":3019,"name":"Equipamentos Médico / Hospitalares","link":"http://api.lomadee.com/v3/16168894131732d2dfed6/category/_id/3019?sourceId=37058785"},"link":"https://redir.lomadee.com/v2/direct/aHR0cHM6Ly90cmFja2VyMi5hZDV0cmFjay5jb20vdHJhY2tlci9jbGljaz9hY2M9NmM3MjlmYWFjZDNlY2FiZDUyMDJlZmNlNGY4OGUxMzAmaT01OTk1OTgyMWVlYzNkZmIxZjgzYjg1NDEmbz01ZTY4ZjVhY2Y4ZTk1ZWFjM2Q3MDM4MzMmcmVkaXJlY3RfdXJsPWh0dHBzJTNBJTJGJTJGd3d3LnN1Ym1hcmluby5jb20uYnIlMkZwcm9kdXRvJTJGMTU1NTYwMDExNCUzRm9wbiUzREFGTE5PVk9TVUI=/37058785/12780","thumbnail":"https://images-submarino.b2w.io/produtos/01/00/img/1555600/1/1555600131P1.jpg","price":156.85,"priceFrom":172.55,"discount":9.1,"installment":{"quantity":12,"value":13.07},"store":{"id":5766,"name":"Submarino ","thumbnail":"https://www.lomadee.com/programas/BR/5766/imagemBox_80x60.png","link":"https://redir.lomadee.com/v2/direct/aHR0cHM6Ly93d3cuc3VibWFyaW5vLmNvbS5ici8=/37058785/12780","invisible":false,"needPermission":true}},{"id":"16365749","name":"Luminária De Metal Palavra  - Led","category":{"id":2701,"name":"Casa e Decoração","link":"http://api.lomadee.com/v3/16168894131732d2dfed6/category/_id/2701?sourceId=37058785"},"link":"https://redir.lomadee.com/v2/direct/aHR0cHM6Ly90cmFja2VyMi5hZDV0cmFjay5jb20vdHJhY2tlci9jbGljaz9hY2M9NmM3MjlmYWFjZDNlY2FiZDUyMDJlZmNlNGY4OGUxMzAmaT01OTk1OTgyMWVlYzNkZmIxZjgzYjg1NDEmbz01N2Y0OGJkNWVlYzNkZmIxZjg0NjNlMzcmcmVkaXJlY3RfdXJsPWh0dHAlM0ElMkYlMkZ3d3cuc3VibWFyaW5vLmNvbS5iciUyRnByb2R1dG8lMkYxNjM2NTc0OSUyRmx1bWluYXJpYS1kZS1tZXRhbC1wYWxhdnJhLWxlZCUzRm9wbiUzREFGTE5PVk9TVUI=/37058785/12780","thumbnail":"https://images-submarino.b2w.io/produtos/01/00/sku/16365/7/16365746P1.jpg","price":199.9,"priceFrom":199.9,"discount":0.0,"installment":{"quantity":12,"value":16.65},"store":{"id":5766,"name":"Submarino ","thumbnail":"https://www.lomadee.com/programas/BR/5766/imagemBox_80x60.png","link":"https://redir.lomadee.com/v2/direct/aHR0cHM6Ly93d3cuc3VibWFyaW5vLmNvbS5ici8=/37058785/12780","invisible":false,"needPermission":true}},{"id":"17522049","name":"Caneca Ligando Os Pontos","category":{"id":2732,"name":"Utilidades Domésticas","link":"http://api.lomadee.com/v3/16168894131732d2dfed6/category/_id/2732?sourceId=37058785"},"link":"https://redir.lomadee.com/v2/direct/aHR0cHM6Ly90cmFja2VyMi5hZDV0cmFjay5jb20vdHJhY2tlci9jbGljaz9hY2M9NmM3MjlmYWFjZDNlY2FiZDUyMDJlZmNlNGY4OGUxMzAmaT01OTk1OTgyMWVlYzNkZmIxZjgzYjg1NDEmbz01N2YxYTdkMmVlYzNkZmIxZjhhMThiNDYmcmVkaXJlY3RfdXJsPWh0dHAlM0ElMkYlMkZ3d3cuc3VibWFyaW5vLmNvbS5iciUyRnByb2R1dG8lMkYxNzUyMjA0OSUyRmNhbmVjYS1saWdhbmRvLW9zLXBvbnRvcyUzRm9wbiUzREFGTE5PVk9TVUI=/37058785/12780","thumbnail":"https://images-submarino.b2w.io/produtos/01/00/sku/17522/0/17522052P1.jpg","price":44.9,"priceFrom":44.9,"discount":0.0,"installment":{"quantity":4,"value":11.22},"store":{"id":5766,"name":"Submarino ","thumbnail":"https://www.lomadee.com/programas/BR/5766/imagemBox_80x60.png","link":"https://redir.lomadee.com/v2/direct/aHR0cHM6Ly93d3cuc3VibWFyaW5vLmNvbS5ici8=/37058785/12780","invisible":false,"needPermission":true}}]}