{"requestInfo":{"status":"OK","message":"SUCCESS","generatedDate":null},"pagination":{"page":2,"size":12,"totalSize":12000,"totalPage":1000},"offers":[{"id":"22966722","name":"Disco Freio Dianteiro Kia Soul 1.6 2009/... Original Korea","category":{"id":8747,"name":"Acessórios / Peças para Veículos de Grande Porte","link":"http://api.lomadee.com/v3/16168894131732d2dfed6/category/_id/8747?sourceId=37058785"},"link":"https://redir.lomadee.com/v2/direct/aHR0cHM6Ly90cmFja2VyMi5hZDV0cmFjay5jb20vdHJhY2tlci9jbGljaz9hY2M9NmM3MjlmYWFjZDNlY2FiZDUyMDJlZmNlNGY4OGUxMzAmaT01OTk1OTgyMWVlYzNkZmIxZjgzYjg1NDEmbz01OTA4Yjg0NWVlYzNkZmIxZjhkNjk2YjAmcmVkaXJlY3RfdXJsPWh0dHAlM0ElMkYlMkZ3d3cuc3VibWFyaW5vLmNvbS5iciUyRnByb2R1dG8lMkYyMjk2NjcyMiUyRmRpc2NvLWZyZWlvLWRpYW50ZWlyby1raWEtc291bC0xLTYtMjAwOS1vcmlnaW5hbC1rb3JlYSUzRm9wbiUzREFGTE5PVk9TVUI=/37058785/12780","thumbnail":"https://images-submarino.b2w.io/produtos/01/00/sku/22966/7/22966724P1.jpg","price":290.0,"priceFrom":290.0,"discount":0.0,"installment":{"quantity":12,"value":24.16},"store":{"id":5766,"name":"Submarino ","thumbnail":"https://www.lomadee.com/programas/BR/5766/imagemBox_80x60.png","link":"https://redir.lomadee.com/v2/direct/aHR0cHM6Ly93d3cuc3VibWFyaW5vLmNvbS5ici8=/37058785/12780","invisible":false,"needPermission":true}},{"id":"1555468563","name":"Chupeta Lolly Baby Special Silicone Ortodôntico N2 Azul","category":{"id":11029,"name":"Chupeta","link":"http://api.lomadee.com/v3/16168894131732d2dfed6/category/_id/11029?sourceId=37058785"},"link":"https://redir.lomadee.com/v2/direct/aHR0cHM6Ly90cmFja2VyMi5hZDV0cmFjay5jb20vdHJhY2tlci9jbGljaz9hY2M9NmM3MjlmYWFjZDNlY2FiZDUyMDJlZmNlNGY4OGUxMzAmaT01OTk1OTgyMWVlYzNkZmIxZjgzYjg1NDEmbz01ZTY4ZWMzMGY4ZTk1ZWFjM2Q3MDAzY2ImcmVkaXJlY3RfdXJsPWh0dHBzJTNBJTJGJTJGd3d3LnN1Ym1hcmluby5jb20uYnIlMkZwcm9kdXRvJTJGMTU1NTQ2ODU2MyUzRm9wbiUzREFGTE5PVk9TVUI=/37058785/12780","thumbnail":"https://images-submarino.b2w.io/produtos/01/00/img/1555468/5/1555468580P1.jpg","price":9.9,"priceFrom":9.9,"discount":0.0,"installment":{"quantity":1,"value":9.9},"store":{"id":5766,"name":"Submarino ","thumbnail":"https://www.lomadee.com/programas/BR/5766/imagemBox_80x60.png","link":"https://redir.lomadee.com/v2/direct/aHR0cHM6Ly93d3cuc3VibWFyaW5vLmNvbS5ici8=/37058785/12780","invisible":false,"needPermission":true}},{"id":"1703166939","name":"Ninetales Shiny Alola 25cm Pelúcia Pokemon Go","category":{"id":0,"name":"Geral","link":"http://api.lomadee.com/v3/16168894131732d2dfed6/category/_id/0?sourceId=37058785"},"link":"https://redir.lomadee.com/v2/direct/aHR0cHM6Ly90cmFja2VyMi5hZDV0cmFjay5jb20vdHJhY2tlci9jbGljaz9hY2M9NmM3MjlmYWFjZDNlY2FiZDUyMDJlZmNlNGY4OGUxMzAmaT01OTk1OTgyMWVlYzNkZmIxZjgzYjg1NDEmbz01ZWI5NjM2NWY4ZTk1ZWFjM2RhM2I5MjEmcmVkaXJlY3RfdXJsPWh0dHBzJTNBJTJGJTJGd3d3LnN1Ym1hcmluby5jb20uYnIlMkZwcm9kdXRvJTJGMTcwMzE2NjkzOSUzRm9wbiUzREFGTE5PVk9TVUI=/37058785/12780","thumbnail":"https://images-submarino.b2w.io/produtos/01/00/img/1703166/9/1703166955P1.jpg","price":114.33,"priceFrom":114.33,"discount":0.0,"installment":{"quantity":11,"value":10.39},"store":{"id":5766,"name":"Submarino ","thumbnail":"https://www.lomadee.com/programas/BR/5766/imagemBox_80x60.png","link":"https://redir.lomadee.com/v2/direct/aHR0cHM6Ly93d3cuc3VibWFyaW5vLmNvbS5ici8=/37058785/12780","invisible":false,"needPermission":true}},{"id":"22665646","name":"Filtro Oleo Daihatsu Feroza 1.6 89/99","category":{"id":8747,"name":"Acessórios / Peças para Veículos de Grande Porte","link":"http://api.lomadee.com/v3/16168894131732d2dfed6/category/_id/8747?sourceId=37058785"},"link":"https://redir.lomadee.com/v2/direct/aHR0cHM6Ly90cmFja2VyMi5hZDV0cmFjay5jb20vdHJhY2tlci9jbGljaz9hY2M9NmM3MjlmYWFjZDNlY2FiZDUyMDJlZmNlNGY4OGUxMzAmaT01OTk1OTgyMWVlYzNkZmIxZjgzYjg1NDEmbz01OTA4OGY3ZGVlYzNkZmIxZjhjYTU1MDgmcmVkaXJlY3RfdXJsPWh0dHAlM0ElMkYlMkZ3d3cuc3VibWFyaW5vLmNvbS5iciUyRnByb2R1dG8lMkYyMjY2NTY0NiUyRmZpbHRyby1vbGVvLWRhaWhhdHN1LWZlcm96YS0xLTYtODktOTklM0ZvcG4lM0RBRkxOT1ZPU1VC/37058785/12780","thumbnail":"https://images-submarino.b2w.io/produtos/01/00/sku/22665/6/22665649P1.jpg","price":33.9,"priceFrom":33.9,"discount":0.0,"installment":{"quantity":3,"value":11.3},"store":{"id":5766,"name":"Submarino ","thumbnail":"https://www.lomadee.com/programas/BR/5766/imagemBox_80x60.png","link":"https://redir.lomadee.com/v2/direct/aHR0cHM6Ly93d3cuc3VibWFyaW5vLmNvbS5ici8=/37058785/12780","invisible":false,"needPermission":true}},{"id":"1714887740","name":"Painel Comp. Instrumentos Condor Crypton 115","category":{"id":0,"name":"Geral","link":"http://api.lomadee.com/v3/16168894131732d2dfed6/category/_id/0?sourceId=37058785"},"link":"https://redir.lomadee.com/v2/direct/aHR0cHM6Ly90cmFja2VyMi5hZDV0cmFjay5jb20vdHJhY2tlci9jbGljaz9hY2M9NmM3MjlmYWFjZDNlY2FiZDUyMDJlZmNlNGY4OGUxMzAmaT01OTk1OTgyMWVlYzNkZmIxZjgzYjg1NDEmbz01ZWJmMmYwNGY4ZTk1ZWFjM2RiY2JkODMmcmVkaXJlY3RfdXJsPWh0dHBzJTNBJTJGJTJGd3d3LnN1Ym1hcmluby5jb20uYnIlMkZwcm9kdXRvJTJGMTcxNDg4Nzc0MCUzRm9wbiUzREFGTE5PVk9TVUI=/37058785/12780","thumbnail":"https://images-submarino.b2w.io/produtos/01/00/img/1714887/7/1714887766P1.jpg","price":129.53,"priceFrom":129.53,"discount":0.0,"installment":{"quantity":12,"value":10.79},"store":{"id":5766,"name":"Submarino ","thumbnail":"https://www.lomadee.com/programas/BR/5766/imagemBox_80x60.png","link":"https://redir.lomadee.com/v2/direct/aHR0cHM6Ly93d3cuc3VibWFyaW5vLmNvbS5ici8=/37058785/12780","invisible":false,"needPermission":true}},{"id":"22665670","name":"Junta Cabeçote Suzuki Swift 1.3 16v 91/95 G13b","category":{"id":8747,"name":"Acessórios / Peças para Veículos de Grande Porte","link":"http://api.lomadee.com/v3/16168894131732d2dfed6/category/_id/8747?sourceId=37058785"},"link":"https://redir.lomadee.com/v2/direct/aHR0cHM6Ly90cmFja2VyMi5hZDV0cmFjay5jb20vdHJhY2tlci9jbGljaz9hY2M9NmM3MjlmYWFjZDNlY2FiZDUyMDJlZmNlNGY4OGUxMzAmaT01OTk1OTgyMWVlYzNkZmIxZjgzYjg1NDEmbz01OTA4OTBlNmVlYzNkZmIxZjhjYWI4OTMmcmVkaXJlY3RfdXJsPWh0dHAlM0ElMkYlMkZ3d3cuc3VibWFyaW5vLmNvbS5iciUyRnByb2R1dG8lMkYyMjY2NTY3MCUyRmp1bnRhLWNhYmVjb3RlLXN1enVraS1zd2lmdC0xLTMtMTZ2LTkxLTk1LWcxM2IlM0ZvcG4lM0RBRkxOT1ZPU1VC/37058785/12780","thumbnail":"https://images-submarino.b2w.io/produtos/01/00/sku/22665/6/22665673P1.jpg","price":65.0,"priceFrom":65.0,"discount":0.0,"installment":{"quantity":6,"value":10.83},"store":{"id":5766,"name":"Submarino ","thumbnail":"https://www.lomadee.com/programas/BR/5766/imagemBox_80x60.png","link":"https://redir.lomadee.com/v2/direct/aHR0cHM6Ly93d3cuc3VibWFyaW5vLmNvbS5ici8=/37058785/12780","invisible":false,"needPermission":true}},{"id":"37567903","name":"Adesivo Papel De Parede Lávavel Listrado Azul 10m X 45cm","category":{"id":9891,"name":"Adesivos Decorativos","link":"http://api.lomadee.com/v3/16168894131732d2dfed6/category/_id/9891?sourceId=37058785"},"link":"https://redir.lomadee.com/v2/direct/aHR0cHM6Ly90cmFja2VyMi5hZDV0cmFjay5jb20vdHJhY2tlci9jbGljaz9hY2M9NmM3MjlmYWFjZDNlY2FiZDUyMDJlZmNlNGY4OGUxMzAmaT01OTk1OTgyMWVlYzNkZmIxZjgzYjg1NDEmbz01YjFhZDYwYmViYjE5YWM2MmM2YzE2NzgmcmVkaXJlY3RfdXJsPWh0dHBzJTNBJTJGJTJGd3d3LnN1Ym1hcmluby5jb20uYnIlMkZwcm9kdXRvJTJGMzc1Njc5MDMlM0ZvcG4lM0RBRkxOT1ZPU1VC/37058785/12780","thumbnail":"https://images-submarino.b2w.io/produtos/01/00/oferta/37567/9/37567905P1.jpg","price":79.99,"priceFrom":79.99,"discount":0.0,"installment":{"quantity":8,"value":9.99},"store":{"id":5766,"name":"Submarino ","thumbnail":"https://www.lomadee.com/programas/BR/5766/imagemBox_80x60.png","link":"https://redir.lomadee.com/v2/direct/aHR0cHM6Ly93d3cuc3VibWFyaW5vLmNvbS5ici8=/37058785/12780","invisible":false,"needPermission":true}},{"id":"39102497","name":"Relógio Citizen Eco Drive BU2055-16E","category":{"id":3694,"name":"Relógio de Pulso","link":"http://api.lomadee.com/v3/16168894131732d2dfed6/category/_id/3694?sourceId=37058785"},"link":"https://redir.lomadee.com/v2/direct/aHR0cHM6Ly90cmFja2VyMi5hZDV0cmFjay5jb20vdHJhY2tlci9jbGljaz9hY2M9NmM3MjlmYWFjZDNlY2FiZDUyMDJlZmNlNGY4OGUxMzAmaT01OTk1OTgyMWVlYzNkZmIxZjgzYjg1NDEmbz01YjQ4ZWE5MmViYjE5YWM2MmM3ZmUwMmImcmVkaXJlY3RfdXJsPWh0dHBzJTNBJTJGJTJGd3d3LnN1Ym1hcmluby5jb20uYnIlMkZwcm9kdXRvJTJGMzkxMDI0OTclM0ZvcG4lM0RBRkxOT1ZPU1VC/37058785/12780","thumbnail":"https://images-submarino.b2w.io/produtos/01/00/sku/39102/4/39102496P1.jpg","price":1596.0,"priceFrom":1596.0,"discount":0.0,"installment":{"quantity":12,"value":133.0},"store":{"id":5766,"name":"Submarino ","thumbnail":"https://www.lomadee.com/programas/BR/5766/imagemBox_80x60.png","link":"https://redir.lomadee.com/v2/direct/aHR0cHM6Ly93d3cuc3VibWFyaW5vLmNvbS5ici8=/37058785/12780","invisible":false,"needPermission":true}},{"id":"11575223","name":"Garrafa Térmica Eleganza 1 Litro Turquesa - Mor","category":{"id":2732,"name":"Utilidades Domésticas","link":"http://api.lomadee.com/v3/16168894131732d2dfed6/category/_id/2732?sourceId=37058785"},"link":"https://redir.lomadee.com/v2/direct/aHR0cHM6Ly90cmFja2VyMi5hZDV0cmFjay5jb20vdHJhY2tlci9jbGljaz9hY2M9NmM3MjlmYWFjZDNlY2FiZDUyMDJlZmNlNGY4OGUxMzAmaT01OTk1OTgyMWVlYzNkZmIxZjgzYjg1NDEmbz01NjhkZTA4NzI2YTMxMWZmOGI4YzlmN2QmcmVkaXJlY3RfdXJsPWh0dHAlM0ElMkYlMkZ3d3cuc3VibWFyaW5vLmNvbS5iciUyRnByb2R1dG8lMkYxMTU3NTIyMyUyRmdhcnJhZmEtdGVybWljYS1lbGVnYW56YS0xLWxpdHJvLXR1cnF1ZXNhLW1vciUzRm9wbiUzREFGTE5PVk9TVUI=/37058785/12780","thumbnail":"https://images-submarino.b2w.io/produtos/01/00/sku/11575/2/11575222P1.jpg","price":39.6,"priceFrom":39.6,"discount":0.0,"installment":{"quantity":4,"value":9.9},"store":{"id":5766,"name":"Submarino ","thumbnail":"https://www.lomadee.com/programas/BR/5766/imagemBox_80x60.png","link":"https://redir.lomadee.com/v2/direct/aHR0cHM6Ly93d3cuc3VibWFyaW5vLmNvbS5ici8=/37058785/12780","invisible":false,"needPermission":true}},{"id":"44735449","name":"Polia Correia Alternador Parati 1.0 16V Turbo 00 01 02 03 04 05","category":{"id":1468,"name":"Monitor para DVD Automotivo","link":"http://api.lomadee.com/v3/16168894131732d2dfed6/category/_id/1468?sourceId=37058785"},"link":"https://redir.lomadee.com/v2/direct/aHR0cHM6Ly90cmFja2VyMi5hZDV0cmFjay5jb20vdHJhY2tlci9jbGljaz9hY2M9NmM3MjlmYWFjZDNlY2FiZDUyMDJlZmNlNGY4OGUxMzAmaT01OTk1OTgyMWVlYzNkZmIxZjgzYjg1NDEmbz01YmNmZDdjYmViYjE5YWM2MmNjZTY5N2YmcmVkaXJlY3RfdXJsPWh0dHBzJTNBJTJGJTJGd3d3LnN1Ym1hcmluby5jb20uYnIlMkZwcm9kdXRvJTJGNDQ3MzU0NDklM0ZvcG4lM0RBRkxOT1ZPU1VC/37058785/12780","thumbnail":"https://images-submarino.b2w.io/produtos/01/00/oferta/44735/4/44735450P1.jpg","price":63.7,"priceFrom":63.7,"discount":0.0,"installment":{"quantity":6,"value":10.61},"store":{"id":5766,"name":"Submarino ","thumbnail":"https://www.lomadee.com/programas/BR/5766/imagemBox_80x60.png","link":"https://redir.lomadee.com/v2/direct/aHR0cHM6Ly93d3cuc3VibWFyaW5vLmNvbS5ici8=/37058785/12780","invisible":false,"needPermission":true}},{"id":"1190858218","name":"Chanel Anabela Médio Piccadilly Com Enfeite","category":{"id":2857,"name":"Calçados","link":"http://api.lomadee.com/v3/16168894131732d2dfed6/category/_id/2857?sourceId=37058785"},"link":"https://redir.lomadee.com/v2/direct/aHR0cHM6Ly90cmFja2VyMi5hZDV0cmFjay5jb20vdHJhY2tlci9jbGljaz9hY2M9NmM3MjlmYWFjZDNlY2FiZDUyMDJlZmNlNGY4OGUxMzAmaT01OTk1OTgyMWVlYzNkZmIxZjgzYjg1NDEmbz01ZGE2NGE2OTZjMjhhM2NiNTBlNmEwMjkmcmVkaXJlY3RfdXJsPWh0dHBzJTNBJTJGJTJGd3d3LnN1Ym1hcmluby5jb20uYnIlMkZwcm9kdXRvJTJGMTE5MDg1ODIxOCUzRm9wbiUzREFGTE5PVk9TVUI=/37058785/12780","thumbnail":"https://images-submarino.b2w.io/produtos/01/00/img/1190858/2/1190858200P1.jpg","price":162.3,"priceFrom":162.3,"discount":0.0,"installment":{"quantity":12,"value":13.52},"store":{"id":5766,"name":"Submarino ","thumbnail":"https://www.lomadee.com/programas/BR/5766/imagemBox_80x60.png","link":"https://redir.lomadee.com/v2/direct/aHR0cHM6Ly93d3cuc3VibWFyaW5vLmNvbS5ici8=/37058785/12780","invisible":false,"needPermission":true}},{"id":"1290730916","name":"Kit Cobre Leito Holanda Super King Matelado Estampado 7 Peças - Bege Telha","category":{"id":6753,"name":"Jogo de Cama","link":"http://api.lomadee.com/v3/16168894131732d2dfed6/category/_id/6753?sourceId=37058785"},"link":"https://redir.lomadee.com/v2/direct/aHR0cHM6Ly90cmFja2VyMi5hZDV0cmFjay5jb20vdHJhY2tlci9jbGljaz9hY2M9NmM3MjlmYWFjZDNlY2FiZDUyMDJlZmNlNGY4OGUxMzAmaT01OTk1OTgyMWVlYzNkZmIxZjgzYjg1NDEmbz01ZGMyYTliYjZjMjhhM2NiNTA0OWYyZGYmcmVkaXJlY3RfdXJsPWh0dHBzJTNBJTJGJTJGd3d3LnN1Ym1hcmluby5jb20uYnIlMkZwcm9kdXRvJTJGMTI5MDczMDkxNiUzRm9wbiUzREFGTE5PVk9TVUI=/37058785/12780","thumbnail":"https://images-submarino.b2w.io/produtos/01/00/img/1290731/0/1290731003P1.jpg","price":484.38,"priceFrom":484.38,"discount":0.0,"installment":{"quantity":12,"value":40.36},"store":{"id":5766,"name":"Submarino ","thumbnail":"https://www.lomadee.com/programas/BR/5766/imagemBox_80x60.png","link":"https://redir.lomadee.com/v2/direct/aHR0cHM6Ly93d3cuc3VibWFyaW5vLmNvbS5ici8=/37058785/12780","invisible":false,"needPermission":true}}]}