{"requestInfo":{"status":"OK","message":"SUCCESS","generatedDate":null},"pagination":{"page":1,"size":12,"totalSize":1459,"totalPage":122},"offers":[{"id":"20667","name":"Smartphone Positivo Selfie S455 8GB Dual Chip 4.5” - Preto","category":{"id":77,"name":"Celular e Smartphone","link":"http://api.lomadee.com/v3/16168894131732d2dfed6/category/_id/77?sourceId=37058785"},"link":"https://redir.lomadee.com/v2/direct/aHR0cHM6Ly9sb2phLm1ldXBvc2l0aXZvLmNvbS5ici9zbWFydHBob25lLXBvc2l0aXZvLXNlbGZpZS1zNDU1LThnYi10ZWxhLTQtcHJldG8vcD9pZHNrdT0yMDY2Nw==/37058785/12780","thumbnail":"https://lojapositivo.vteximg.com.br/arquivos/ids/155830_2","price":649.0,"discount":0.0,"installment":{"quantity":12,"value":54.08},"store":{"id":6117,"name":"Positivo","thumbnail":"https://www.lomadee.com/programas/BR/6117/imagemBox_80x60.png","link":"https://redir.lomadee.com/v2/direct/aHR0cHM6Ly9sb2phLm1ldXBvc2l0aXZvLmNvbS5icg==/37058785/12780","invisible":false,"needPermission":false}},{"id":"20611","name":"Smartphone Positivo Twist 2 Mini S431 8GB Dual Chip 4” - Dourado","category":{"id":77,"name":"Celular e Smartphone","link":"http://api.lomadee.com/v3/16168894131732d2dfed6/category/_id/77?sourceId=37058785"},"link":"https://redir.lomadee.com/v2/direct/aHR0cHM6Ly9sb2phLm1ldXBvc2l0aXZvLmNvbS5ici9zbWFydHBob25lLXM0MzEtdHdpc3QtMi1taW5pLWRvdXJhZG8tMTExMzE5OTQvcD9pZHNrdT0yMDYxMQ==/37058785/12780","thumbnail":"https://lojapositivo.vteximg.com.br/arquivos/ids/156019_2","price":529.0,"discount":0.0,"installment":{"quantity":12,"value":44.08},"store":{"id":6117,"name":"Positivo","thumbnail":"https://www.lomadee.com/programas/BR/6117/imagemBox_80x60.png","link":"https://redir.lomadee.com/v2/direct/aHR0cHM6Ly9sb2phLm1ldXBvc2l0aXZvLmNvbS5icg==/37058785/12780","invisible":false,"needPermission":false}},{"id":"20637","name":"Smartphone Positivo Twist 2 Pro S532 32GB Dual Chip 5.7” - Preto","category":{"id":77,"name":"Celular e Smartphone","link":"http://api.lomadee.com/v3/16168894131732d2dfed6/category/_id/77?sourceId=37058785"},"link":"https://redir.lomadee.com/v2/direct/aHR0cHM6Ly9sb2phLm1ldXBvc2l0aXZvLmNvbS5ici9zbWFydHBob25lLXBvc2l0aXZvLXR3aXN0LTItcHJvLXM1MzItMWdiLXF1YWQtY29yZS0zZy1kdWFsLWNoaXAtYW5kcm9pZC1vcmVvLTU3LS0tcHJldG8vcD9pZHNrdT0yMDYzNw==/37058785/12780","thumbnail":"https://lojapositivo.vteximg.com.br/arquivos/ids/155935_2","price":749.0,"discount":0.0,"installment":{"quantity":12,"value":62.41},"store":{"id":6117,"name":"Positivo","thumbnail":"https://www.lomadee.com/programas/BR/6117/imagemBox_80x60.png","link":"https://redir.lomadee.com/v2/direct/aHR0cHM6Ly9sb2phLm1ldXBvc2l0aXZvLmNvbS5icg==/37058785/12780","invisible":false,"needPermission":false}},{"id":"21468","name":"Smartphone Positivo Twist 3 Pro S533 64GB Dual Chip 5.7\" - Grafite","category":{"id":77,"name":"Celular e Smartphone","link":"http://api.lomadee.com/v3/16168894131732d2dfed6/category/_id/77?sourceId=37058785"},"link":"https://redir.lomadee.com/v2/direct/aHR0cHM6Ly9sb2phLm1ldXBvc2l0aXZvLmNvbS5ici9zbWFydHBob25lLXBvc2l0aXZvLXR3aXN0LTMtcHJvLTY0Zy1hbmRyb2lkLW9yZW8tOG1wLWdyYWZpdGUtL3A/aWRza3U9MjE0Njg=/37058785/12780","thumbnail":"https://lojapositivo.vteximg.com.br/arquivos/ids/157702_2","price":649.0,"discount":0.0,"installment":{"quantity":12,"value":54.08},"store":{"id":6117,"name":"Positivo","thumbnail":"https://www.lomadee.com/programas/BR/6117/imagemBox_80x60.png","link":"https://redir.lomadee.com/v2/direct/aHR0cHM6Ly9sb2phLm1ldXBvc2l0aXZvLmNvbS5icg==/37058785/12780","invisible":false,"needPermission":false}},{"id":"21488","name":"Smartphone Positivo Twist Mini 3 S431B 16GB Dual Chip 4\" - Dourado","category":{"id":77,"name":"Celular e Smartphone","link":"http://api.lomadee.com/v3/16168894131732d2dfed6/category/_id/77?sourceId=37058785"},"link":"https://redir.lomadee.com/v2/direct/aHR0cHM6Ly9sb2phLm1ldXBvc2l0aXZvLmNvbS5ici9zbWFydHBob25lLXBvc2l0aXZvLXR3aXN0LW1pbmktMy1zNDMxYi0xNi1nYi04bXAtZHVhbC1jaGlwLWRvdXJhZG8vcD9pZHNrdT0yMTQ4OA==/37058785/12780","thumbnail":"https://lojapositivo.vteximg.com.br/arquivos/ids/157673_2","price":549.0,"discount":0.0,"installment":{"quantity":12,"value":45.75},"store":{"id":6117,"name":"Positivo","thumbnail":"https://www.lomadee.com/programas/BR/6117/imagemBox_80x60.png","link":"https://redir.lomadee.com/v2/direct/aHR0cHM6Ly9sb2phLm1ldXBvc2l0aXZvLmNvbS5icg==/37058785/12780","invisible":false,"needPermission":false}},{"id":"21283","name":"Smartphone Positivo Twist 2 Pro S532 32GB Dual Chip 5.7\" - Dourado","category":{"id":77,"name":"Celular e Smartphone","link":"http://api.lomadee.com/v3/16168894131732d2dfed6/category/_id/77?sourceId=37058785"},"link":"https://redir.lomadee.com/v2/direct/aHR0cHM6Ly9sb2phLm1ldXBvc2l0aXZvLmNvbS5ici9zbWFydHBob25lLXBvc2l0aXZvLXR3aXN0LTItcHJvLXM1MzItMzJnYi1hbmRyb2lkLTgwLW9yZW8tY2FtZXJhcy04bXAtLThtcC1kdWFsLWNoaXAtMjgwMC1tYWgtNS1kb3VyYWRvL3A/aWRza3U9MjEyODM=/37058785/12780","thumbnail":"https://lojapositivo.vteximg.com.br/arquivos/ids/158099_2","price":799.0,"discount":0.0,"installment":{"quantity":12,"value":66.58},"store":{"id":6117,"name":"Positivo","thumbnail":"https://www.lomadee.com/programas/BR/6117/imagemBox_80x60.png","link":"https://redir.lomadee.com/v2/direct/aHR0cHM6Ly9sb2phLm1ldXBvc2l0aXZvLmNvbS5icg==/37058785/12780","invisible":false,"needPermission":false}},{"id":"21216","name":"Smartphone Positivo Q20 128GB Dual Chip 6.1\" - Branco","category":{"id":77,"name":"Celular e Smartphone","link":"http://api.lomadee.com/v3/16168894131732d2dfed6/category/_id/77?sourceId=37058785"},"link":"https://redir.lomadee.com/v2/direct/aHR0cHM6Ly9sb2phLm1ldXBvc2l0aXZvLmNvbS5ici9zbWFydHBob25lLXBvc2l0aXZvLXEyMC1hbmRyb2lkLTEwLTEyOGdiLTEzbXAtYnJhbmNvL3A/aWRza3U9MjEyMTY=/37058785/12780","thumbnail":"https://lojapositivo.vteximg.com.br/arquivos/ids/158097_2","price":1299.0,"discount":0.0,"installment":{"quantity":12,"value":108.25},"store":{"id":6117,"name":"Positivo","thumbnail":"https://www.lomadee.com/programas/BR/6117/imagemBox_80x60.png","link":"https://redir.lomadee.com/v2/direct/aHR0cHM6Ly9sb2phLm1ldXBvc2l0aXZvLmNvbS5icg==/37058785/12780","invisible":false,"needPermission":false}},{"id":"21214","name":"Smartphone Positivo Q20 128GB Dual Chip 6.1\" - Azul","category":{"id":77,"name":"Celular e Smartphone","link":"http://api.lomadee.com/v3/16168894131732d2dfed6/category/_id/77?sourceId=37058785"},"link":"https://redir.lomadee.com/v2/direct/aHR0cHM6Ly9sb2phLm1ldXBvc2l0aXZvLmNvbS5ici9zbWFydHBob25lLXBvc2l0aXZvLXEyMC1hbmRyb2lkLTEwLTEyOGdiLTEzbXAtYXp1bC9wP2lkc2t1PTIxMjE0/37058785/12780","thumbnail":"https://lojapositivo.vteximg.com.br/arquivos/ids/158096_2","price":1299.0,"discount":0.0,"installment":{"quantity":12,"value":108.25},"store":{"id":6117,"name":"Positivo","thumbnail":"https://www.lomadee.com/programas/BR/6117/imagemBox_80x60.png","link":"https://redir.lomadee.com/v2/direct/aHR0cHM6Ly9sb2phLm1ldXBvc2l0aXZvLmNvbS5icg==/37058785/12780","invisible":false,"needPermission":false}},{"id":"20657","name":"Smartphone Positivo Twist 2 Mini S431 8GB Dual Chip 4” - Grafite","category":{"id":77,"name":"Celular e Smartphone","link":"http://api.lomadee.com/v3/16168894131732d2dfed6/category/_id/77?sourceId=37058785"},"link":"https://redir.lomadee.com/v2/direct/aHR0cHM6Ly9sb2phLm1ldXBvc2l0aXZvLmNvbS5ici9zbWFydHBob25lLXM0MzEtdHdpc3QtMi1taW5pLThnYi1kdWFsLWNoaXAtNC1wb2xlZ2FkYXMtYW5kcm9pZC1vcmVvLWdyYWZpdGUvcD9pZHNrdT0yMDY1Nw==/37058785/12780","thumbnail":"https://lojapositivo.vteximg.com.br/arquivos/ids/155796_2","price":519.0,"discount":0.0,"installment":{"quantity":12,"value":43.25},"store":{"id":6117,"name":"Positivo","thumbnail":"https://www.lomadee.com/programas/BR/6117/imagemBox_80x60.png","link":"https://redir.lomadee.com/v2/direct/aHR0cHM6Ly9sb2phLm1ldXBvc2l0aXZvLmNvbS5icg==/37058785/12780","invisible":false,"needPermission":false}},{"id":"20601","name":"Smartphone Positivo Twist 3 Pro S533 64GB Dual Chip 5,7” - Grafite","category":{"id":77,"name":"Celular e Smartphone","link":"http://api.lomadee.com/v3/16168894131732d2dfed6/category/_id/77?sourceId=37058785"},"link":"https://redir.lomadee.com/v2/direct/aHR0cHM6Ly9sb2phLm1ldXBvc2l0aXZvLmNvbS5ici9zbWFydHBob25lLXBvc2l0aXZvLXR3aXN0My1ncmFmaXRlLXByby9wP2lkc2t1PTIwNjAx/37058785/12780","thumbnail":"https://lojapositivo.vteximg.com.br/arquivos/ids/155979_2","price":829.0,"discount":0.0,"installment":{"quantity":12,"value":69.08},"store":{"id":6117,"name":"Positivo","thumbnail":"https://www.lomadee.com/programas/BR/6117/imagemBox_80x60.png","link":"https://redir.lomadee.com/v2/direct/aHR0cHM6Ly9sb2phLm1ldXBvc2l0aXZvLmNvbS5icg==/37058785/12780","invisible":false,"needPermission":false}},{"id":"21054","name":"Smartphone Positivo Twist 2 S512 16GB Dual Chip 5.34\" - Preto","category":{"id":77,"name":"Celular e Smartphone","link":"http://api.lomadee.com/v3/16168894131732d2dfed6/category/_id/77?sourceId=37058785"},"link":"https://redir.lomadee.com/v2/direct/aHR0cHM6Ly9sb2phLm1ldXBvc2l0aXZvLmNvbS5ici9zbWFydHBob25lLXBvc2l0aXZvLXR3aXN0LTItcHJldG8tMzkwMDk5MC9wP2lkc2t1PTIxMDU0/37058785/12780","thumbnail":"https://lojapositivo.vteximg.com.br/arquivos/ids/156972_2","price":699.0,"discount":0.0,"installment":{"quantity":12,"value":58.25},"store":{"id":6117,"name":"Positivo","thumbnail":"https://www.lomadee.com/programas/BR/6117/imagemBox_80x60.png","link":"https://redir.lomadee.com/v2/direct/aHR0cHM6Ly9sb2phLm1ldXBvc2l0aXZvLmNvbS5icg==/37058785/12780","invisible":false,"needPermission":false}},{"id":"830208","name":"Smartwatch Huawei GT2E 46mm Preto","category":{"id":77,"name":"Celular e Smartphone","link":"http://api.lomadee.com/v3/16168894131732d2dfed6/category/_id/77?sourceId=37058785"},"link":"https://redir.lomadee.com/v2/direct/aHR0cHM6Ly93d3cub25vZnJlYWdvcmEuY29tLmJyL3NtYXJ0d2F0Y2gtaHVhd2VpLWd0MmUtNDZtbS1wcmV0by9wcm9kdWN0LzgzMDIwOA==/37058785/12780","thumbnail":"https://www.onofreagora.com.br/ccstore/v1/images/?source=/file/v794171155286800056/products/830208.01.jpg","price":1229.0,"discount":0.0,"installment":{"quantity":10,"value":122.9},"store":{"id":5767,"name":"Onofre Agora","thumbnail":"https://www.lomadee.com/programas/BR/5767/imagemBox_80x60.png","link":"https://redir.lomadee.com/v2/direct/aHR0cHM6Ly93d3cub25vZnJlYWdvcmEuY29tLmJy/37058785/12780","invisible":false,"needPermission":false}}]}