{"requestInfo":{"status":"OK","message":"SUCCESS","generatedDate":null},"pagination":{"page":2,"size":12,"totalSize":1906,"totalPage":159},"offers":[{"id":"830208","name":"Smartwatch Huawei GT2E 46mm Preto","category":{"id":77,"name":"Celular e Smartphone","link":"http://api.lomadee.com/v3/16168894131732d2dfed6/category/_id/77?sourceId=37058785"},"link":"https://redir.lomadee.com/v2/direct/aHR0cHM6Ly93d3cub25vZnJlYWdvcmEuY29tLmJyL3NtYXJ0d2F0Y2gtaHVhd2VpLWd0MmUtNDZtbS1wcmV0by9wcm9kdWN0LzgzMDIwOA==/37058785/12780","thumbnail":"https://www.onofreagora.com.br/ccstore/v1/images/?source=/file/v794171155286800056/products/830208.01.jpg","price":1229.0,"discount":0.0,"installment":{"quantity":10,"value":122.9},"store":{"id":5767,"name":"Onofre Agora","thumbnail":"https://www.lomadee.com/programas/BR/5767/imagemBox_80x60.png","link":"https://redir.lomadee.com/v2/direct/aHR0cHM6Ly93d3cub25vZnJlYWdvcmEuY29tLmJy/37058785/12780","invisible":false,"needPermission":false}},{"id":"830224","name":"Smart Band Huawei 6 Preto","category":{"id":77,"name":"Celular e Smartphone","link":"http://api.lomadee.com/v3/16168894131732d2dfed6/category/_id/77?sourceId=37058785"},"link":"https://redir.lomadee.com/v2/direct/aHR0cHM6Ly93d3cub25vZnJlYWdvcmEuY29tLmJyL3NtYXJ0LWJhbmQtaHVhd2VpLTYtcHJldG8vcHJvZHVjdC84MzAyMjQ=/37058785/12780","thumbnail":"https://www.onofreagora.com.br/ccstore/v1/images/?source=/file/v464971654910905191/products/830224.01.jpg","price":412.0,"discount":0.0,"installment":{"quantity":10,"value":41.2},"store":{"id":5767,"name":"Onofre Agora","thumbnail":"https://www.lomadee.com/programas/BR/5767/imagemBox_80x60.png","link":"https://redir.lomadee.com/v2/direct/aHR0cHM6Ly93d3cub25vZnJlYWdvcmEuY29tLmJy/37058785/12780","invisible":false,"needPermission":false}},{"id":"830194","name":"Smartwatch Huawei GT2 Pro 46mm Preto","category":{"id":77,"name":"Celular e Smartphone","link":"http://api.lomadee.com/v3/16168894131732d2dfed6/category/_id/77?sourceId=37058785"},"link":"https://redir.lomadee.com/v2/direct/aHR0cHM6Ly93d3cub25vZnJlYWdvcmEuY29tLmJyL3NtYXJ0LXdhdGNoLWh1YXdlaS1ndDItcHJvLTQ2bW0tcHJldG8vcHJvZHVjdC84MzAxOTQ=/37058785/12780","thumbnail":"https://www.onofreagora.com.br/ccstore/v1/images/?source=/file/v6047168321392351774/products/830194.01.jpg","price":1629.0,"discount":0.0,"installment":{"quantity":10,"value":162.9},"store":{"id":5767,"name":"Onofre Agora","thumbnail":"https://www.lomadee.com/programas/BR/5767/imagemBox_80x60.png","link":"https://redir.lomadee.com/v2/direct/aHR0cHM6Ly93d3cub25vZnJlYWdvcmEuY29tLmJy/37058785/12780","invisible":false,"needPermission":false}},{"id":"811530","name":"Smartphone LG K40s, Azul, LMX430BMW, Tela de 6,1\", 32GB, Câmera Dupla 13MP+5MP","category":{"id":77,"name":"Celular e Smartphone","link":"http://api.lomadee.com/v3/16168894131732d2dfed6/category/_id/77?sourceId=37058785"},"link":"https://redir.lomadee.com/v2/direct/aHR0cHM6Ly93d3cub25vZnJlYWdvcmEuY29tLmJyL3NtYXJ0cGhvbmUtbGctazQwcy1henVsLWxteDQzMGJtdy10ZWxhLWRlLTYxLTMyZ2ItYyVDMyVBMm1lcmEtZHVwbGEtMTNtcC01bXAvcHJvZHVjdC84MTE1MzA=/37058785/12780","thumbnail":"https://www.onofreagora.com.br/ccstore/v1/images/?source=/file/v589639280928415341/products/811530.01.jpg","price":759.0,"discount":0.0,"installment":{"quantity":10,"value":75.9},"store":{"id":5767,"name":"Onofre Agora","thumbnail":"https://www.lomadee.com/programas/BR/5767/imagemBox_80x60.png","link":"https://redir.lomadee.com/v2/direct/aHR0cHM6Ly93d3cub25vZnJlYWdvcmEuY29tLmJy/37058785/12780","invisible":false,"needPermission":false}},{"id":"3621623471","name":"Preto Interface criativo trança pulseira cabo de dados portátil cabo de carregamento Android Cabo de Dados Micro USB","category":{"id":77,"name":"Celular e Smartphone","link":"http://api.lomadee.com/v3/16168894131732d2dfed6/category/_id/77?sourceId=37058785"},"link":"https://redir.lomadee.com/v2/direct/aHR0cHM6Ly90cmFja2VyMi5hZDV0cmFjay5jb20vdHJhY2tlci9jbGljaz9hY2M9MmNjZmU4MjJkZmQ4NWQzYjcyMzU3ZjRkNWYwODlmZjYmaT01OTk1OTdmNWVlYzNkZmIxZjgzYjc5MDUmbz02MTAwZTkyM2Y4ZTk1ZWFjM2RlMTZlZjAmcmVkaXJlY3RfdXJsPWh0dHBzJTNBJTJGJTJGd3d3LmFtZXJpY2FuYXMuY29tLmJyJTJGcHJvZHV0byUyRjM2MjE2MjM0NzElM0ZvcG4lM0RBRkxBQ09N/37058785/12780","thumbnail":"https://images-americanas.b2w.io/produtos/3621623471/imagens/preto-interface-criativo-tranca-pulseira-cabo-de-dados-portatil-cabo-de-carregamento-android-cabo-de-dados-micro-usb/3621623471_1_medium.jpg","price":132.22,"priceFrom":132.22,"discount":0.0,"installment":{"quantity":12,"value":11.01},"store":{"id":5632,"name":"Americanas","thumbnail":"https://www.lomadee.com/programas/BR/5632/imagemBox_80x60.png","link":"https://redir.lomadee.com/v2/direct/aHR0cHM6Ly93d3cuYW1lcmljYW5hcy5jb20uYnIv/37058785/12780","invisible":false,"needPermission":true}},{"id":"3620139847","name":"Carregador sem fio floveme portátil Qi Ultrafino Charging Pad Preto Preto","category":{"id":77,"name":"Celular e Smartphone","link":"http://api.lomadee.com/v3/16168894131732d2dfed6/category/_id/77?sourceId=37058785"},"link":"https://redir.lomadee.com/v2/direct/aHR0cHM6Ly90cmFja2VyMi5hZDV0cmFjay5jb20vdHJhY2tlci9jbGljaz9hY2M9MmNjZmU4MjJkZmQ4NWQzYjcyMzU3ZjRkNWYwODlmZjYmaT01OTk1OTdmNWVlYzNkZmIxZjgzYjc5MDUmbz02MTAwYzNhNGY4ZTk1ZWFjM2RkZWZmNGImcmVkaXJlY3RfdXJsPWh0dHBzJTNBJTJGJTJGd3d3LmFtZXJpY2FuYXMuY29tLmJyJTJGcHJvZHV0byUyRjM2MjAxMzk4NDclM0ZvcG4lM0RBRkxBQ09N/37058785/12780","thumbnail":"https://images-americanas.b2w.io/produtos/3620139847/imagens/carregador-sem-fio-floveme-portatil-qi-ultrafino-charging-pad-preto-preto/3620139847_1_medium.jpg","price":128.11,"priceFrom":128.11,"discount":0.0,"installment":{"quantity":12,"value":10.67},"store":{"id":5632,"name":"Americanas","thumbnail":"https://www.lomadee.com/programas/BR/5632/imagemBox_80x60.png","link":"https://redir.lomadee.com/v2/direct/aHR0cHM6Ly93d3cuYW1lcmljYW5hcy5jb20uYnIv/37058785/12780","invisible":false,"needPermission":true}},{"id":"3620222384","name":"X18 verdadeira Auscultadores sem fios Mini tws fones de ouvido Fones de ouvido Bluetooth 4.2 + edr Sports Earbuds de ouvido com carregamento Box","category":{"id":77,"name":"Celular e Smartphone","link":"http://api.lomadee.com/v3/16168894131732d2dfed6/category/_id/77?sourceId=37058785"},"link":"https://redir.lomadee.com/v2/direct/aHR0cHM6Ly90cmFja2VyMi5hZDV0cmFjay5jb20vdHJhY2tlci9jbGljaz9hY2M9MmNjZmU4MjJkZmQ4NWQzYjcyMzU3ZjRkNWYwODlmZjYmaT01OTk1OTdmNWVlYzNkZmIxZjgzYjc5MDUmbz02MTAwYzYxZGY4ZTk1ZWFjM2RkZjQ5MTAmcmVkaXJlY3RfdXJsPWh0dHBzJTNBJTJGJTJGd3d3LmFtZXJpY2FuYXMuY29tLmJyJTJGcHJvZHV0byUyRjM2MjAyMjIzODQlM0ZvcG4lM0RBRkxBQ09N/37058785/12780","thumbnail":"https://images-americanas.b2w.io/produtos/3620222384/imagens/x18-verdadeira-auscultadores-sem-fios-mini-tws-fones-de-ouvido-fones-de-ouvido-bluetooth-4-2-edr-sports-earbuds-de-ouvido-com-carregamento-box/3620222384_1_medium.jpg","price":237.98,"priceFrom":237.98,"discount":0.0,"installment":{"quantity":12,"value":19.83},"store":{"id":5632,"name":"Americanas","thumbnail":"https://www.lomadee.com/programas/BR/5632/imagemBox_80x60.png","link":"https://redir.lomadee.com/v2/direct/aHR0cHM6Ly93d3cuYW1lcmljYW5hcy5jb20uYnIv/37058785/12780","invisible":false,"needPermission":true}},{"id":"3616525702","name":"Freewolf K13 Gaming Keyboard Uma Mão Wired Keyboard Um jogo única mão do teclado para pugb Móvel jogo da mão mecânica Sentindo Design Ergonômico","category":{"id":77,"name":"Celular e Smartphone","link":"http://api.lomadee.com/v3/16168894131732d2dfed6/category/_id/77?sourceId=37058785"},"link":"https://redir.lomadee.com/v2/direct/aHR0cHM6Ly90cmFja2VyMi5hZDV0cmFjay5jb20vdHJhY2tlci9jbGljaz9hY2M9MmNjZmU4MjJkZmQ4NWQzYjcyMzU3ZjRkNWYwODlmZjYmaT01OTk1OTdmNWVlYzNkZmIxZjgzYjc5MDUmbz02MTA0Y2NjMGY4ZTk1ZWFjM2QwNjY1NTQmcmVkaXJlY3RfdXJsPWh0dHBzJTNBJTJGJTJGd3d3LmFtZXJpY2FuYXMuY29tLmJyJTJGcHJvZHV0byUyRjM2MTY1MjU3MDIlM0ZvcG4lM0RBRkxBQ09N/37058785/12780","thumbnail":"https://images-americanas.b2w.io/produtos/3616525702/imagens/freewolf-k13-gaming-keyboard-uma-mao-wired-keyboard-um-jogo-unica-mao-do-teclado-para-pugb-movel-jogo-da-mao-mecanica-sentindo-design-ergonomico/3616525702_1_medium.jpg","price":266.93,"priceFrom":266.93,"discount":0.0,"installment":{"quantity":12,"value":22.24},"store":{"id":5632,"name":"Americanas","thumbnail":"https://www.lomadee.com/programas/BR/5632/imagemBox_80x60.png","link":"https://redir.lomadee.com/v2/direct/aHR0cHM6Ly93d3cuYW1lcmljYW5hcy5jb20uYnIv/37058785/12780","invisible":false,"needPermission":true}},{"id":"3638716219","name":"Bateria externa Magnetic Power Bank Para Iphone 12 12pro 12promax 12mini","category":{"id":77,"name":"Celular e Smartphone","link":"http://api.lomadee.com/v3/16168894131732d2dfed6/category/_id/77?sourceId=37058785"},"link":"https://redir.lomadee.com/v2/direct/aHR0cHM6Ly90cmFja2VyMi5hZDV0cmFjay5jb20vdHJhY2tlci9jbGljaz9hY2M9MmNjZmU4MjJkZmQ4NWQzYjcyMzU3ZjRkNWYwODlmZjYmaT01OTk1OTdmNWVlYzNkZmIxZjgzYjc5MDUmbz02MTA1MTM4OGY4ZTk1ZWFjM2QwODI3MmEmcmVkaXJlY3RfdXJsPWh0dHBzJTNBJTJGJTJGd3d3LmFtZXJpY2FuYXMuY29tLmJyJTJGcHJvZHV0byUyRjM2Mzg3MTYyMTklM0ZvcG4lM0RBRkxBQ09N/37058785/12780","thumbnail":"https://images-americanas.b2w.io/produtos/3638716219/imagens/bateria-externa-magnetic-power-bank-para-iphone-12-12pro-12promax-12mini/3638716219_1_medium.jpg","price":163.2,"priceFrom":163.2,"discount":0.0,"installment":{"quantity":12,"value":13.6},"store":{"id":5632,"name":"Americanas","thumbnail":"https://www.lomadee.com/programas/BR/5632/imagemBox_80x60.png","link":"https://redir.lomadee.com/v2/direct/aHR0cHM6Ly93d3cuYW1lcmljYW5hcy5jb20uYnIv/37058785/12780","invisible":false,"needPermission":true}},{"id":"3643031468","name":"Khp 6.55WHR 3.82V 1715mah Li-ion polímero bateria do telefone móvel para o iPhone 6S-Omygod","category":{"id":77,"name":"Celular e Smartphone","link":"http://api.lomadee.com/v3/16168894131732d2dfed6/category/_id/77?sourceId=37058785"},"link":"https://redir.lomadee.com/v2/direct/aHR0cHM6Ly90cmFja2VyMi5hZDV0cmFjay5jb20vdHJhY2tlci9jbGljaz9hY2M9MmNjZmU4MjJkZmQ4NWQzYjcyMzU3ZjRkNWYwODlmZjYmaT01OTk1OTdmNWVlYzNkZmIxZjgzYjc5MDUmbz02MTA3OWY5NGY4ZTk1ZWFjM2QxNDliZmEmcmVkaXJlY3RfdXJsPWh0dHBzJTNBJTJGJTJGd3d3LmFtZXJpY2FuYXMuY29tLmJyJTJGcHJvZHV0byUyRjM2NDMwMzE0NjglM0ZvcG4lM0RBRkxBQ09N/37058785/12780","thumbnail":"https://images-americanas.b2w.io/produtos/3643031468/imagens/khp-6-55whr-3-82v-1715mah-li-ion-polimero-bateria-do-telefone-movel-para-o-iphone-6s-omygod/3643031468_1_medium.jpg","price":56.03,"priceFrom":56.03,"discount":0.0,"installment":{"quantity":5,"value":11.2},"store":{"id":5632,"name":"Americanas","thumbnail":"https://www.lomadee.com/programas/BR/5632/imagemBox_80x60.png","link":"https://redir.lomadee.com/v2/direct/aHR0cHM6Ly93d3cuYW1lcmljYW5hcy5jb20uYnIv/37058785/12780","invisible":false,"needPermission":true}},{"id":"3632902310","name":"2xEar Pads Substituição Da Almofada Para Audio Technica MSR7 M50X M20 M40 M40X Preto","category":{"id":77,"name":"Celular e Smartphone","link":"http://api.lomadee.com/v3/16168894131732d2dfed6/category/_id/77?sourceId=37058785"},"link":"https://redir.lomadee.com/v2/direct/aHR0cHM6Ly90cmFja2VyMi5hZDV0cmFjay5jb20vdHJhY2tlci9jbGljaz9hY2M9MmNjZmU4MjJkZmQ4NWQzYjcyMzU3ZjRkNWYwODlmZjYmaT01OTk1OTdmNWVlYzNkZmIxZjgzYjc5MDUmbz02MTAzOWI2ZGY4ZTk1ZWFjM2RmY2VjMmEmcmVkaXJlY3RfdXJsPWh0dHBzJTNBJTJGJTJGd3d3LmFtZXJpY2FuYXMuY29tLmJyJTJGcHJvZHV0byUyRjM2MzI5MDIzMTAlM0ZvcG4lM0RBRkxBQ09N/37058785/12780","thumbnail":"https://images-americanas.b2w.io/produtos/3632902310/imagens/2xear-pads-substituicao-da-almofada-para-audio-technica-msr7-m50x-m20-m40-m40x-preto/3632902310_1_medium.jpg","price":41.94,"priceFrom":41.94,"discount":0.0,"installment":{"quantity":4,"value":10.48},"store":{"id":5632,"name":"Americanas","thumbnail":"https://www.lomadee.com/programas/BR/5632/imagemBox_80x60.png","link":"https://redir.lomadee.com/v2/direct/aHR0cHM6Ly93d3cuYW1lcmljYW5hcy5jb20uYnIv/37058785/12780","invisible":false,"needPermission":true}},{"id":"3641968901","name":"3D LED Crown Cactus Night Lights Unicorn Cloud Table Lamp Luminaria LED Marquee Letter Sign Light Pe","category":{"id":77,"name":"Celular e Smartphone","link":"http://api.lomadee.com/v3/16168894131732d2dfed6/category/_id/77?sourceId=37058785"},"link":"https://redir.lomadee.com/v2/direct/aHR0cHM6Ly90cmFja2VyMi5hZDV0cmFjay5jb20vdHJhY2tlci9jbGljaz9hY2M9MmNjZmU4MjJkZmQ4NWQzYjcyMzU3ZjRkNWYwODlmZjYmaT01OTk1OTdmNWVlYzNkZmIxZjgzYjc5MDUmbz02MTA2YWI1ZWY4ZTk1ZWFjM2QxMGFkMmYmcmVkaXJlY3RfdXJsPWh0dHBzJTNBJTJGJTJGd3d3LmFtZXJpY2FuYXMuY29tLmJyJTJGcHJvZHV0byUyRjM2NDE5Njg5MDElM0ZvcG4lM0RBRkxBQ09N/37058785/12780","thumbnail":"https://images-americanas.b2w.io/produtos/3641968901/imagens/3d-led-crown-cactus-night-lights-unicorn-cloud-table-lamp-luminaria-led-marquee-letter-sign-light-pe/3641968901_1_medium.jpg","price":281.0,"priceFrom":281.0,"discount":0.0,"installment":{"quantity":12,"value":23.41},"store":{"id":5632,"name":"Americanas","thumbnail":"https://www.lomadee.com/programas/BR/5632/imagemBox_80x60.png","link":"https://redir.lomadee.com/v2/direct/aHR0cHM6Ly93d3cuYW1lcmljYW5hcy5jb20uYnIv/37058785/12780","invisible":false,"needPermission":true}}]}