{"requestInfo":{"status":"OK","message":"SUCCESS","generatedDate":null},"pagination":{"page":1,"size":12,"totalSize":1534,"totalPage":128},"offers":[{"id":"41482","name":"Conjunto Infantil Menina De Tecido Tricoline Fio Tinto Com Estampa Xadrez Vichy Mundi - 10","category":{"id":0,"name":"Geral","link":"http://api.lomadee.com/v3/16168894131732d2dfed6/category/_id/0?sourceId=37058785"},"link":"https://redir.lomadee.com/v2/direct/aHR0cHM6Ly93d3cuYnJhbmRpbGkuY29tLmJyL2Nvbmp1bnRvLWluZmFudGlsLW1lbmluYS1kZS10ZWNpZG8tdmljaHktY29tLWVzdGFtcGEteGFkcmV6LW11bmRpLTI0OTE2MTU3Mi9wP2lkc2t1PTQxNDgy/37058785/12780","thumbnail":"https://brandili.vteximg.com.br/arquivos/ids/229333_2","price":161.9,"discount":0.0,"installment":{"quantity":5,"value":32.38},"store":{"id":7863,"name":"Brandili","thumbnail":"https://www.lomadee.com/programas/BR/7863/imagemBox_80x60.png","link":"https://redir.lomadee.com/v2/direct/aHR0cHM6Ly93d3cuYnJhbmRpbGkuY29tLmJyLw==/37058785/12780","invisible":false,"needPermission":false}},{"id":"41536","name":"Conjunto Infantil Menina De Linho Com Estampa De Flores Mundi - 10","category":{"id":0,"name":"Geral","link":"http://api.lomadee.com/v3/16168894131732d2dfed6/category/_id/0?sourceId=37058785"},"link":"https://redir.lomadee.com/v2/direct/aHR0cHM6Ly93d3cuYnJhbmRpbGkuY29tLmJyL2Nvbmp1bnRvLWluZmFudGlsLW1lbmluYS1kZS1saW5oby1jb20tZXN0YW1wYS1kZS1mbG9yZXMtbXVuZGktMjQ5MTExNjIzL3A/aWRza3U9NDE1MzY=/37058785/12780","thumbnail":"https://brandili.vteximg.com.br/arquivos/ids/229435_2","price":134.9,"discount":0.0,"installment":{"quantity":4,"value":33.72},"store":{"id":7863,"name":"Brandili","thumbnail":"https://www.lomadee.com/programas/BR/7863/imagemBox_80x60.png","link":"https://redir.lomadee.com/v2/direct/aHR0cHM6Ly93d3cuYnJhbmRpbGkuY29tLmJyLw==/37058785/12780","invisible":false,"needPermission":false}},{"id":"41735","name":"Conjunto Infantil Menino De Tricoline Mundi - 1","category":{"id":0,"name":"Geral","link":"http://api.lomadee.com/v3/16168894131732d2dfed6/category/_id/0?sourceId=37058785"},"link":"https://redir.lomadee.com/v2/direct/aHR0cHM6Ly93d3cuYnJhbmRpbGkuY29tLmJyL2Nvbmp1bnRvLWluZmFudGlsLW1lbmluby1kZS10cmljb2xpbmUtbXVuZGktMjQ5MzYwMDAzL3A/aWRza3U9NDE3MzU=/37058785/12780","thumbnail":"https://brandili.vteximg.com.br/arquivos/ids/229799_2","price":169.9,"discount":0.0,"installment":{"quantity":5,"value":33.98},"store":{"id":7863,"name":"Brandili","thumbnail":"https://www.lomadee.com/programas/BR/7863/imagemBox_80x60.png","link":"https://redir.lomadee.com/v2/direct/aHR0cHM6Ly93d3cuYnJhbmRpbGkuY29tLmJyLw==/37058785/12780","invisible":false,"needPermission":false}},{"id":"41231","name":"Conjunto Infantil Menina De Malha Com Estampa De Gatinho Mundi - 1","category":{"id":0,"name":"Geral","link":"http://api.lomadee.com/v3/16168894131732d2dfed6/category/_id/0?sourceId=37058785"},"link":"https://redir.lomadee.com/v2/direct/aHR0cHM6Ly93d3cuYnJhbmRpbGkuY29tLmJyL2Nvbmp1bnRvLWluZmFudGlsLW1lbmluYS1kZS1tYWxoYS1jb20tZXN0YW1wYS1kZS1nYXRpbmhvLW11bmRpLTI0ODk0MjgzMS9wP2lkc2t1PTQxMjMx/37058785/12780","thumbnail":"https://brandili.vteximg.com.br/arquivos/ids/228885_2","price":89.9,"discount":0.0,"installment":{"quantity":3,"value":29.96},"store":{"id":7863,"name":"Brandili","thumbnail":"https://www.lomadee.com/programas/BR/7863/imagemBox_80x60.png","link":"https://redir.lomadee.com/v2/direct/aHR0cHM6Ly93d3cuYnJhbmRpbGkuY29tLmJyLw==/37058785/12780","invisible":false,"needPermission":false}},{"id":"41416","name":"Conjunto Infantil Menina De Cotton Com Estampa De Folhas Mundi - 10","category":{"id":0,"name":"Geral","link":"http://api.lomadee.com/v3/16168894131732d2dfed6/category/_id/0?sourceId=37058785"},"link":"https://redir.lomadee.com/v2/direct/aHR0cHM6Ly93d3cuYnJhbmRpbGkuY29tLmJyL2Nvbmp1bnRvLWluZmFudGlsLW1lbmluYS1kZS1jb3R0b24tY29tLWVzdGFtcGEtZGUtZm9saGFzLW11bmRpLTI0OTIwMTYyMy9wP2lkc2t1PTQxNDE2/37058785/12780","thumbnail":"https://brandili.vteximg.com.br/arquivos/ids/229213_2","price":134.9,"discount":0.0,"installment":{"quantity":4,"value":33.72},"store":{"id":7863,"name":"Brandili","thumbnail":"https://www.lomadee.com/programas/BR/7863/imagemBox_80x60.png","link":"https://redir.lomadee.com/v2/direct/aHR0cHM6Ly93d3cuYnJhbmRpbGkuY29tLmJyLw==/37058785/12780","invisible":false,"needPermission":false}},{"id":"41243","name":"Conjunto Infantil Menina De Tecido Tricoline Fio Tinto Com Estampa Xadrez Vichy Mundi - 1","category":{"id":0,"name":"Geral","link":"http://api.lomadee.com/v3/16168894131732d2dfed6/category/_id/0?sourceId=37058785"},"link":"https://redir.lomadee.com/v2/direct/aHR0cHM6Ly93d3cuYnJhbmRpbGkuY29tLmJyL2Nvbmp1bnRvLWluZmFudGlsLW1lbmluYS1kZS10ZWNpZG8tdmljaHktY29tLWVzdGFtcGEteGFkcmV6LW11bmRpLTI0ODkzMTU3Mi9wP2lkc2t1PTQxMjQz/37058785/12780","thumbnail":"https://brandili.vteximg.com.br/arquivos/ids/228907_2","price":99.9,"discount":0.0,"installment":{"quantity":3,"value":33.3},"store":{"id":7863,"name":"Brandili","thumbnail":"https://www.lomadee.com/programas/BR/7863/imagemBox_80x60.png","link":"https://redir.lomadee.com/v2/direct/aHR0cHM6Ly93d3cuYnJhbmRpbGkuY29tLmJyLw==/37058785/12780","invisible":false,"needPermission":false}},{"id":"41249","name":"Conjunto Infantil Menina De Malha Com Estampa De Folhas Mundi - 1","category":{"id":0,"name":"Geral","link":"http://api.lomadee.com/v3/16168894131732d2dfed6/category/_id/0?sourceId=37058785"},"link":"https://redir.lomadee.com/v2/direct/aHR0cHM6Ly93d3cuYnJhbmRpbGkuY29tLmJyL2Nvbmp1bnRvLWluZmFudGlsLW1lbmluYS1kZS1tYWxoYS1jb20tZXN0YW1wYS1kZS1mb2xoYXMtbXVuZGktMjQ4OTIzNzc3L3A/aWRza3U9NDEyNDk=/37058785/12780","thumbnail":"https://brandili.vteximg.com.br/arquivos/ids/228919_2","price":109.9,"discount":0.0,"installment":{"quantity":3,"value":36.63},"store":{"id":7863,"name":"Brandili","thumbnail":"https://www.lomadee.com/programas/BR/7863/imagemBox_80x60.png","link":"https://redir.lomadee.com/v2/direct/aHR0cHM6Ly93d3cuYnJhbmRpbGkuY29tLmJyLw==/37058785/12780","invisible":false,"needPermission":false}},{"id":"41255","name":"Conjunto Infantil Menina De Malha Com Estampa De Folhas Mundi - 1","category":{"id":0,"name":"Geral","link":"http://api.lomadee.com/v3/16168894131732d2dfed6/category/_id/0?sourceId=37058785"},"link":"https://redir.lomadee.com/v2/direct/aHR0cHM6Ly93d3cuYnJhbmRpbGkuY29tLmJyL2Nvbmp1bnRvLWluZmFudGlsLW1lbmluYS1kZS1tYWxoYS1jb20tZXN0YW1wYS1kZS1mb2xoYXMtbXVuZGktMjQ4OTIwMDAxL3A/aWRza3U9NDEyNTU=/37058785/12780","thumbnail":"https://brandili.vteximg.com.br/arquivos/ids/228930_2","price":109.9,"discount":0.0,"installment":{"quantity":3,"value":36.63},"store":{"id":7863,"name":"Brandili","thumbnail":"https://www.lomadee.com/programas/BR/7863/imagemBox_80x60.png","link":"https://redir.lomadee.com/v2/direct/aHR0cHM6Ly93d3cuYnJhbmRpbGkuY29tLmJyLw==/37058785/12780","invisible":false,"needPermission":false}},{"id":"41309","name":"Blusa Infantil Menina De Ribana Com Listras Mundi - 10","category":{"id":0,"name":"Geral","link":"http://api.lomadee.com/v3/16168894131732d2dfed6/category/_id/0?sourceId=37058785"},"link":"https://redir.lomadee.com/v2/direct/aHR0cHM6Ly93d3cuYnJhbmRpbGkuY29tLmJyL2JsdXNhLWluZmFudGlsLW1lbmluYS1kZS1yaWJhbmEtY29tLWxpc3RyYXMtbXVuZGktMjQ4NzYyODMxL3A/aWRza3U9NDEzMDk=/37058785/12780","thumbnail":"https://brandili.vteximg.com.br/arquivos/ids/229031_2","price":64.9,"discount":0.0,"installment":{"quantity":2,"value":32.45},"store":{"id":7863,"name":"Brandili","thumbnail":"https://www.lomadee.com/programas/BR/7863/imagemBox_80x60.png","link":"https://redir.lomadee.com/v2/direct/aHR0cHM6Ly93d3cuYnJhbmRpbGkuY29tLmJyLw==/37058785/12780","invisible":false,"needPermission":false}},{"id":"41348","name":"Conjunto Bebê Menino De Moletinho Com Tema Náutico Mundi - G","category":{"id":0,"name":"Geral","link":"http://api.lomadee.com/v3/16168894131732d2dfed6/category/_id/0?sourceId=37058785"},"link":"https://redir.lomadee.com/v2/direct/aHR0cHM6Ly93d3cuYnJhbmRpbGkuY29tLmJyL2Nvbmp1bnRvLWJlYmUtbWVuaW5vLWRlLW1vbGV0aW5oby1jb20tdGVtYS1uYXV0aWNvLW11bmRpLTI0ODcyMTYyMy9wP2lkc2t1PTQxMzQ4/37058785/12780","thumbnail":"https://brandili.vteximg.com.br/arquivos/ids/229097_2","price":109.9,"discount":0.0,"installment":{"quantity":3,"value":36.63},"store":{"id":7863,"name":"Brandili","thumbnail":"https://www.lomadee.com/programas/BR/7863/imagemBox_80x60.png","link":"https://redir.lomadee.com/v2/direct/aHR0cHM6Ly93d3cuYnJhbmRpbGkuY29tLmJyLw==/37058785/12780","invisible":false,"needPermission":false}},{"id":"41172","name":"Vestido Infantil Menina De Cotton Com Estampa De Folhas Mundi - 1","category":{"id":0,"name":"Geral","link":"http://api.lomadee.com/v3/16168894131732d2dfed6/category/_id/0?sourceId=37058785"},"link":"https://redir.lomadee.com/v2/direct/aHR0cHM6Ly93d3cuYnJhbmRpbGkuY29tLmJyL3Zlc3RpZG8taW5mYW50aWwtbWVuaW5hLWRlLWNvdHRvbi1jb20tZXN0YW1wYS1kZS1mb2xoYXMtbXVuZGktMjQ5NTgwOTQ1L3A/aWRza3U9NDExNzI=/37058785/12780","thumbnail":"https://brandili.vteximg.com.br/arquivos/ids/228787_2","price":89.9,"discount":0.0,"installment":{"quantity":3,"value":29.96},"store":{"id":7863,"name":"Brandili","thumbnail":"https://www.lomadee.com/programas/BR/7863/imagemBox_80x60.png","link":"https://redir.lomadee.com/v2/direct/aHR0cHM6Ly93d3cuYnJhbmRpbGkuY29tLmJyLw==/37058785/12780","invisible":false,"needPermission":false}},{"id":"40969","name":"Camisa Infantil Menino De Tricoline Com Cor Lisa Mundi - 10","category":{"id":0,"name":"Geral","link":"http://api.lomadee.com/v3/16168894131732d2dfed6/category/_id/0?sourceId=37058785"},"link":"https://redir.lomadee.com/v2/direct/aHR0cHM6Ly93d3cuYnJhbmRpbGkuY29tLmJyL2NhbWlzYS1pbmZhbnRpbC1tZW5pbm8tZGUtdHJpY29saW5lLWNvbS1jb3ItbGlzYS1tdW5kaS0yNDk0MjE2MjMvcD9pZHNrdT00MDk2OQ==/37058785/12780","thumbnail":"https://brandili.vteximg.com.br/arquivos/ids/228405_2","price":119.9,"discount":0.0,"installment":{"quantity":4,"value":29.97},"store":{"id":7863,"name":"Brandili","thumbnail":"https://www.lomadee.com/programas/BR/7863/imagemBox_80x60.png","link":"https://redir.lomadee.com/v2/direct/aHR0cHM6Ly93d3cuYnJhbmRpbGkuY29tLmJyLw==/37058785/12780","invisible":false,"needPermission":false}}]}