{"requestInfo":{"status":"OK","message":"SUCCESS","generatedDate":null},"pagination":{"page":2,"size":12,"totalSize":1534,"totalPage":128},"offers":[{"id":"41000","name":"Camiseta Infantil Menino De Malha Com Estampa De Game Mundi - 10","category":{"id":0,"name":"Geral","link":"http://api.lomadee.com/v3/16168894131732d2dfed6/category/_id/0?sourceId=37058785"},"link":"https://redir.lomadee.com/v2/direct/aHR0cHM6Ly93d3cuYnJhbmRpbGkuY29tLmJyL2NhbWlzZXRhLWluZmFudGlsLW1lbmluby1kZS1tYWxoYS1jb20tZXN0YW1wYS1kZS1nYW1lLW11bmRpLTI0OTM4MTYyMy9wP2lkc2t1PTQxMDAw/37058785/12780","thumbnail":"https://brandili.vteximg.com.br/arquivos/ids/228464_2","price":59.9,"discount":0.0,"installment":{"quantity":2,"value":29.95},"store":{"id":7863,"name":"Brandili","thumbnail":"https://www.lomadee.com/programas/BR/7863/imagemBox_80x60.png","link":"https://redir.lomadee.com/v2/direct/aHR0cHM6Ly93d3cuYnJhbmRpbGkuY29tLmJyLw==/37058785/12780","invisible":false,"needPermission":false}},{"id":"41024","name":"Camiseta Infantil Menino De Malha Com Listras  Mundi - 10","category":{"id":0,"name":"Geral","link":"http://api.lomadee.com/v3/16168894131732d2dfed6/category/_id/0?sourceId=37058785"},"link":"https://redir.lomadee.com/v2/direct/aHR0cHM6Ly93d3cuYnJhbmRpbGkuY29tLmJyL2NhbWlzZXRhLWluZmFudGlsLW1lbmluby1kZS1tYWxoYS1jb20tbGlzdHJhcy0tbXVuZGktMjQ5MzcwMDAzL3A/aWRza3U9NDEwMjQ=/37058785/12780","thumbnail":"https://brandili.vteximg.com.br/arquivos/ids/228510_2","price":79.9,"discount":0.0,"installment":{"quantity":2,"value":39.95},"store":{"id":7863,"name":"Brandili","thumbnail":"https://www.lomadee.com/programas/BR/7863/imagemBox_80x60.png","link":"https://redir.lomadee.com/v2/direct/aHR0cHM6Ly93d3cuYnJhbmRpbGkuY29tLmJyLw==/37058785/12780","invisible":false,"needPermission":false}},{"id":"41072","name":"Camiseta Infantil Menino De Malha Com Estampa De Cachorrinho Mundi - 1","category":{"id":0,"name":"Geral","link":"http://api.lomadee.com/v3/16168894131732d2dfed6/category/_id/0?sourceId=37058785"},"link":"https://redir.lomadee.com/v2/direct/aHR0cHM6Ly93d3cuYnJhbmRpbGkuY29tLmJyL2NhbWlzZXRhLWluZmFudGlsLW1lbmluby1kZS1tYWxoYS1jb20tZXN0YW1wYS1kZS1jYWNob3JyaW5oby1tdW5kaS0yNDkyMzI0MjkvcD9pZHNrdT00MTA3Mg==/37058785/12780","thumbnail":"https://brandili.vteximg.com.br/arquivos/ids/228598_2","price":49.9,"discount":0.0,"installment":{"quantity":1,"value":49.9},"store":{"id":7863,"name":"Brandili","thumbnail":"https://www.lomadee.com/programas/BR/7863/imagemBox_80x60.png","link":"https://redir.lomadee.com/v2/direct/aHR0cHM6Ly93d3cuYnJhbmRpbGkuY29tLmJyLw==/37058785/12780","invisible":false,"needPermission":false}},{"id":"41090","name":"Vestido Infantil Menina De Tecido Tricoline Fio Tinto Com Estampa Xadrez Vichy Mundi - 10","category":{"id":0,"name":"Geral","link":"http://api.lomadee.com/v3/16168894131732d2dfed6/category/_id/0?sourceId=37058785"},"link":"https://redir.lomadee.com/v2/direct/aHR0cHM6Ly93d3cuYnJhbmRpbGkuY29tLmJyL3Zlc3RpZG8taW5mYW50aWwtbWVuaW5hLWRlLXRlY2lkby12aWNoeS1jb20tZXN0YW1wYS14YWRyZXotbXVuZGktMjQ5MDgxNjEyL3A/aWRza3U9NDEwOTA=/37058785/12780","thumbnail":"https://brandili.vteximg.com.br/arquivos/ids/228632_2","price":129.9,"discount":0.0,"installment":{"quantity":4,"value":32.47},"store":{"id":7863,"name":"Brandili","thumbnail":"https://www.lomadee.com/programas/BR/7863/imagemBox_80x60.png","link":"https://redir.lomadee.com/v2/direct/aHR0cHM6Ly93d3cuYnJhbmRpbGkuY29tLmJyLw==/37058785/12780","invisible":false,"needPermission":false}},{"id":"41114","name":"Vestido Infantil Menina De Cotton Com Estampa De Cachorrinho Mundi - 10","category":{"id":0,"name":"Geral","link":"http://api.lomadee.com/v3/16168894131732d2dfed6/category/_id/0?sourceId=37058785"},"link":"https://redir.lomadee.com/v2/direct/aHR0cHM6Ly93d3cuYnJhbmRpbGkuY29tLmJyL3Zlc3RpZG8taW5mYW50aWwtbWVuaW5hLWRlLWNvdHRvbi1jb20tZXN0YW1wYS1kZS1jYWNob3JyaW5oby1tdW5kaS0yNDkwNjAwMDMvcD9pZHNrdT00MTExNA==/37058785/12780","thumbnail":"https://brandili.vteximg.com.br/arquivos/ids/228675_2","price":99.9,"discount":0.0,"installment":{"quantity":3,"value":33.3},"store":{"id":7863,"name":"Brandili","thumbnail":"https://www.lomadee.com/programas/BR/7863/imagemBox_80x60.png","link":"https://redir.lomadee.com/v2/direct/aHR0cHM6Ly93d3cuYnJhbmRpbGkuY29tLmJyLw==/37058785/12780","invisible":false,"needPermission":false}},{"id":"41132","name":"Vestido Infantil Menina De Cotton Com Estampa De Folhas Mundi - 10","category":{"id":0,"name":"Geral","link":"http://api.lomadee.com/v3/16168894131732d2dfed6/category/_id/0?sourceId=37058785"},"link":"https://redir.lomadee.com/v2/direct/aHR0cHM6Ly93d3cuYnJhbmRpbGkuY29tLmJyL3Zlc3RpZG8taW5mYW50aWwtbWVuaW5hLWRlLWNvdHRvbi1jb20tZXN0YW1wYS1kZS1mb2xoYXMtbXVuZGktMjQ5MDMwMDAzL3A/aWRza3U9NDExMzI=/37058785/12780","thumbnail":"https://brandili.vteximg.com.br/arquivos/ids/228710_2","price":109.9,"discount":0.0,"installment":{"quantity":3,"value":36.63},"store":{"id":7863,"name":"Brandili","thumbnail":"https://www.lomadee.com/programas/BR/7863/imagemBox_80x60.png","link":"https://redir.lomadee.com/v2/direct/aHR0cHM6Ly93d3cuYnJhbmRpbGkuY29tLmJyLw==/37058785/12780","invisible":false,"needPermission":false}},{"id":"41150","name":"Vestido Infantil Menina De Cotton Com Estampa De Flores Mundi - 10","category":{"id":0,"name":"Geral","link":"http://api.lomadee.com/v3/16168894131732d2dfed6/category/_id/0?sourceId=37058785"},"link":"https://redir.lomadee.com/v2/direct/aHR0cHM6Ly93d3cuYnJhbmRpbGkuY29tLmJyL3Zlc3RpZG8taW5mYW50aWwtbWVuaW5hLWRlLWNvdHRvbi1jb20tZXN0YW1wYS1kZS1mbG9yZXMtbXVuZGktMjQ5MDExNjIzL3A/aWRza3U9NDExNTA=/37058785/12780","thumbnail":"https://brandili.vteximg.com.br/arquivos/ids/228745_2","price":119.9,"discount":0.0,"installment":{"quantity":4,"value":29.97},"store":{"id":7863,"name":"Brandili","thumbnail":"https://www.lomadee.com/programas/BR/7863/imagemBox_80x60.png","link":"https://redir.lomadee.com/v2/direct/aHR0cHM6Ly93d3cuYnJhbmRpbGkuY29tLmJyLw==/37058785/12780","invisible":false,"needPermission":false}},{"id":"41156","name":"Vestido Infantil Menina De Cotton Com Estampa De Flores Mundi - 10","category":{"id":0,"name":"Geral","link":"http://api.lomadee.com/v3/16168894131732d2dfed6/category/_id/0?sourceId=37058785"},"link":"https://redir.lomadee.com/v2/direct/aHR0cHM6Ly93d3cuYnJhbmRpbGkuY29tLmJyL3Zlc3RpZG8taW5mYW50aWwtbWVuaW5hLWRlLWNvdHRvbi1jb20tZXN0YW1wYS1kZS1mbG9yZXMtbXVuZGktMjQ5MDEwOTQ1L3A/aWRza3U9NDExNTY=/37058785/12780","thumbnail":"https://brandili.vteximg.com.br/arquivos/ids/228756_2","price":119.9,"discount":0.0,"installment":{"quantity":4,"value":29.97},"store":{"id":7863,"name":"Brandili","thumbnail":"https://www.lomadee.com/programas/BR/7863/imagemBox_80x60.png","link":"https://redir.lomadee.com/v2/direct/aHR0cHM6Ly93d3cuYnJhbmRpbGkuY29tLmJyLw==/37058785/12780","invisible":false,"needPermission":false}},{"id":"40803","name":"Vestido Longo Infantil Menina De Cotton Com Estampa De Folhas Mundi - 10","category":{"id":0,"name":"Geral","link":"http://api.lomadee.com/v3/16168894131732d2dfed6/category/_id/0?sourceId=37058785"},"link":"https://redir.lomadee.com/v2/direct/aHR0cHM6Ly93d3cuYnJhbmRpbGkuY29tLmJyL3Zlc3RpZG8tbG9uZ28taW5mYW50aWwtbWVuaW5hLWRlLWNvdHRvbi1jb20tZXN0YW1wYS1kZS1mb2xoYXMtbXVuZGktMjQ5MDAxNTE2L3A/aWRza3U9NDA4MDM=/37058785/12780","thumbnail":"https://brandili.vteximg.com.br/arquivos/ids/228131_2","price":149.9,"discount":0.0,"installment":{"quantity":5,"value":29.98},"store":{"id":7863,"name":"Brandili","thumbnail":"https://www.lomadee.com/programas/BR/7863/imagemBox_80x60.png","link":"https://redir.lomadee.com/v2/direct/aHR0cHM6Ly93d3cuYnJhbmRpbGkuY29tLmJyLw==/37058785/12780","invisible":false,"needPermission":false}},{"id":"40840","name":"Vestido Infantil Menina De Ribana Com Listras Mundi - 12","category":{"id":0,"name":"Geral","link":"http://api.lomadee.com/v3/16168894131732d2dfed6/category/_id/0?sourceId=37058785"},"link":"https://redir.lomadee.com/v2/direct/aHR0cHM6Ly93d3cuYnJhbmRpbGkuY29tLmJyL3Zlc3RpZG8taW5mYW50aWwtbWVuaW5hLWRlLXJpYmFuYS1jb20tbGlzdHJhcy1tdW5kaS0yNDg4NDI4MzEvcD9pZHNrdT00MDg0MA==/37058785/12780","thumbnail":"https://brandili.vteximg.com.br/arquivos/ids/228201_2","price":119.9,"discount":0.0,"installment":{"quantity":4,"value":29.97},"store":{"id":7863,"name":"Brandili","thumbnail":"https://www.lomadee.com/programas/BR/7863/imagemBox_80x60.png","link":"https://redir.lomadee.com/v2/direct/aHR0cHM6Ly93d3cuYnJhbmRpbGkuY29tLmJyLw==/37058785/12780","invisible":false,"needPermission":false}},{"id":"40845","name":"Vestido Infantil Menina De Ribana Com Listras Mundi - 10","category":{"id":0,"name":"Geral","link":"http://api.lomadee.com/v3/16168894131732d2dfed6/category/_id/0?sourceId=37058785"},"link":"https://redir.lomadee.com/v2/direct/aHR0cHM6Ly93d3cuYnJhbmRpbGkuY29tLmJyL3Zlc3RpZG8taW5mYW50aWwtbWVuaW5hLWRlLXJpYmFuYS1jb20tbGlzdHJhcy1tdW5kaS0yNDg4NDE2MjMvcD9pZHNrdT00MDg0NQ==/37058785/12780","thumbnail":"https://brandili.vteximg.com.br/arquivos/ids/228211_2","price":119.9,"discount":0.0,"installment":{"quantity":4,"value":29.97},"store":{"id":7863,"name":"Brandili","thumbnail":"https://www.lomadee.com/programas/BR/7863/imagemBox_80x60.png","link":"https://redir.lomadee.com/v2/direct/aHR0cHM6Ly93d3cuYnJhbmRpbGkuY29tLmJyLw==/37058785/12780","invisible":false,"needPermission":false}},{"id":"40878","name":"Blusa Infantil Menina De Malha Com Estampa Personalizada Mundi - 10","category":{"id":0,"name":"Geral","link":"http://api.lomadee.com/v3/16168894131732d2dfed6/category/_id/0?sourceId=37058785"},"link":"https://redir.lomadee.com/v2/direct/aHR0cHM6Ly93d3cuYnJhbmRpbGkuY29tLmJyL2JsdXNhLWluZmFudGlsLW1lbmluYS1kZS1tYWxoYS1jb20tZXN0YW1wYS1wZXJzb25hbGl6YWRhLW11bmRpLTI0ODgwMTYxMi9wP2lkc2t1PTQwODc4/37058785/12780","thumbnail":"https://brandili.vteximg.com.br/arquivos/ids/228257_2","price":59.9,"discount":0.0,"installment":{"quantity":2,"value":29.95},"store":{"id":7863,"name":"Brandili","thumbnail":"https://www.lomadee.com/programas/BR/7863/imagemBox_80x60.png","link":"https://redir.lomadee.com/v2/direct/aHR0cHM6Ly93d3cuYnJhbmRpbGkuY29tLmJyLw==/37058785/12780","invisible":false,"needPermission":false}}]}